2020-07-08 10:00:02 data : {"0":{"token":null,"part_notification":["\u0e01\u0e23\u0e2d\u0e07\u0e17\u0e35\u0e48 2 (Double Filter)","\u0e01\u0e23\u0e2d\u0e07\u0e17\u0e35\u0e48 3 (Double Filter)","\u0e01\u0e23\u0e2d\u0e07\u0e17\u0e35\u0e48 4 (Extractor)","\u0e01\u0e23\u0e2d\u0e07\u0e17\u0e35\u0e48 5 (Purified Filter)","\u0e01\u0e23\u0e2d\u0e07\u0e17\u0e35\u0e48 1 (First Filter)"],"part_notification_id":[1572,1573,1574,1575,4556],"product_part_id":[2,3,4,5,1],"remind_type":["early     ","early     ","early     ","early     ","early     "],"timely_date":["2020-07-11","2020-07-11","2020-07-11","2020-07-11","2020-07-11"],"CustID":"b59df67ae7656819"},"4":{"token":"787568e4-038b-46cc-948c-ecc430868860","part_notification":["\u0e01\u0e23\u0e2d\u0e07\u0e17\u0e35\u0e48 2 (Double Filter)","\u0e01\u0e23\u0e2d\u0e07\u0e17\u0e35\u0e48 3 (Double Filter)","\u0e01\u0e23\u0e2d\u0e07\u0e17\u0e35\u0e48 4 (Extractor)","\u0e01\u0e23\u0e2d\u0e07\u0e17\u0e35\u0e48 5 (Purified Filter)"],"part_notification_id":[2872,2873,2874,2875],"product_part_id":[2,3,4,5],"remind_type":["early     ","early     ","early     ","early     "],"timely_date":["2020-07-11","2020-07-11","2020-07-11","2020-07-11"],"CustID":"5d343adac62d9f86"}}
2020-07-08 10:00:02 data : {"0":{"token":null,"part_notification":["\u0e01\u0e23\u0e2d\u0e07\u0e17\u0e35\u0e48 2 (Double Filter)","\u0e01\u0e23\u0e2d\u0e07\u0e17\u0e35\u0e48 3 (Double Filter)","\u0e01\u0e23\u0e2d\u0e07\u0e17\u0e35\u0e48 4 (Extractor)","\u0e01\u0e23\u0e2d\u0e07\u0e17\u0e35\u0e48 5 (Purified Filter)","\u0e01\u0e23\u0e2d\u0e07\u0e17\u0e35\u0e48 1 (First Filter)"],"part_notification_id":[1572,1573,1574,1575,4556],"product_part_id":[2,3,4,5,1],"remind_type":["early     ","early     ","early     ","early     ","early     "],"timely_date":["2020-07-11","2020-07-11","2020-07-11","2020-07-11","2020-07-11"],"CustID":"b59df67ae7656819"},"4":{"token":"787568e4-038b-46cc-948c-ecc430868860","part_notification":["\u0e01\u0e23\u0e2d\u0e07\u0e17\u0e35\u0e48 2 (Double Filter)","\u0e01\u0e23\u0e2d\u0e07\u0e17\u0e35\u0e48 3 (Double Filter)","\u0e01\u0e23\u0e2d\u0e07\u0e17\u0e35\u0e48 4 (Extractor)","\u0e01\u0e23\u0e2d\u0e07\u0e17\u0e35\u0e48 5 (Purified Filter)"],"part_notification_id":[2872,2873,2874,2875],"product_part_id":[2,3,4,5],"remind_type":["early     ","early     ","early     ","early     "],"timely_date":["2020-07-11","2020-07-11","2020-07-11","2020-07-11"],"CustID":"5d343adac62d9f86"}}
2020-07-08 10:00:02 data : {"0":{"token":null,"part_notification":["\u0e01\u0e23\u0e2d\u0e07\u0e17\u0e35\u0e48 2 (Double Filter)","\u0e01\u0e23\u0e2d\u0e07\u0e17\u0e35\u0e48 3 (Double Filter)","\u0e01\u0e23\u0e2d\u0e07\u0e17\u0e35\u0e48 4 (Extractor)","\u0e01\u0e23\u0e2d\u0e07\u0e17\u0e35\u0e48 5 (Purified Filter)","\u0e01\u0e23\u0e2d\u0e07\u0e17\u0e35\u0e48 1 (First Filter)"],"part_notification_id":[1572,1573,1574,1575,4556],"product_part_id":[2,3,4,5,1],"remind_type":["early     ","early     ","early     ","early     ","early     "],"timely_date":["2020-07-11","2020-07-11","2020-07-11","2020-07-11","2020-07-11"],"CustID":"b59df67ae7656819"},"4":{"token":"787568e4-038b-46cc-948c-ecc430868860","part_notification":["\u0e01\u0e23\u0e2d\u0e07\u0e17\u0e35\u0e48 2 (Double Filter)","\u0e01\u0e23\u0e2d\u0e07\u0e17\u0e35\u0e48 3 (Double Filter)","\u0e01\u0e23\u0e2d\u0e07\u0e17\u0e35\u0e48 4 (Extractor)","\u0e01\u0e23\u0e2d\u0e07\u0e17\u0e35\u0e48 5 (Purified Filter)"],"part_notification_id":[2872,2873,2874,2875],"product_part_id":[2,3,4,5],"remind_type":["early     ","early     ","early     ","early     "],"timely_date":["2020-07-11","2020-07-11","2020-07-11","2020-07-11"],"CustID":"5d343adac62d9f86"}}
2020-07-08 10:00:02 data : {"0":{"token":null,"part_notification":["\u0e01\u0e23\u0e2d\u0e07\u0e17\u0e35\u0e48 2 (Double Filter)","\u0e01\u0e23\u0e2d\u0e07\u0e17\u0e35\u0e48 3 (Double Filter)","\u0e01\u0e23\u0e2d\u0e07\u0e17\u0e35\u0e48 4 (Extractor)","\u0e01\u0e23\u0e2d\u0e07\u0e17\u0e35\u0e48 5 (Purified Filter)","\u0e01\u0e23\u0e2d\u0e07\u0e17\u0e35\u0e48 1 (First Filter)"],"part_notification_id":[1572,1573,1574,1575,4556],"product_part_id":[2,3,4,5,1],"remind_type":["early     ","early     ","early     ","early     ","early     "],"timely_date":["2020-07-11","2020-07-11","2020-07-11","2020-07-11","2020-07-11"],"CustID":"b59df67ae7656819"},"4":{"token":"787568e4-038b-46cc-948c-ecc430868860","part_notification":["\u0e01\u0e23\u0e2d\u0e07\u0e17\u0e35\u0e48 2 (Double Filter)","\u0e01\u0e23\u0e2d\u0e07\u0e17\u0e35\u0e48 3 (Double Filter)","\u0e01\u0e23\u0e2d\u0e07\u0e17\u0e35\u0e48 4 (Extractor)","\u0e01\u0e23\u0e2d\u0e07\u0e17\u0e35\u0e48 5 (Purified Filter)"],"part_notification_id":[2872,2873,2874,2875],"product_part_id":[2,3,4,5],"remind_type":["early     ","early     ","early     ","early     "],"timely_date":["2020-07-11","2020-07-11","2020-07-11","2020-07-11"],"CustID":"5d343adac62d9f86"}}
2020-07-08 10:00:02 data : {"0":{"token":null,"part_notification":["\u0e01\u0e23\u0e2d\u0e07\u0e17\u0e35\u0e48 2 (Double Filter)","\u0e01\u0e23\u0e2d\u0e07\u0e17\u0e35\u0e48 3 (Double Filter)","\u0e01\u0e23\u0e2d\u0e07\u0e17\u0e35\u0e48 4 (Extractor)","\u0e01\u0e23\u0e2d\u0e07\u0e17\u0e35\u0e48 5 (Purified Filter)","\u0e01\u0e23\u0e2d\u0e07\u0e17\u0e35\u0e48 1 (First Filter)"],"part_notification_id":[1572,1573,1574,1575,4556],"product_part_id":[2,3,4,5,1],"remind_type":["early     ","early     ","early     ","early     ","early     "],"timely_date":["2020-07-11","2020-07-11","2020-07-11","2020-07-11","2020-07-11"],"CustID":"b59df67ae7656819"},"4":{"token":"787568e4-038b-46cc-948c-ecc430868860","part_notification":["\u0e01\u0e23\u0e2d\u0e07\u0e17\u0e35\u0e48 2 (Double Filter)","\u0e01\u0e23\u0e2d\u0e07\u0e17\u0e35\u0e48 3 (Double Filter)","\u0e01\u0e23\u0e2d\u0e07\u0e17\u0e35\u0e48 4 (Extractor)","\u0e01\u0e23\u0e2d\u0e07\u0e17\u0e35\u0e48 5 (Purified Filter)"],"part_notification_id":[2872,2873,2874,2875],"product_part_id":[2,3,4,5],"remind_type":["early     ","early     ","early     ","early     "],"timely_date":["2020-07-11","2020-07-11","2020-07-11","2020-07-11"],"CustID":"5d343adac62d9f86"}}
