2020-05-24 13:00:04 data : {"0":{"token":"e2cd9360-8b9b-4d5b-a74e-b5c23f68deff","part_notification":["\u0e01\u0e23\u0e2d\u0e07\u0e17\u0e35\u0e48 2 (Double Filter)","\u0e01\u0e23\u0e2d\u0e07\u0e17\u0e35\u0e48 3 (Double Filter)","\u0e01\u0e23\u0e2d\u0e07\u0e17\u0e35\u0e48 4 (Extractor)","\u0e01\u0e23\u0e2d\u0e07\u0e17\u0e35\u0e48 5 (Purified Filter)"],"part_notification_id":[1047,1048,1049,1050],"product_part_id":[2,3,4,5],"remind_type":["timely    ","timely    ","timely    ","timely    "],"timely_date":["2020-05-24","2020-05-24","2020-05-24","2020-05-24"],"CustID":"d19a16c19395edbd"},"4":{"token":null,"part_notification":["\u0e01\u0e23\u0e2d\u0e07\u0e17\u0e35\u0e48 2 (Double Filter)","\u0e01\u0e23\u0e2d\u0e07\u0e17\u0e35\u0e48 3 (Double Filter)","\u0e01\u0e23\u0e2d\u0e07\u0e17\u0e35\u0e48 4 (Extractor)","\u0e01\u0e23\u0e2d\u0e07\u0e17\u0e35\u0e48 5 (Purified Filter)","\u0e01\u0e23\u0e2d\u0e07\u0e17\u0e35\u0e48 1 (First Filter)"],"part_notification_id":[1112,1113,1114,1115,4269],"product_part_id":[2,3,4,5,6],"remind_type":["early     ","early     ","early     ","early     ","early     "],"timely_date":["2020-05-27","2020-05-27","2020-05-27","2020-05-27","2020-05-27"],"CustID":"f65d799263738436"}}
2020-05-24 13:00:04 data : {"0":{"token":"e2cd9360-8b9b-4d5b-a74e-b5c23f68deff","part_notification":["\u0e01\u0e23\u0e2d\u0e07\u0e17\u0e35\u0e48 2 (Double Filter)","\u0e01\u0e23\u0e2d\u0e07\u0e17\u0e35\u0e48 3 (Double Filter)","\u0e01\u0e23\u0e2d\u0e07\u0e17\u0e35\u0e48 4 (Extractor)","\u0e01\u0e23\u0e2d\u0e07\u0e17\u0e35\u0e48 5 (Purified Filter)"],"part_notification_id":[1047,1048,1049,1050],"product_part_id":[2,3,4,5],"remind_type":["timely    ","timely    ","timely    ","timely    "],"timely_date":["2020-05-24","2020-05-24","2020-05-24","2020-05-24"],"CustID":"d19a16c19395edbd"},"4":{"token":null,"part_notification":["\u0e01\u0e23\u0e2d\u0e07\u0e17\u0e35\u0e48 2 (Double Filter)","\u0e01\u0e23\u0e2d\u0e07\u0e17\u0e35\u0e48 3 (Double Filter)","\u0e01\u0e23\u0e2d\u0e07\u0e17\u0e35\u0e48 4 (Extractor)","\u0e01\u0e23\u0e2d\u0e07\u0e17\u0e35\u0e48 5 (Purified Filter)","\u0e01\u0e23\u0e2d\u0e07\u0e17\u0e35\u0e48 1 (First Filter)"],"part_notification_id":[1112,1113,1114,1115,4269],"product_part_id":[2,3,4,5,6],"remind_type":["early     ","early     ","early     ","early     ","early     "],"timely_date":["2020-05-27","2020-05-27","2020-05-27","2020-05-27","2020-05-27"],"CustID":"f65d799263738436"}}
2020-05-24 13:00:04 data : {"0":{"token":"e2cd9360-8b9b-4d5b-a74e-b5c23f68deff","part_notification":["\u0e01\u0e23\u0e2d\u0e07\u0e17\u0e35\u0e48 2 (Double Filter)","\u0e01\u0e23\u0e2d\u0e07\u0e17\u0e35\u0e48 3 (Double Filter)","\u0e01\u0e23\u0e2d\u0e07\u0e17\u0e35\u0e48 4 (Extractor)","\u0e01\u0e23\u0e2d\u0e07\u0e17\u0e35\u0e48 5 (Purified Filter)"],"part_notification_id":[1047,1048,1049,1050],"product_part_id":[2,3,4,5],"remind_type":["timely    ","timely    ","timely    ","timely    "],"timely_date":["2020-05-24","2020-05-24","2020-05-24","2020-05-24"],"CustID":"d19a16c19395edbd"},"4":{"token":null,"part_notification":["\u0e01\u0e23\u0e2d\u0e07\u0e17\u0e35\u0e48 2 (Double Filter)","\u0e01\u0e23\u0e2d\u0e07\u0e17\u0e35\u0e48 3 (Double Filter)","\u0e01\u0e23\u0e2d\u0e07\u0e17\u0e35\u0e48 4 (Extractor)","\u0e01\u0e23\u0e2d\u0e07\u0e17\u0e35\u0e48 5 (Purified Filter)","\u0e01\u0e23\u0e2d\u0e07\u0e17\u0e35\u0e48 1 (First Filter)"],"part_notification_id":[1112,1113,1114,1115,4269],"product_part_id":[2,3,4,5,6],"remind_type":["early     ","early     ","early     ","early     ","early     "],"timely_date":["2020-05-27","2020-05-27","2020-05-27","2020-05-27","2020-05-27"],"CustID":"f65d799263738436"}}
2020-05-24 13:00:04 data : {"0":{"token":"e2cd9360-8b9b-4d5b-a74e-b5c23f68deff","part_notification":["\u0e01\u0e23\u0e2d\u0e07\u0e17\u0e35\u0e48 2 (Double Filter)","\u0e01\u0e23\u0e2d\u0e07\u0e17\u0e35\u0e48 3 (Double Filter)","\u0e01\u0e23\u0e2d\u0e07\u0e17\u0e35\u0e48 4 (Extractor)","\u0e01\u0e23\u0e2d\u0e07\u0e17\u0e35\u0e48 5 (Purified Filter)"],"part_notification_id":[1047,1048,1049,1050],"product_part_id":[2,3,4,5],"remind_type":["timely    ","timely    ","timely    ","timely    "],"timely_date":["2020-05-24","2020-05-24","2020-05-24","2020-05-24"],"CustID":"d19a16c19395edbd"},"4":{"token":null,"part_notification":["\u0e01\u0e23\u0e2d\u0e07\u0e17\u0e35\u0e48 2 (Double Filter)","\u0e01\u0e23\u0e2d\u0e07\u0e17\u0e35\u0e48 3 (Double Filter)","\u0e01\u0e23\u0e2d\u0e07\u0e17\u0e35\u0e48 4 (Extractor)","\u0e01\u0e23\u0e2d\u0e07\u0e17\u0e35\u0e48 5 (Purified Filter)","\u0e01\u0e23\u0e2d\u0e07\u0e17\u0e35\u0e48 1 (First Filter)"],"part_notification_id":[1112,1113,1114,1115,4269],"product_part_id":[2,3,4,5,6],"remind_type":["early     ","early     ","early     ","early     ","early     "],"timely_date":["2020-05-27","2020-05-27","2020-05-27","2020-05-27","2020-05-27"],"CustID":"f65d799263738436"}}
