2020-06-08 10:00:02 data : {"0":{"token":"2504a69b-85bb-4143-8fb1-872fe3631e23","part_notification":["\u0e01\u0e23\u0e2d\u0e07\u0e17\u0e35\u0e48 2 (Double Filter)","\u0e01\u0e23\u0e2d\u0e07\u0e17\u0e35\u0e48 3 (Double Filter)","\u0e01\u0e23\u0e2d\u0e07\u0e17\u0e35\u0e48 4 (Extractor)","\u0e01\u0e23\u0e2d\u0e07\u0e17\u0e35\u0e48 5 (Purified Filter)"],"part_notification_id":[1307,1308,1309,1310],"product_part_id":[2,3,4,5],"remind_type":["early     ","early     ","early     ","early     "],"timely_date":["2020-06-11","2020-06-11","2020-06-11","2020-06-11"],"CustID":"3547067c84a18ccd"},"4":{"token":"2efa66e9-59ed-418f-82c3-ec12b0fdf988","part_notification":["\u0e01\u0e23\u0e2d\u0e07\u0e17\u0e35\u0e48 1 (First Filter)"],"part_notification_id":[4319],"product_part_id":[1],"remind_type":["timely    "],"timely_date":["2020-06-08"],"CustID":"7b388e0d4793d61a"}}
2020-06-08 10:00:02 data : {"0":{"token":"2504a69b-85bb-4143-8fb1-872fe3631e23","part_notification":["\u0e01\u0e23\u0e2d\u0e07\u0e17\u0e35\u0e48 2 (Double Filter)","\u0e01\u0e23\u0e2d\u0e07\u0e17\u0e35\u0e48 3 (Double Filter)","\u0e01\u0e23\u0e2d\u0e07\u0e17\u0e35\u0e48 4 (Extractor)","\u0e01\u0e23\u0e2d\u0e07\u0e17\u0e35\u0e48 5 (Purified Filter)"],"part_notification_id":[1307,1308,1309,1310],"product_part_id":[2,3,4,5],"remind_type":["early     ","early     ","early     ","early     "],"timely_date":["2020-06-11","2020-06-11","2020-06-11","2020-06-11"],"CustID":"3547067c84a18ccd"},"4":{"token":"2efa66e9-59ed-418f-82c3-ec12b0fdf988","part_notification":["\u0e01\u0e23\u0e2d\u0e07\u0e17\u0e35\u0e48 1 (First Filter)"],"part_notification_id":[4319],"product_part_id":[1],"remind_type":["timely    "],"timely_date":["2020-06-08"],"CustID":"7b388e0d4793d61a"}}
2020-06-08 10:00:02 data : {"0":{"token":"2504a69b-85bb-4143-8fb1-872fe3631e23","part_notification":["\u0e01\u0e23\u0e2d\u0e07\u0e17\u0e35\u0e48 2 (Double Filter)","\u0e01\u0e23\u0e2d\u0e07\u0e17\u0e35\u0e48 3 (Double Filter)","\u0e01\u0e23\u0e2d\u0e07\u0e17\u0e35\u0e48 4 (Extractor)","\u0e01\u0e23\u0e2d\u0e07\u0e17\u0e35\u0e48 5 (Purified Filter)"],"part_notification_id":[1307,1308,1309,1310],"product_part_id":[2,3,4,5],"remind_type":["early     ","early     ","early     ","early     "],"timely_date":["2020-06-11","2020-06-11","2020-06-11","2020-06-11"],"CustID":"3547067c84a18ccd"},"4":{"token":"2efa66e9-59ed-418f-82c3-ec12b0fdf988","part_notification":["\u0e01\u0e23\u0e2d\u0e07\u0e17\u0e35\u0e48 1 (First Filter)"],"part_notification_id":[4319],"product_part_id":[1],"remind_type":["timely    "],"timely_date":["2020-06-08"],"CustID":"7b388e0d4793d61a"}}
2020-06-08 10:00:02 data : {"0":{"token":"2504a69b-85bb-4143-8fb1-872fe3631e23","part_notification":["\u0e01\u0e23\u0e2d\u0e07\u0e17\u0e35\u0e48 2 (Double Filter)","\u0e01\u0e23\u0e2d\u0e07\u0e17\u0e35\u0e48 3 (Double Filter)","\u0e01\u0e23\u0e2d\u0e07\u0e17\u0e35\u0e48 4 (Extractor)","\u0e01\u0e23\u0e2d\u0e07\u0e17\u0e35\u0e48 5 (Purified Filter)"],"part_notification_id":[1307,1308,1309,1310],"product_part_id":[2,3,4,5],"remind_type":["early     ","early     ","early     ","early     "],"timely_date":["2020-06-11","2020-06-11","2020-06-11","2020-06-11"],"CustID":"3547067c84a18ccd"},"4":{"token":"2efa66e9-59ed-418f-82c3-ec12b0fdf988","part_notification":["\u0e01\u0e23\u0e2d\u0e07\u0e17\u0e35\u0e48 1 (First Filter)"],"part_notification_id":[4319],"product_part_id":[1],"remind_type":["timely    "],"timely_date":["2020-06-08"],"CustID":"7b388e0d4793d61a"}}
2020-06-08 10:00:02 data : {"0":{"token":"2504a69b-85bb-4143-8fb1-872fe3631e23","part_notification":["\u0e01\u0e23\u0e2d\u0e07\u0e17\u0e35\u0e48 2 (Double Filter)","\u0e01\u0e23\u0e2d\u0e07\u0e17\u0e35\u0e48 3 (Double Filter)","\u0e01\u0e23\u0e2d\u0e07\u0e17\u0e35\u0e48 4 (Extractor)","\u0e01\u0e23\u0e2d\u0e07\u0e17\u0e35\u0e48 5 (Purified Filter)"],"part_notification_id":[1307,1308,1309,1310],"product_part_id":[2,3,4,5],"remind_type":["early     ","early     ","early     ","early     "],"timely_date":["2020-06-11","2020-06-11","2020-06-11","2020-06-11"],"CustID":"3547067c84a18ccd"},"4":{"token":"2efa66e9-59ed-418f-82c3-ec12b0fdf988","part_notification":["\u0e01\u0e23\u0e2d\u0e07\u0e17\u0e35\u0e48 1 (First Filter)"],"part_notification_id":[4319],"product_part_id":[1],"remind_type":["timely    "],"timely_date":["2020-06-08"],"CustID":"7b388e0d4793d61a"}}
