2020-09-07 14:00:02 data : {"0":{"token":"c79b5fa2-9d0f-4fe1-b3c6-c2b9bdef759f","part_notification":["\u0e01\u0e23\u0e2d\u0e07\u0e17\u0e35\u0e48 2 (Double Filter)","\u0e01\u0e23\u0e2d\u0e07\u0e17\u0e35\u0e48 3 (Double Filter)","\u0e01\u0e23\u0e2d\u0e07\u0e17\u0e35\u0e48 4 (Extractor)","\u0e01\u0e23\u0e2d\u0e07\u0e17\u0e35\u0e48 5 (Purified Filter)"],"part_notification_id":[2037,2038,2039,2040],"product_part_id":[2,3,4,5],"remind_type":["early     ","early     ","early     ","early     "],"timely_date":["2020-09-10","2020-09-10","2020-09-10","2020-09-10"],"CustID":"7659d02551559217"},"4":{"token":"4e26e508-1e2d-4b94-a05f-2308448a0b1e","part_notification":["\u0e01\u0e23\u0e2d\u0e07\u0e17\u0e35\u0e48 1 (First Filter)"],"part_notification_id":[4791],"product_part_id":[6],"remind_type":["timely    "],"timely_date":["2020-09-07"],"CustID":"4a7af27b11957267"}}
2020-09-07 14:00:02 data : {"0":{"token":"c79b5fa2-9d0f-4fe1-b3c6-c2b9bdef759f","part_notification":["\u0e01\u0e23\u0e2d\u0e07\u0e17\u0e35\u0e48 2 (Double Filter)","\u0e01\u0e23\u0e2d\u0e07\u0e17\u0e35\u0e48 3 (Double Filter)","\u0e01\u0e23\u0e2d\u0e07\u0e17\u0e35\u0e48 4 (Extractor)","\u0e01\u0e23\u0e2d\u0e07\u0e17\u0e35\u0e48 5 (Purified Filter)"],"part_notification_id":[2037,2038,2039,2040],"product_part_id":[2,3,4,5],"remind_type":["early     ","early     ","early     ","early     "],"timely_date":["2020-09-10","2020-09-10","2020-09-10","2020-09-10"],"CustID":"7659d02551559217"},"4":{"token":"4e26e508-1e2d-4b94-a05f-2308448a0b1e","part_notification":["\u0e01\u0e23\u0e2d\u0e07\u0e17\u0e35\u0e48 1 (First Filter)"],"part_notification_id":[4791],"product_part_id":[6],"remind_type":["timely    "],"timely_date":["2020-09-07"],"CustID":"4a7af27b11957267"}}
2020-09-07 14:00:02 data : {"0":{"token":"c79b5fa2-9d0f-4fe1-b3c6-c2b9bdef759f","part_notification":["\u0e01\u0e23\u0e2d\u0e07\u0e17\u0e35\u0e48 2 (Double Filter)","\u0e01\u0e23\u0e2d\u0e07\u0e17\u0e35\u0e48 3 (Double Filter)","\u0e01\u0e23\u0e2d\u0e07\u0e17\u0e35\u0e48 4 (Extractor)","\u0e01\u0e23\u0e2d\u0e07\u0e17\u0e35\u0e48 5 (Purified Filter)"],"part_notification_id":[2037,2038,2039,2040],"product_part_id":[2,3,4,5],"remind_type":["early     ","early     ","early     ","early     "],"timely_date":["2020-09-10","2020-09-10","2020-09-10","2020-09-10"],"CustID":"7659d02551559217"},"4":{"token":"4e26e508-1e2d-4b94-a05f-2308448a0b1e","part_notification":["\u0e01\u0e23\u0e2d\u0e07\u0e17\u0e35\u0e48 1 (First Filter)"],"part_notification_id":[4791],"product_part_id":[6],"remind_type":["timely    "],"timely_date":["2020-09-07"],"CustID":"4a7af27b11957267"}}
2020-09-07 14:00:02 data : {"0":{"token":"c79b5fa2-9d0f-4fe1-b3c6-c2b9bdef759f","part_notification":["\u0e01\u0e23\u0e2d\u0e07\u0e17\u0e35\u0e48 2 (Double Filter)","\u0e01\u0e23\u0e2d\u0e07\u0e17\u0e35\u0e48 3 (Double Filter)","\u0e01\u0e23\u0e2d\u0e07\u0e17\u0e35\u0e48 4 (Extractor)","\u0e01\u0e23\u0e2d\u0e07\u0e17\u0e35\u0e48 5 (Purified Filter)"],"part_notification_id":[2037,2038,2039,2040],"product_part_id":[2,3,4,5],"remind_type":["early     ","early     ","early     ","early     "],"timely_date":["2020-09-10","2020-09-10","2020-09-10","2020-09-10"],"CustID":"7659d02551559217"},"4":{"token":"4e26e508-1e2d-4b94-a05f-2308448a0b1e","part_notification":["\u0e01\u0e23\u0e2d\u0e07\u0e17\u0e35\u0e48 1 (First Filter)"],"part_notification_id":[4791],"product_part_id":[6],"remind_type":["timely    "],"timely_date":["2020-09-07"],"CustID":"4a7af27b11957267"}}
2020-09-07 14:00:02 data : {"0":{"token":"c79b5fa2-9d0f-4fe1-b3c6-c2b9bdef759f","part_notification":["\u0e01\u0e23\u0e2d\u0e07\u0e17\u0e35\u0e48 2 (Double Filter)","\u0e01\u0e23\u0e2d\u0e07\u0e17\u0e35\u0e48 3 (Double Filter)","\u0e01\u0e23\u0e2d\u0e07\u0e17\u0e35\u0e48 4 (Extractor)","\u0e01\u0e23\u0e2d\u0e07\u0e17\u0e35\u0e48 5 (Purified Filter)"],"part_notification_id":[2037,2038,2039,2040],"product_part_id":[2,3,4,5],"remind_type":["early     ","early     ","early     ","early     "],"timely_date":["2020-09-10","2020-09-10","2020-09-10","2020-09-10"],"CustID":"7659d02551559217"},"4":{"token":"4e26e508-1e2d-4b94-a05f-2308448a0b1e","part_notification":["\u0e01\u0e23\u0e2d\u0e07\u0e17\u0e35\u0e48 1 (First Filter)"],"part_notification_id":[4791],"product_part_id":[6],"remind_type":["timely    "],"timely_date":["2020-09-07"],"CustID":"4a7af27b11957267"}}
