2021-01-02 09:00:02 data : [{"token":"84300b7f-3729-40fb-a556-380e1c79886e","part_notification":["\u0e01\u0e23\u0e2d\u0e07\u0e17\u0e35\u0e48 1 (First Filter)"],"part_notification_id":[1121],"product_part_id":[1],"remind_type":["timely    "],"timely_date":["2021-01-02"],"CustID":"53e5ad3921ab146d"},{"token":"94cd11b0-0429-4d33-b76d-cbee14aa806c","part_notification":["\u0e01\u0e23\u0e2d\u0e07\u0e17\u0e35\u0e48 1 (First Filter)"],"part_notification_id":[5564],"product_part_id":[1],"remind_type":["lately    "],"timely_date":["2020-12-18"],"CustID":"976458d81d11ab97"},{"token":null,"part_notification":["\u0e01\u0e23\u0e2d\u0e07\u0e17\u0e35\u0e48 1 (First Filter)"],"part_notification_id":[5706],"product_part_id":[1],"remind_type":["early     "],"timely_date":["2021-01-05"],"CustID":"6e14b39966c9e4b1"}]
2021-01-02 09:00:02 data : [{"token":"84300b7f-3729-40fb-a556-380e1c79886e","part_notification":["\u0e01\u0e23\u0e2d\u0e07\u0e17\u0e35\u0e48 1 (First Filter)"],"part_notification_id":[1121],"product_part_id":[1],"remind_type":["timely    "],"timely_date":["2021-01-02"],"CustID":"53e5ad3921ab146d"},{"token":"94cd11b0-0429-4d33-b76d-cbee14aa806c","part_notification":["\u0e01\u0e23\u0e2d\u0e07\u0e17\u0e35\u0e48 1 (First Filter)"],"part_notification_id":[5564],"product_part_id":[1],"remind_type":["lately    "],"timely_date":["2020-12-18"],"CustID":"976458d81d11ab97"},{"token":null,"part_notification":["\u0e01\u0e23\u0e2d\u0e07\u0e17\u0e35\u0e48 1 (First Filter)"],"part_notification_id":[5706],"product_part_id":[1],"remind_type":["early     "],"timely_date":["2021-01-05"],"CustID":"6e14b39966c9e4b1"}]
2021-01-02 09:00:02 data : [{"token":"84300b7f-3729-40fb-a556-380e1c79886e","part_notification":["\u0e01\u0e23\u0e2d\u0e07\u0e17\u0e35\u0e48 1 (First Filter)"],"part_notification_id":[1121],"product_part_id":[1],"remind_type":["timely    "],"timely_date":["2021-01-02"],"CustID":"53e5ad3921ab146d"},{"token":"94cd11b0-0429-4d33-b76d-cbee14aa806c","part_notification":["\u0e01\u0e23\u0e2d\u0e07\u0e17\u0e35\u0e48 1 (First Filter)"],"part_notification_id":[5564],"product_part_id":[1],"remind_type":["lately    "],"timely_date":["2020-12-18"],"CustID":"976458d81d11ab97"},{"token":null,"part_notification":["\u0e01\u0e23\u0e2d\u0e07\u0e17\u0e35\u0e48 1 (First Filter)"],"part_notification_id":[5706],"product_part_id":[1],"remind_type":["early     "],"timely_date":["2021-01-05"],"CustID":"6e14b39966c9e4b1"}]
