2020-09-12 08:00:03 data : {"0":{"token":"8e6f2dfb-78d6-4233-948d-83a2cd6b3c5a","part_notification":["\u0e01\u0e23\u0e2d\u0e07\u0e17\u0e35\u0e48 2 (Double Filter)","\u0e01\u0e23\u0e2d\u0e07\u0e17\u0e35\u0e48 3 (Double Filter)","\u0e01\u0e23\u0e2d\u0e07\u0e17\u0e35\u0e48 4 (Extractor)","\u0e01\u0e23\u0e2d\u0e07\u0e17\u0e35\u0e48 5 (Purified Filter)"],"part_notification_id":[1917,1918,1919,1920],"product_part_id":[2,3,4,5],"remind_type":["lately    ","lately    ","lately    ","lately    "],"timely_date":["2020-08-28","2020-08-28","2020-08-28","2020-08-28"],"CustID":"499d1df49d2a40be"},"4":{"token":"5b7b95be-e230-4eda-aaa4-03ff3e1257fc","part_notification":["\u0e01\u0e23\u0e2d\u0e07\u0e17\u0e35\u0e48 2 (Double Filter)","\u0e01\u0e23\u0e2d\u0e07\u0e17\u0e35\u0e48 3 (Double Filter)","\u0e01\u0e23\u0e2d\u0e07\u0e17\u0e35\u0e48 4 (Extractor)","\u0e01\u0e23\u0e2d\u0e07\u0e17\u0e35\u0e48 5 (Purified Filter)"],"part_notification_id":[2047,2048,2049,2050],"product_part_id":[2,3,4,5],"remind_type":["timely    ","timely    ","timely    ","timely    "],"timely_date":["2020-09-12","2020-09-12","2020-09-12","2020-09-12"],"CustID":"d2c53c48e52e0164"},"8":{"token":"7d6bfd29-e574-4896-8d89-c45ce72081b5","part_notification":["\u0e01\u0e23\u0e2d\u0e07\u0e17\u0e35\u0e48 1 (First Filter)","\u0e01\u0e23\u0e2d\u0e07\u0e17\u0e35\u0e48 1 (First Filter)"],"part_notification_id":[4818,4822],"product_part_id":[6,6],"remind_type":["early     ","early     "],"timely_date":["2020-09-15","2020-09-15"],"CustID":"15409dac00482bf7"}}
2020-09-12 08:00:03 data : {"0":{"token":"8e6f2dfb-78d6-4233-948d-83a2cd6b3c5a","part_notification":["\u0e01\u0e23\u0e2d\u0e07\u0e17\u0e35\u0e48 2 (Double Filter)","\u0e01\u0e23\u0e2d\u0e07\u0e17\u0e35\u0e48 3 (Double Filter)","\u0e01\u0e23\u0e2d\u0e07\u0e17\u0e35\u0e48 4 (Extractor)","\u0e01\u0e23\u0e2d\u0e07\u0e17\u0e35\u0e48 5 (Purified Filter)"],"part_notification_id":[1917,1918,1919,1920],"product_part_id":[2,3,4,5],"remind_type":["lately    ","lately    ","lately    ","lately    "],"timely_date":["2020-08-28","2020-08-28","2020-08-28","2020-08-28"],"CustID":"499d1df49d2a40be"},"4":{"token":"5b7b95be-e230-4eda-aaa4-03ff3e1257fc","part_notification":["\u0e01\u0e23\u0e2d\u0e07\u0e17\u0e35\u0e48 2 (Double Filter)","\u0e01\u0e23\u0e2d\u0e07\u0e17\u0e35\u0e48 3 (Double Filter)","\u0e01\u0e23\u0e2d\u0e07\u0e17\u0e35\u0e48 4 (Extractor)","\u0e01\u0e23\u0e2d\u0e07\u0e17\u0e35\u0e48 5 (Purified Filter)"],"part_notification_id":[2047,2048,2049,2050],"product_part_id":[2,3,4,5],"remind_type":["timely    ","timely    ","timely    ","timely    "],"timely_date":["2020-09-12","2020-09-12","2020-09-12","2020-09-12"],"CustID":"d2c53c48e52e0164"},"8":{"token":"7d6bfd29-e574-4896-8d89-c45ce72081b5","part_notification":["\u0e01\u0e23\u0e2d\u0e07\u0e17\u0e35\u0e48 1 (First Filter)","\u0e01\u0e23\u0e2d\u0e07\u0e17\u0e35\u0e48 1 (First Filter)"],"part_notification_id":[4818,4822],"product_part_id":[6,6],"remind_type":["early     ","early     "],"timely_date":["2020-09-15","2020-09-15"],"CustID":"15409dac00482bf7"}}
2020-09-12 08:00:03 data : {"0":{"token":"8e6f2dfb-78d6-4233-948d-83a2cd6b3c5a","part_notification":["\u0e01\u0e23\u0e2d\u0e07\u0e17\u0e35\u0e48 2 (Double Filter)","\u0e01\u0e23\u0e2d\u0e07\u0e17\u0e35\u0e48 3 (Double Filter)","\u0e01\u0e23\u0e2d\u0e07\u0e17\u0e35\u0e48 4 (Extractor)","\u0e01\u0e23\u0e2d\u0e07\u0e17\u0e35\u0e48 5 (Purified Filter)"],"part_notification_id":[1917,1918,1919,1920],"product_part_id":[2,3,4,5],"remind_type":["lately    ","lately    ","lately    ","lately    "],"timely_date":["2020-08-28","2020-08-28","2020-08-28","2020-08-28"],"CustID":"499d1df49d2a40be"},"4":{"token":"5b7b95be-e230-4eda-aaa4-03ff3e1257fc","part_notification":["\u0e01\u0e23\u0e2d\u0e07\u0e17\u0e35\u0e48 2 (Double Filter)","\u0e01\u0e23\u0e2d\u0e07\u0e17\u0e35\u0e48 3 (Double Filter)","\u0e01\u0e23\u0e2d\u0e07\u0e17\u0e35\u0e48 4 (Extractor)","\u0e01\u0e23\u0e2d\u0e07\u0e17\u0e35\u0e48 5 (Purified Filter)"],"part_notification_id":[2047,2048,2049,2050],"product_part_id":[2,3,4,5],"remind_type":["timely    ","timely    ","timely    ","timely    "],"timely_date":["2020-09-12","2020-09-12","2020-09-12","2020-09-12"],"CustID":"d2c53c48e52e0164"},"8":{"token":"7d6bfd29-e574-4896-8d89-c45ce72081b5","part_notification":["\u0e01\u0e23\u0e2d\u0e07\u0e17\u0e35\u0e48 1 (First Filter)","\u0e01\u0e23\u0e2d\u0e07\u0e17\u0e35\u0e48 1 (First Filter)"],"part_notification_id":[4818,4822],"product_part_id":[6,6],"remind_type":["early     ","early     "],"timely_date":["2020-09-15","2020-09-15"],"CustID":"15409dac00482bf7"}}
2020-09-12 08:00:03 data : {"0":{"token":"8e6f2dfb-78d6-4233-948d-83a2cd6b3c5a","part_notification":["\u0e01\u0e23\u0e2d\u0e07\u0e17\u0e35\u0e48 2 (Double Filter)","\u0e01\u0e23\u0e2d\u0e07\u0e17\u0e35\u0e48 3 (Double Filter)","\u0e01\u0e23\u0e2d\u0e07\u0e17\u0e35\u0e48 4 (Extractor)","\u0e01\u0e23\u0e2d\u0e07\u0e17\u0e35\u0e48 5 (Purified Filter)"],"part_notification_id":[1917,1918,1919,1920],"product_part_id":[2,3,4,5],"remind_type":["lately    ","lately    ","lately    ","lately    "],"timely_date":["2020-08-28","2020-08-28","2020-08-28","2020-08-28"],"CustID":"499d1df49d2a40be"},"4":{"token":"5b7b95be-e230-4eda-aaa4-03ff3e1257fc","part_notification":["\u0e01\u0e23\u0e2d\u0e07\u0e17\u0e35\u0e48 2 (Double Filter)","\u0e01\u0e23\u0e2d\u0e07\u0e17\u0e35\u0e48 3 (Double Filter)","\u0e01\u0e23\u0e2d\u0e07\u0e17\u0e35\u0e48 4 (Extractor)","\u0e01\u0e23\u0e2d\u0e07\u0e17\u0e35\u0e48 5 (Purified Filter)"],"part_notification_id":[2047,2048,2049,2050],"product_part_id":[2,3,4,5],"remind_type":["timely    ","timely    ","timely    ","timely    "],"timely_date":["2020-09-12","2020-09-12","2020-09-12","2020-09-12"],"CustID":"d2c53c48e52e0164"},"8":{"token":"7d6bfd29-e574-4896-8d89-c45ce72081b5","part_notification":["\u0e01\u0e23\u0e2d\u0e07\u0e17\u0e35\u0e48 1 (First Filter)","\u0e01\u0e23\u0e2d\u0e07\u0e17\u0e35\u0e48 1 (First Filter)"],"part_notification_id":[4818,4822],"product_part_id":[6,6],"remind_type":["early     ","early     "],"timely_date":["2020-09-15","2020-09-15"],"CustID":"15409dac00482bf7"}}
2020-09-12 08:00:03 data : {"0":{"token":"8e6f2dfb-78d6-4233-948d-83a2cd6b3c5a","part_notification":["\u0e01\u0e23\u0e2d\u0e07\u0e17\u0e35\u0e48 2 (Double Filter)","\u0e01\u0e23\u0e2d\u0e07\u0e17\u0e35\u0e48 3 (Double Filter)","\u0e01\u0e23\u0e2d\u0e07\u0e17\u0e35\u0e48 4 (Extractor)","\u0e01\u0e23\u0e2d\u0e07\u0e17\u0e35\u0e48 5 (Purified Filter)"],"part_notification_id":[1917,1918,1919,1920],"product_part_id":[2,3,4,5],"remind_type":["lately    ","lately    ","lately    ","lately    "],"timely_date":["2020-08-28","2020-08-28","2020-08-28","2020-08-28"],"CustID":"499d1df49d2a40be"},"4":{"token":"5b7b95be-e230-4eda-aaa4-03ff3e1257fc","part_notification":["\u0e01\u0e23\u0e2d\u0e07\u0e17\u0e35\u0e48 2 (Double Filter)","\u0e01\u0e23\u0e2d\u0e07\u0e17\u0e35\u0e48 3 (Double Filter)","\u0e01\u0e23\u0e2d\u0e07\u0e17\u0e35\u0e48 4 (Extractor)","\u0e01\u0e23\u0e2d\u0e07\u0e17\u0e35\u0e48 5 (Purified Filter)"],"part_notification_id":[2047,2048,2049,2050],"product_part_id":[2,3,4,5],"remind_type":["timely    ","timely    ","timely    ","timely    "],"timely_date":["2020-09-12","2020-09-12","2020-09-12","2020-09-12"],"CustID":"d2c53c48e52e0164"},"8":{"token":"7d6bfd29-e574-4896-8d89-c45ce72081b5","part_notification":["\u0e01\u0e23\u0e2d\u0e07\u0e17\u0e35\u0e48 1 (First Filter)","\u0e01\u0e23\u0e2d\u0e07\u0e17\u0e35\u0e48 1 (First Filter)"],"part_notification_id":[4818,4822],"product_part_id":[6,6],"remind_type":["early     ","early     "],"timely_date":["2020-09-15","2020-09-15"],"CustID":"15409dac00482bf7"}}
2020-09-12 08:00:03 data : {"0":{"token":"8e6f2dfb-78d6-4233-948d-83a2cd6b3c5a","part_notification":["\u0e01\u0e23\u0e2d\u0e07\u0e17\u0e35\u0e48 2 (Double Filter)","\u0e01\u0e23\u0e2d\u0e07\u0e17\u0e35\u0e48 3 (Double Filter)","\u0e01\u0e23\u0e2d\u0e07\u0e17\u0e35\u0e48 4 (Extractor)","\u0e01\u0e23\u0e2d\u0e07\u0e17\u0e35\u0e48 5 (Purified Filter)"],"part_notification_id":[1917,1918,1919,1920],"product_part_id":[2,3,4,5],"remind_type":["lately    ","lately    ","lately    ","lately    "],"timely_date":["2020-08-28","2020-08-28","2020-08-28","2020-08-28"],"CustID":"499d1df49d2a40be"},"4":{"token":"5b7b95be-e230-4eda-aaa4-03ff3e1257fc","part_notification":["\u0e01\u0e23\u0e2d\u0e07\u0e17\u0e35\u0e48 2 (Double Filter)","\u0e01\u0e23\u0e2d\u0e07\u0e17\u0e35\u0e48 3 (Double Filter)","\u0e01\u0e23\u0e2d\u0e07\u0e17\u0e35\u0e48 4 (Extractor)","\u0e01\u0e23\u0e2d\u0e07\u0e17\u0e35\u0e48 5 (Purified Filter)"],"part_notification_id":[2047,2048,2049,2050],"product_part_id":[2,3,4,5],"remind_type":["timely    ","timely    ","timely    ","timely    "],"timely_date":["2020-09-12","2020-09-12","2020-09-12","2020-09-12"],"CustID":"d2c53c48e52e0164"},"8":{"token":"7d6bfd29-e574-4896-8d89-c45ce72081b5","part_notification":["\u0e01\u0e23\u0e2d\u0e07\u0e17\u0e35\u0e48 1 (First Filter)","\u0e01\u0e23\u0e2d\u0e07\u0e17\u0e35\u0e48 1 (First Filter)"],"part_notification_id":[4818,4822],"product_part_id":[6,6],"remind_type":["early     ","early     "],"timely_date":["2020-09-15","2020-09-15"],"CustID":"15409dac00482bf7"}}
