2020-03-16 12:00:02 data : [{"token":"","part_notification":["\u0e01\u0e23\u0e2d\u0e07\u0e17\u0e35\u0e48 2 (Double Filter)","\u0e01\u0e23\u0e2d\u0e07\u0e17\u0e35\u0e48 3 (Double Filter)","\u0e01\u0e23\u0e2d\u0e07\u0e17\u0e35\u0e48 4 (Extractor)","\u0e01\u0e23\u0e2d\u0e07\u0e17\u0e35\u0e48 5 (Purified Filter)","\u0e01\u0e23\u0e2d\u0e07\u0e17\u0e35\u0e48 1 (First Filter)","\u0e01\u0e23\u0e2d\u0e07\u0e17\u0e35\u0e48 1 (First Filter)"],"part_notification_id":[1002,1003,1004,1005,3927,3932],"product_part_id":[2,3,4,5,1,1],"remind_type":["early     ","early     ","early     ","early     ","early     ","early     "],"timely_date":["2020-03-19","2020-03-19","2020-03-19","2020-03-19","2020-03-19","2020-03-19"],"CustID":"3e82939b98e8f95d"}]
2020-03-16 12:00:02 data : [{"token":"","part_notification":["\u0e01\u0e23\u0e2d\u0e07\u0e17\u0e35\u0e48 2 (Double Filter)","\u0e01\u0e23\u0e2d\u0e07\u0e17\u0e35\u0e48 3 (Double Filter)","\u0e01\u0e23\u0e2d\u0e07\u0e17\u0e35\u0e48 4 (Extractor)","\u0e01\u0e23\u0e2d\u0e07\u0e17\u0e35\u0e48 5 (Purified Filter)","\u0e01\u0e23\u0e2d\u0e07\u0e17\u0e35\u0e48 1 (First Filter)","\u0e01\u0e23\u0e2d\u0e07\u0e17\u0e35\u0e48 1 (First Filter)"],"part_notification_id":[1002,1003,1004,1005,3927,3932],"product_part_id":[2,3,4,5,1,1],"remind_type":["early     ","early     ","early     ","early     ","early     ","early     "],"timely_date":["2020-03-19","2020-03-19","2020-03-19","2020-03-19","2020-03-19","2020-03-19"],"CustID":"3e82939b98e8f95d"}]
2020-03-16 12:00:02 data : [{"token":"","part_notification":["\u0e01\u0e23\u0e2d\u0e07\u0e17\u0e35\u0e48 2 (Double Filter)","\u0e01\u0e23\u0e2d\u0e07\u0e17\u0e35\u0e48 3 (Double Filter)","\u0e01\u0e23\u0e2d\u0e07\u0e17\u0e35\u0e48 4 (Extractor)","\u0e01\u0e23\u0e2d\u0e07\u0e17\u0e35\u0e48 5 (Purified Filter)","\u0e01\u0e23\u0e2d\u0e07\u0e17\u0e35\u0e48 1 (First Filter)","\u0e01\u0e23\u0e2d\u0e07\u0e17\u0e35\u0e48 1 (First Filter)"],"part_notification_id":[1002,1003,1004,1005,3927,3932],"product_part_id":[2,3,4,5,1,1],"remind_type":["early     ","early     ","early     ","early     ","early     ","early     "],"timely_date":["2020-03-19","2020-03-19","2020-03-19","2020-03-19","2020-03-19","2020-03-19"],"CustID":"3e82939b98e8f95d"}]
2020-03-16 12:00:02 data : [{"token":"","part_notification":["\u0e01\u0e23\u0e2d\u0e07\u0e17\u0e35\u0e48 2 (Double Filter)","\u0e01\u0e23\u0e2d\u0e07\u0e17\u0e35\u0e48 3 (Double Filter)","\u0e01\u0e23\u0e2d\u0e07\u0e17\u0e35\u0e48 4 (Extractor)","\u0e01\u0e23\u0e2d\u0e07\u0e17\u0e35\u0e48 5 (Purified Filter)","\u0e01\u0e23\u0e2d\u0e07\u0e17\u0e35\u0e48 1 (First Filter)","\u0e01\u0e23\u0e2d\u0e07\u0e17\u0e35\u0e48 1 (First Filter)"],"part_notification_id":[1002,1003,1004,1005,3927,3932],"product_part_id":[2,3,4,5,1,1],"remind_type":["early     ","early     ","early     ","early     ","early     ","early     "],"timely_date":["2020-03-19","2020-03-19","2020-03-19","2020-03-19","2020-03-19","2020-03-19"],"CustID":"3e82939b98e8f95d"}]
2020-03-16 12:00:02 data : [{"token":"","part_notification":["\u0e01\u0e23\u0e2d\u0e07\u0e17\u0e35\u0e48 2 (Double Filter)","\u0e01\u0e23\u0e2d\u0e07\u0e17\u0e35\u0e48 3 (Double Filter)","\u0e01\u0e23\u0e2d\u0e07\u0e17\u0e35\u0e48 4 (Extractor)","\u0e01\u0e23\u0e2d\u0e07\u0e17\u0e35\u0e48 5 (Purified Filter)","\u0e01\u0e23\u0e2d\u0e07\u0e17\u0e35\u0e48 1 (First Filter)","\u0e01\u0e23\u0e2d\u0e07\u0e17\u0e35\u0e48 1 (First Filter)"],"part_notification_id":[1002,1003,1004,1005,3927,3932],"product_part_id":[2,3,4,5,1,1],"remind_type":["early     ","early     ","early     ","early     ","early     ","early     "],"timely_date":["2020-03-19","2020-03-19","2020-03-19","2020-03-19","2020-03-19","2020-03-19"],"CustID":"3e82939b98e8f95d"}]
2020-03-16 12:00:02 data : [{"token":"","part_notification":["\u0e01\u0e23\u0e2d\u0e07\u0e17\u0e35\u0e48 2 (Double Filter)","\u0e01\u0e23\u0e2d\u0e07\u0e17\u0e35\u0e48 3 (Double Filter)","\u0e01\u0e23\u0e2d\u0e07\u0e17\u0e35\u0e48 4 (Extractor)","\u0e01\u0e23\u0e2d\u0e07\u0e17\u0e35\u0e48 5 (Purified Filter)","\u0e01\u0e23\u0e2d\u0e07\u0e17\u0e35\u0e48 1 (First Filter)","\u0e01\u0e23\u0e2d\u0e07\u0e17\u0e35\u0e48 1 (First Filter)"],"part_notification_id":[1002,1003,1004,1005,3927,3932],"product_part_id":[2,3,4,5,1,1],"remind_type":["early     ","early     ","early     ","early     ","early     ","early     "],"timely_date":["2020-03-19","2020-03-19","2020-03-19","2020-03-19","2020-03-19","2020-03-19"],"CustID":"3e82939b98e8f95d"}]
