2019-01-12 08:00:01 data : [{"token":"89cf4fb0-ae61-4267-9e54-127912b1e5c7","part_notification":["\u0e01\u0e23\u0e2d\u0e07\u0e17\u0e35\u0e48 1 (First Filter)"],"part_notification_id":[1491],"product_part_id":[1],"remind_type":["lately    "],"timely_date":["2018-12-28"],"CustID":"9cc356968f7217a5"},{"token":"034ef9be-bc7f-440f-9a64-01625ac01e01","part_notification":["\u0e01\u0e23\u0e2d\u0e07\u0e17\u0e35\u0e48 1 (First Filter)"],"part_notification_id":[1581],"product_part_id":[1],"remind_type":["timely    "],"timely_date":["2019-01-12"],"CustID":"ea4a6fac9ff29c76"},{"token":"6614688e-8028-43ec-b05d-0b0b792bbaf3","part_notification":["\u0e01\u0e23\u0e2d\u0e07\u0e17\u0e35\u0e48 1 (First Filter)"],"part_notification_id":[1591],"product_part_id":[1],"remind_type":["timely    "],"timely_date":["2019-01-12"],"CustID":"c2710ecbd3574eb6"},{"token":null,"part_notification":["\u0e01\u0e23\u0e2d\u0e07\u0e17\u0e35\u0e48 1 (First Filter)"],"part_notification_id":[1636],"product_part_id":[1],"remind_type":["early     "],"timely_date":["2019-01-15"],"CustID":"875818981e1077e5"}]
2019-01-12 08:00:01 data : [{"token":"89cf4fb0-ae61-4267-9e54-127912b1e5c7","part_notification":["\u0e01\u0e23\u0e2d\u0e07\u0e17\u0e35\u0e48 1 (First Filter)"],"part_notification_id":[1491],"product_part_id":[1],"remind_type":["lately    "],"timely_date":["2018-12-28"],"CustID":"9cc356968f7217a5"},{"token":"034ef9be-bc7f-440f-9a64-01625ac01e01","part_notification":["\u0e01\u0e23\u0e2d\u0e07\u0e17\u0e35\u0e48 1 (First Filter)"],"part_notification_id":[1581],"product_part_id":[1],"remind_type":["timely    "],"timely_date":["2019-01-12"],"CustID":"ea4a6fac9ff29c76"},{"token":"6614688e-8028-43ec-b05d-0b0b792bbaf3","part_notification":["\u0e01\u0e23\u0e2d\u0e07\u0e17\u0e35\u0e48 1 (First Filter)"],"part_notification_id":[1591],"product_part_id":[1],"remind_type":["timely    "],"timely_date":["2019-01-12"],"CustID":"c2710ecbd3574eb6"},{"token":null,"part_notification":["\u0e01\u0e23\u0e2d\u0e07\u0e17\u0e35\u0e48 1 (First Filter)"],"part_notification_id":[1636],"product_part_id":[1],"remind_type":["early     "],"timely_date":["2019-01-15"],"CustID":"875818981e1077e5"}]
2019-01-12 08:00:01 data : [{"token":"89cf4fb0-ae61-4267-9e54-127912b1e5c7","part_notification":["\u0e01\u0e23\u0e2d\u0e07\u0e17\u0e35\u0e48 1 (First Filter)"],"part_notification_id":[1491],"product_part_id":[1],"remind_type":["lately    "],"timely_date":["2018-12-28"],"CustID":"9cc356968f7217a5"},{"token":"034ef9be-bc7f-440f-9a64-01625ac01e01","part_notification":["\u0e01\u0e23\u0e2d\u0e07\u0e17\u0e35\u0e48 1 (First Filter)"],"part_notification_id":[1581],"product_part_id":[1],"remind_type":["timely    "],"timely_date":["2019-01-12"],"CustID":"ea4a6fac9ff29c76"},{"token":"6614688e-8028-43ec-b05d-0b0b792bbaf3","part_notification":["\u0e01\u0e23\u0e2d\u0e07\u0e17\u0e35\u0e48 1 (First Filter)"],"part_notification_id":[1591],"product_part_id":[1],"remind_type":["timely    "],"timely_date":["2019-01-12"],"CustID":"c2710ecbd3574eb6"},{"token":null,"part_notification":["\u0e01\u0e23\u0e2d\u0e07\u0e17\u0e35\u0e48 1 (First Filter)"],"part_notification_id":[1636],"product_part_id":[1],"remind_type":["early     "],"timely_date":["2019-01-15"],"CustID":"875818981e1077e5"}]
