2020-11-13 09:00:01 data : [{"token":"96720117-e9a3-4946-a919-ac9fa9f9c9de","part_notification":["\u0e01\u0e23\u0e2d\u0e07\u0e17\u0e35\u0e48 4 (Extractor)"],"part_notification_id":[3388],"product_part_id":[4],"remind_type":["timely    "],"timely_date":["2020-11-13"],"CustID":"80a6d689cb331fa4"},{"token":null,"part_notification":["\u0e01\u0e23\u0e2d\u0e07\u0e17\u0e35\u0e48 1 (First Filter)","\u0e01\u0e23\u0e2d\u0e07\u0e17\u0e35\u0e48 1 (First Filter)"],"part_notification_id":[3473,5195],"product_part_id":[1,1],"remind_type":["early     ","early     "],"timely_date":["2020-11-13","2020-11-16"],"CustID":"ba1e3565370e8e3"}]
2020-11-13 09:00:01 data : [{"token":"96720117-e9a3-4946-a919-ac9fa9f9c9de","part_notification":["\u0e01\u0e23\u0e2d\u0e07\u0e17\u0e35\u0e48 4 (Extractor)"],"part_notification_id":[3388],"product_part_id":[4],"remind_type":["timely    "],"timely_date":["2020-11-13"],"CustID":"80a6d689cb331fa4"},{"token":null,"part_notification":["\u0e01\u0e23\u0e2d\u0e07\u0e17\u0e35\u0e48 1 (First Filter)","\u0e01\u0e23\u0e2d\u0e07\u0e17\u0e35\u0e48 1 (First Filter)"],"part_notification_id":[3473,5195],"product_part_id":[1,1],"remind_type":["early     ","early     "],"timely_date":["2020-11-13","2020-11-16"],"CustID":"ba1e3565370e8e3"}]
2020-11-13 09:00:01 data : [{"token":"96720117-e9a3-4946-a919-ac9fa9f9c9de","part_notification":["\u0e01\u0e23\u0e2d\u0e07\u0e17\u0e35\u0e48 4 (Extractor)"],"part_notification_id":[3388],"product_part_id":[4],"remind_type":["timely    "],"timely_date":["2020-11-13"],"CustID":"80a6d689cb331fa4"},{"token":null,"part_notification":["\u0e01\u0e23\u0e2d\u0e07\u0e17\u0e35\u0e48 1 (First Filter)","\u0e01\u0e23\u0e2d\u0e07\u0e17\u0e35\u0e48 1 (First Filter)"],"part_notification_id":[3473,5195],"product_part_id":[1,1],"remind_type":["early     ","early     "],"timely_date":["2020-11-13","2020-11-16"],"CustID":"ba1e3565370e8e3"}]
