2019-02-01 08:00:01 data : [{"token":"695e4c1e-8e3d-404e-a8cb-8358b241d87b","part_notification":["\u0e01\u0e23\u0e2d\u0e07\u0e17\u0e35\u0e48 1 (First Filter)"],"part_notification_id":[1716],"product_part_id":[1],"remind_type":["timely    "],"timely_date":["2019-02-01"],"CustID":"f40fa722e0a1d30f"},{"token":"c79b5fa2-9d0f-4fe1-b3c6-c2b9bdef759f","part_notification":["\u0e01\u0e23\u0e2d\u0e07\u0e17\u0e35\u0e48 1 (First Filter)"],"part_notification_id":[1726],"product_part_id":[1],"remind_type":["early     "],"timely_date":["2019-02-04"],"CustID":"7659d02551559217"},{"token":"d5b32072-1853-43c3-9241-e450fef0d8b4","part_notification":["\u0e01\u0e23\u0e2d\u0e07\u0e17\u0e35\u0e48 1 (First Filter)"],"part_notification_id":[1736],"product_part_id":[1],"remind_type":["early     "],"timely_date":["2019-02-04"],"CustID":"1b0948b34fa719e7"},{"token":"69ad2e80-5e08-4eb6-a5bd-11a129d5e5d0","part_notification":["\u0e01\u0e23\u0e2d\u0e07\u0e17\u0e35\u0e48 1 (First Filter)"],"part_notification_id":[1741],"product_part_id":[1],"remind_type":["early     "],"timely_date":["2019-02-04"],"CustID":"740a460758cc8037"}]
2019-02-01 08:00:01 data : [{"token":"695e4c1e-8e3d-404e-a8cb-8358b241d87b","part_notification":["\u0e01\u0e23\u0e2d\u0e07\u0e17\u0e35\u0e48 1 (First Filter)"],"part_notification_id":[1716],"product_part_id":[1],"remind_type":["timely    "],"timely_date":["2019-02-01"],"CustID":"f40fa722e0a1d30f"},{"token":"c79b5fa2-9d0f-4fe1-b3c6-c2b9bdef759f","part_notification":["\u0e01\u0e23\u0e2d\u0e07\u0e17\u0e35\u0e48 1 (First Filter)"],"part_notification_id":[1726],"product_part_id":[1],"remind_type":["early     "],"timely_date":["2019-02-04"],"CustID":"7659d02551559217"},{"token":"d5b32072-1853-43c3-9241-e450fef0d8b4","part_notification":["\u0e01\u0e23\u0e2d\u0e07\u0e17\u0e35\u0e48 1 (First Filter)"],"part_notification_id":[1736],"product_part_id":[1],"remind_type":["early     "],"timely_date":["2019-02-04"],"CustID":"1b0948b34fa719e7"},{"token":"69ad2e80-5e08-4eb6-a5bd-11a129d5e5d0","part_notification":["\u0e01\u0e23\u0e2d\u0e07\u0e17\u0e35\u0e48 1 (First Filter)"],"part_notification_id":[1741],"product_part_id":[1],"remind_type":["early     "],"timely_date":["2019-02-04"],"CustID":"740a460758cc8037"}]
2019-02-01 08:00:01 data : [{"token":"695e4c1e-8e3d-404e-a8cb-8358b241d87b","part_notification":["\u0e01\u0e23\u0e2d\u0e07\u0e17\u0e35\u0e48 1 (First Filter)"],"part_notification_id":[1716],"product_part_id":[1],"remind_type":["timely    "],"timely_date":["2019-02-01"],"CustID":"f40fa722e0a1d30f"},{"token":"c79b5fa2-9d0f-4fe1-b3c6-c2b9bdef759f","part_notification":["\u0e01\u0e23\u0e2d\u0e07\u0e17\u0e35\u0e48 1 (First Filter)"],"part_notification_id":[1726],"product_part_id":[1],"remind_type":["early     "],"timely_date":["2019-02-04"],"CustID":"7659d02551559217"},{"token":"d5b32072-1853-43c3-9241-e450fef0d8b4","part_notification":["\u0e01\u0e23\u0e2d\u0e07\u0e17\u0e35\u0e48 1 (First Filter)"],"part_notification_id":[1736],"product_part_id":[1],"remind_type":["early     "],"timely_date":["2019-02-04"],"CustID":"1b0948b34fa719e7"},{"token":"69ad2e80-5e08-4eb6-a5bd-11a129d5e5d0","part_notification":["\u0e01\u0e23\u0e2d\u0e07\u0e17\u0e35\u0e48 1 (First Filter)"],"part_notification_id":[1741],"product_part_id":[1],"remind_type":["early     "],"timely_date":["2019-02-04"],"CustID":"740a460758cc8037"}]
