2020-06-20 10:00:02 data : [{"token":"123411b6-9bb3-412c-9530-ffa94f33166c","part_notification":["\u0e01\u0e23\u0e2d\u0e07\u0e17\u0e35\u0e48 1 (First Filter)","\u0e01\u0e23\u0e2d\u0e07\u0e17\u0e35\u0e48 1 (First Filter)","\u0e01\u0e23\u0e2d\u0e07\u0e17\u0e35\u0e48 1 (First Filter)","\u0e01\u0e23\u0e2d\u0e07\u0e17\u0e35\u0e48 1 (First Filter)","\u0e01\u0e23\u0e2d\u0e07\u0e17\u0e35\u0e48 1 (First Filter)"],"part_notification_id":[4418,4422,4426,4435,4439],"product_part_id":[6,6,6,6,6],"remind_type":["early     ","early     ","early     ","early     ","early     "],"timely_date":["2020-06-23","2020-06-23","2020-06-23","2020-06-23","2020-06-23"],"CustID":"fac9476a88be7b2a"}]
2020-06-20 10:00:02 data : [{"token":"123411b6-9bb3-412c-9530-ffa94f33166c","part_notification":["\u0e01\u0e23\u0e2d\u0e07\u0e17\u0e35\u0e48 1 (First Filter)","\u0e01\u0e23\u0e2d\u0e07\u0e17\u0e35\u0e48 1 (First Filter)","\u0e01\u0e23\u0e2d\u0e07\u0e17\u0e35\u0e48 1 (First Filter)","\u0e01\u0e23\u0e2d\u0e07\u0e17\u0e35\u0e48 1 (First Filter)","\u0e01\u0e23\u0e2d\u0e07\u0e17\u0e35\u0e48 1 (First Filter)"],"part_notification_id":[4418,4422,4426,4435,4439],"product_part_id":[6,6,6,6,6],"remind_type":["early     ","early     ","early     ","early     ","early     "],"timely_date":["2020-06-23","2020-06-23","2020-06-23","2020-06-23","2020-06-23"],"CustID":"fac9476a88be7b2a"}]
2020-06-20 10:00:02 data : [{"token":"123411b6-9bb3-412c-9530-ffa94f33166c","part_notification":["\u0e01\u0e23\u0e2d\u0e07\u0e17\u0e35\u0e48 1 (First Filter)","\u0e01\u0e23\u0e2d\u0e07\u0e17\u0e35\u0e48 1 (First Filter)","\u0e01\u0e23\u0e2d\u0e07\u0e17\u0e35\u0e48 1 (First Filter)","\u0e01\u0e23\u0e2d\u0e07\u0e17\u0e35\u0e48 1 (First Filter)","\u0e01\u0e23\u0e2d\u0e07\u0e17\u0e35\u0e48 1 (First Filter)"],"part_notification_id":[4418,4422,4426,4435,4439],"product_part_id":[6,6,6,6,6],"remind_type":["early     ","early     ","early     ","early     ","early     "],"timely_date":["2020-06-23","2020-06-23","2020-06-23","2020-06-23","2020-06-23"],"CustID":"fac9476a88be7b2a"}]
2020-06-20 10:00:02 data : [{"token":"123411b6-9bb3-412c-9530-ffa94f33166c","part_notification":["\u0e01\u0e23\u0e2d\u0e07\u0e17\u0e35\u0e48 1 (First Filter)","\u0e01\u0e23\u0e2d\u0e07\u0e17\u0e35\u0e48 1 (First Filter)","\u0e01\u0e23\u0e2d\u0e07\u0e17\u0e35\u0e48 1 (First Filter)","\u0e01\u0e23\u0e2d\u0e07\u0e17\u0e35\u0e48 1 (First Filter)","\u0e01\u0e23\u0e2d\u0e07\u0e17\u0e35\u0e48 1 (First Filter)"],"part_notification_id":[4418,4422,4426,4435,4439],"product_part_id":[6,6,6,6,6],"remind_type":["early     ","early     ","early     ","early     ","early     "],"timely_date":["2020-06-23","2020-06-23","2020-06-23","2020-06-23","2020-06-23"],"CustID":"fac9476a88be7b2a"}]
2020-06-20 10:00:02 data : [{"token":"123411b6-9bb3-412c-9530-ffa94f33166c","part_notification":["\u0e01\u0e23\u0e2d\u0e07\u0e17\u0e35\u0e48 1 (First Filter)","\u0e01\u0e23\u0e2d\u0e07\u0e17\u0e35\u0e48 1 (First Filter)","\u0e01\u0e23\u0e2d\u0e07\u0e17\u0e35\u0e48 1 (First Filter)","\u0e01\u0e23\u0e2d\u0e07\u0e17\u0e35\u0e48 1 (First Filter)","\u0e01\u0e23\u0e2d\u0e07\u0e17\u0e35\u0e48 1 (First Filter)"],"part_notification_id":[4418,4422,4426,4435,4439],"product_part_id":[6,6,6,6,6],"remind_type":["early     ","early     ","early     ","early     ","early     "],"timely_date":["2020-06-23","2020-06-23","2020-06-23","2020-06-23","2020-06-23"],"CustID":"fac9476a88be7b2a"}]
