2020-10-05 10:00:02 data : [{"token":"bf4ffb94-ce0b-4554-b47a-33bd7998e3eb","part_notification":["\u0e01\u0e23\u0e2d\u0e07\u0e17\u0e35\u0e48 2 (Double Filter)","\u0e01\u0e23\u0e2d\u0e07\u0e17\u0e35\u0e48 3 (Double Filter)","\u0e01\u0e23\u0e2d\u0e07\u0e17\u0e35\u0e48 4 (Extractor)","\u0e01\u0e23\u0e2d\u0e07\u0e17\u0e35\u0e48 5 (Purified Filter)","\u0e01\u0e23\u0e2d\u0e07\u0e17\u0e35\u0e48 2 (Double Filter)","\u0e01\u0e23\u0e2d\u0e07\u0e17\u0e35\u0e48 3 (Double Filter)","\u0e01\u0e23\u0e2d\u0e07\u0e17\u0e35\u0e48 4 (Extractor)","\u0e01\u0e23\u0e2d\u0e07\u0e17\u0e35\u0e48 5 (Purified Filter)"],"part_notification_id":[2332,2333,2334,2335,2337,2338,2339,2340],"product_part_id":[2,3,4,5,2,3,4,5],"remind_type":["early     ","early     ","early     ","early     ","early     ","early     ","early     ","early     "],"timely_date":["2020-10-08","2020-10-08","2020-10-08","2020-10-08","2020-10-08","2020-10-08","2020-10-08","2020-10-08"],"CustID":"811fefa482ba3b34"}]
2020-10-05 10:00:02 data : [{"token":"bf4ffb94-ce0b-4554-b47a-33bd7998e3eb","part_notification":["\u0e01\u0e23\u0e2d\u0e07\u0e17\u0e35\u0e48 2 (Double Filter)","\u0e01\u0e23\u0e2d\u0e07\u0e17\u0e35\u0e48 3 (Double Filter)","\u0e01\u0e23\u0e2d\u0e07\u0e17\u0e35\u0e48 4 (Extractor)","\u0e01\u0e23\u0e2d\u0e07\u0e17\u0e35\u0e48 5 (Purified Filter)","\u0e01\u0e23\u0e2d\u0e07\u0e17\u0e35\u0e48 2 (Double Filter)","\u0e01\u0e23\u0e2d\u0e07\u0e17\u0e35\u0e48 3 (Double Filter)","\u0e01\u0e23\u0e2d\u0e07\u0e17\u0e35\u0e48 4 (Extractor)","\u0e01\u0e23\u0e2d\u0e07\u0e17\u0e35\u0e48 5 (Purified Filter)"],"part_notification_id":[2332,2333,2334,2335,2337,2338,2339,2340],"product_part_id":[2,3,4,5,2,3,4,5],"remind_type":["early     ","early     ","early     ","early     ","early     ","early     ","early     ","early     "],"timely_date":["2020-10-08","2020-10-08","2020-10-08","2020-10-08","2020-10-08","2020-10-08","2020-10-08","2020-10-08"],"CustID":"811fefa482ba3b34"}]
2020-10-05 10:00:02 data : [{"token":"bf4ffb94-ce0b-4554-b47a-33bd7998e3eb","part_notification":["\u0e01\u0e23\u0e2d\u0e07\u0e17\u0e35\u0e48 2 (Double Filter)","\u0e01\u0e23\u0e2d\u0e07\u0e17\u0e35\u0e48 3 (Double Filter)","\u0e01\u0e23\u0e2d\u0e07\u0e17\u0e35\u0e48 4 (Extractor)","\u0e01\u0e23\u0e2d\u0e07\u0e17\u0e35\u0e48 5 (Purified Filter)","\u0e01\u0e23\u0e2d\u0e07\u0e17\u0e35\u0e48 2 (Double Filter)","\u0e01\u0e23\u0e2d\u0e07\u0e17\u0e35\u0e48 3 (Double Filter)","\u0e01\u0e23\u0e2d\u0e07\u0e17\u0e35\u0e48 4 (Extractor)","\u0e01\u0e23\u0e2d\u0e07\u0e17\u0e35\u0e48 5 (Purified Filter)"],"part_notification_id":[2332,2333,2334,2335,2337,2338,2339,2340],"product_part_id":[2,3,4,5,2,3,4,5],"remind_type":["early     ","early     ","early     ","early     ","early     ","early     ","early     ","early     "],"timely_date":["2020-10-08","2020-10-08","2020-10-08","2020-10-08","2020-10-08","2020-10-08","2020-10-08","2020-10-08"],"CustID":"811fefa482ba3b34"}]
2020-10-05 10:00:02 data : [{"token":"bf4ffb94-ce0b-4554-b47a-33bd7998e3eb","part_notification":["\u0e01\u0e23\u0e2d\u0e07\u0e17\u0e35\u0e48 2 (Double Filter)","\u0e01\u0e23\u0e2d\u0e07\u0e17\u0e35\u0e48 3 (Double Filter)","\u0e01\u0e23\u0e2d\u0e07\u0e17\u0e35\u0e48 4 (Extractor)","\u0e01\u0e23\u0e2d\u0e07\u0e17\u0e35\u0e48 5 (Purified Filter)","\u0e01\u0e23\u0e2d\u0e07\u0e17\u0e35\u0e48 2 (Double Filter)","\u0e01\u0e23\u0e2d\u0e07\u0e17\u0e35\u0e48 3 (Double Filter)","\u0e01\u0e23\u0e2d\u0e07\u0e17\u0e35\u0e48 4 (Extractor)","\u0e01\u0e23\u0e2d\u0e07\u0e17\u0e35\u0e48 5 (Purified Filter)"],"part_notification_id":[2332,2333,2334,2335,2337,2338,2339,2340],"product_part_id":[2,3,4,5,2,3,4,5],"remind_type":["early     ","early     ","early     ","early     ","early     ","early     ","early     ","early     "],"timely_date":["2020-10-08","2020-10-08","2020-10-08","2020-10-08","2020-10-08","2020-10-08","2020-10-08","2020-10-08"],"CustID":"811fefa482ba3b34"}]
2020-10-05 10:00:02 data : [{"token":"bf4ffb94-ce0b-4554-b47a-33bd7998e3eb","part_notification":["\u0e01\u0e23\u0e2d\u0e07\u0e17\u0e35\u0e48 2 (Double Filter)","\u0e01\u0e23\u0e2d\u0e07\u0e17\u0e35\u0e48 3 (Double Filter)","\u0e01\u0e23\u0e2d\u0e07\u0e17\u0e35\u0e48 4 (Extractor)","\u0e01\u0e23\u0e2d\u0e07\u0e17\u0e35\u0e48 5 (Purified Filter)","\u0e01\u0e23\u0e2d\u0e07\u0e17\u0e35\u0e48 2 (Double Filter)","\u0e01\u0e23\u0e2d\u0e07\u0e17\u0e35\u0e48 3 (Double Filter)","\u0e01\u0e23\u0e2d\u0e07\u0e17\u0e35\u0e48 4 (Extractor)","\u0e01\u0e23\u0e2d\u0e07\u0e17\u0e35\u0e48 5 (Purified Filter)"],"part_notification_id":[2332,2333,2334,2335,2337,2338,2339,2340],"product_part_id":[2,3,4,5,2,3,4,5],"remind_type":["early     ","early     ","early     ","early     ","early     ","early     ","early     ","early     "],"timely_date":["2020-10-08","2020-10-08","2020-10-08","2020-10-08","2020-10-08","2020-10-08","2020-10-08","2020-10-08"],"CustID":"811fefa482ba3b34"}]
2020-10-05 10:00:02 data : [{"token":"bf4ffb94-ce0b-4554-b47a-33bd7998e3eb","part_notification":["\u0e01\u0e23\u0e2d\u0e07\u0e17\u0e35\u0e48 2 (Double Filter)","\u0e01\u0e23\u0e2d\u0e07\u0e17\u0e35\u0e48 3 (Double Filter)","\u0e01\u0e23\u0e2d\u0e07\u0e17\u0e35\u0e48 4 (Extractor)","\u0e01\u0e23\u0e2d\u0e07\u0e17\u0e35\u0e48 5 (Purified Filter)","\u0e01\u0e23\u0e2d\u0e07\u0e17\u0e35\u0e48 2 (Double Filter)","\u0e01\u0e23\u0e2d\u0e07\u0e17\u0e35\u0e48 3 (Double Filter)","\u0e01\u0e23\u0e2d\u0e07\u0e17\u0e35\u0e48 4 (Extractor)","\u0e01\u0e23\u0e2d\u0e07\u0e17\u0e35\u0e48 5 (Purified Filter)"],"part_notification_id":[2332,2333,2334,2335,2337,2338,2339,2340],"product_part_id":[2,3,4,5,2,3,4,5],"remind_type":["early     ","early     ","early     ","early     ","early     ","early     ","early     ","early     "],"timely_date":["2020-10-08","2020-10-08","2020-10-08","2020-10-08","2020-10-08","2020-10-08","2020-10-08","2020-10-08"],"CustID":"811fefa482ba3b34"}]
2020-10-05 10:00:02 data : [{"token":"bf4ffb94-ce0b-4554-b47a-33bd7998e3eb","part_notification":["\u0e01\u0e23\u0e2d\u0e07\u0e17\u0e35\u0e48 2 (Double Filter)","\u0e01\u0e23\u0e2d\u0e07\u0e17\u0e35\u0e48 3 (Double Filter)","\u0e01\u0e23\u0e2d\u0e07\u0e17\u0e35\u0e48 4 (Extractor)","\u0e01\u0e23\u0e2d\u0e07\u0e17\u0e35\u0e48 5 (Purified Filter)","\u0e01\u0e23\u0e2d\u0e07\u0e17\u0e35\u0e48 2 (Double Filter)","\u0e01\u0e23\u0e2d\u0e07\u0e17\u0e35\u0e48 3 (Double Filter)","\u0e01\u0e23\u0e2d\u0e07\u0e17\u0e35\u0e48 4 (Extractor)","\u0e01\u0e23\u0e2d\u0e07\u0e17\u0e35\u0e48 5 (Purified Filter)"],"part_notification_id":[2332,2333,2334,2335,2337,2338,2339,2340],"product_part_id":[2,3,4,5,2,3,4,5],"remind_type":["early     ","early     ","early     ","early     ","early     ","early     ","early     ","early     "],"timely_date":["2020-10-08","2020-10-08","2020-10-08","2020-10-08","2020-10-08","2020-10-08","2020-10-08","2020-10-08"],"CustID":"811fefa482ba3b34"}]
2020-10-05 10:00:02 data : [{"token":"bf4ffb94-ce0b-4554-b47a-33bd7998e3eb","part_notification":["\u0e01\u0e23\u0e2d\u0e07\u0e17\u0e35\u0e48 2 (Double Filter)","\u0e01\u0e23\u0e2d\u0e07\u0e17\u0e35\u0e48 3 (Double Filter)","\u0e01\u0e23\u0e2d\u0e07\u0e17\u0e35\u0e48 4 (Extractor)","\u0e01\u0e23\u0e2d\u0e07\u0e17\u0e35\u0e48 5 (Purified Filter)","\u0e01\u0e23\u0e2d\u0e07\u0e17\u0e35\u0e48 2 (Double Filter)","\u0e01\u0e23\u0e2d\u0e07\u0e17\u0e35\u0e48 3 (Double Filter)","\u0e01\u0e23\u0e2d\u0e07\u0e17\u0e35\u0e48 4 (Extractor)","\u0e01\u0e23\u0e2d\u0e07\u0e17\u0e35\u0e48 5 (Purified Filter)"],"part_notification_id":[2332,2333,2334,2335,2337,2338,2339,2340],"product_part_id":[2,3,4,5,2,3,4,5],"remind_type":["early     ","early     ","early     ","early     ","early     ","early     ","early     ","early     "],"timely_date":["2020-10-08","2020-10-08","2020-10-08","2020-10-08","2020-10-08","2020-10-08","2020-10-08","2020-10-08"],"CustID":"811fefa482ba3b34"}]
