2020-06-07 12:00:02 data : {"0":{"token":"d6718f87-5d72-4802-ac00-255398d5dbbd","part_notification":["\u0e01\u0e23\u0e2d\u0e07\u0e17\u0e35\u0e48 2 (Double Filter)","\u0e01\u0e23\u0e2d\u0e07\u0e17\u0e35\u0e48 3 (Double Filter)","\u0e01\u0e23\u0e2d\u0e07\u0e17\u0e35\u0e48 4 (Extractor)","\u0e01\u0e23\u0e2d\u0e07\u0e17\u0e35\u0e48 5 (Purified Filter)"],"part_notification_id":[1237,1238,1239,1240],"product_part_id":[2,3,4,5],"remind_type":["timely    ","timely    ","timely    ","timely    "],"timely_date":["2020-06-07","2020-06-07","2020-06-07","2020-06-07"],"CustID":"1360b0f1f8bcb56f"},"4":{"token":"","part_notification":["\u0e01\u0e23\u0e2d\u0e07\u0e17\u0e35\u0e48 2 (Double Filter)","\u0e01\u0e23\u0e2d\u0e07\u0e17\u0e35\u0e48 3 (Double Filter)","\u0e01\u0e23\u0e2d\u0e07\u0e17\u0e35\u0e48 4 (Extractor)","\u0e01\u0e23\u0e2d\u0e07\u0e17\u0e35\u0e48 5 (Purified Filter)","\u0e01\u0e23\u0e2d\u0e07\u0e17\u0e35\u0e48 1 (First Filter)"],"part_notification_id":[1297,1298,1299,1300,4328],"product_part_id":[2,3,4,5,1],"remind_type":["early     ","early     ","early     ","early     ","early     "],"timely_date":["2020-06-10","2020-06-10","2020-06-10","2020-06-10","2020-06-10"],"CustID":"120848c1831303d4"},"8":{"token":"6e794c12-968c-45dd-93e5-5505eadb980b","part_notification":["\u0e01\u0e23\u0e2d\u0e07\u0e17\u0e35\u0e48 1 (First Filter)"],"part_notification_id":[4310],"product_part_id":[6],"remind_type":["timely    "],"timely_date":["2020-06-07"],"CustID":"f50c5992ae583aba"}}
2020-06-07 12:00:02 data : {"0":{"token":"d6718f87-5d72-4802-ac00-255398d5dbbd","part_notification":["\u0e01\u0e23\u0e2d\u0e07\u0e17\u0e35\u0e48 2 (Double Filter)","\u0e01\u0e23\u0e2d\u0e07\u0e17\u0e35\u0e48 3 (Double Filter)","\u0e01\u0e23\u0e2d\u0e07\u0e17\u0e35\u0e48 4 (Extractor)","\u0e01\u0e23\u0e2d\u0e07\u0e17\u0e35\u0e48 5 (Purified Filter)"],"part_notification_id":[1237,1238,1239,1240],"product_part_id":[2,3,4,5],"remind_type":["timely    ","timely    ","timely    ","timely    "],"timely_date":["2020-06-07","2020-06-07","2020-06-07","2020-06-07"],"CustID":"1360b0f1f8bcb56f"},"4":{"token":"","part_notification":["\u0e01\u0e23\u0e2d\u0e07\u0e17\u0e35\u0e48 2 (Double Filter)","\u0e01\u0e23\u0e2d\u0e07\u0e17\u0e35\u0e48 3 (Double Filter)","\u0e01\u0e23\u0e2d\u0e07\u0e17\u0e35\u0e48 4 (Extractor)","\u0e01\u0e23\u0e2d\u0e07\u0e17\u0e35\u0e48 5 (Purified Filter)","\u0e01\u0e23\u0e2d\u0e07\u0e17\u0e35\u0e48 1 (First Filter)"],"part_notification_id":[1297,1298,1299,1300,4328],"product_part_id":[2,3,4,5,1],"remind_type":["early     ","early     ","early     ","early     ","early     "],"timely_date":["2020-06-10","2020-06-10","2020-06-10","2020-06-10","2020-06-10"],"CustID":"120848c1831303d4"},"8":{"token":"6e794c12-968c-45dd-93e5-5505eadb980b","part_notification":["\u0e01\u0e23\u0e2d\u0e07\u0e17\u0e35\u0e48 1 (First Filter)"],"part_notification_id":[4310],"product_part_id":[6],"remind_type":["timely    "],"timely_date":["2020-06-07"],"CustID":"f50c5992ae583aba"}}
2020-06-07 12:00:02 data : {"0":{"token":"d6718f87-5d72-4802-ac00-255398d5dbbd","part_notification":["\u0e01\u0e23\u0e2d\u0e07\u0e17\u0e35\u0e48 2 (Double Filter)","\u0e01\u0e23\u0e2d\u0e07\u0e17\u0e35\u0e48 3 (Double Filter)","\u0e01\u0e23\u0e2d\u0e07\u0e17\u0e35\u0e48 4 (Extractor)","\u0e01\u0e23\u0e2d\u0e07\u0e17\u0e35\u0e48 5 (Purified Filter)"],"part_notification_id":[1237,1238,1239,1240],"product_part_id":[2,3,4,5],"remind_type":["timely    ","timely    ","timely    ","timely    "],"timely_date":["2020-06-07","2020-06-07","2020-06-07","2020-06-07"],"CustID":"1360b0f1f8bcb56f"},"4":{"token":"","part_notification":["\u0e01\u0e23\u0e2d\u0e07\u0e17\u0e35\u0e48 2 (Double Filter)","\u0e01\u0e23\u0e2d\u0e07\u0e17\u0e35\u0e48 3 (Double Filter)","\u0e01\u0e23\u0e2d\u0e07\u0e17\u0e35\u0e48 4 (Extractor)","\u0e01\u0e23\u0e2d\u0e07\u0e17\u0e35\u0e48 5 (Purified Filter)","\u0e01\u0e23\u0e2d\u0e07\u0e17\u0e35\u0e48 1 (First Filter)"],"part_notification_id":[1297,1298,1299,1300,4328],"product_part_id":[2,3,4,5,1],"remind_type":["early     ","early     ","early     ","early     ","early     "],"timely_date":["2020-06-10","2020-06-10","2020-06-10","2020-06-10","2020-06-10"],"CustID":"120848c1831303d4"},"8":{"token":"6e794c12-968c-45dd-93e5-5505eadb980b","part_notification":["\u0e01\u0e23\u0e2d\u0e07\u0e17\u0e35\u0e48 1 (First Filter)"],"part_notification_id":[4310],"product_part_id":[6],"remind_type":["timely    "],"timely_date":["2020-06-07"],"CustID":"f50c5992ae583aba"}}
2020-06-07 12:00:02 data : {"0":{"token":"d6718f87-5d72-4802-ac00-255398d5dbbd","part_notification":["\u0e01\u0e23\u0e2d\u0e07\u0e17\u0e35\u0e48 2 (Double Filter)","\u0e01\u0e23\u0e2d\u0e07\u0e17\u0e35\u0e48 3 (Double Filter)","\u0e01\u0e23\u0e2d\u0e07\u0e17\u0e35\u0e48 4 (Extractor)","\u0e01\u0e23\u0e2d\u0e07\u0e17\u0e35\u0e48 5 (Purified Filter)"],"part_notification_id":[1237,1238,1239,1240],"product_part_id":[2,3,4,5],"remind_type":["timely    ","timely    ","timely    ","timely    "],"timely_date":["2020-06-07","2020-06-07","2020-06-07","2020-06-07"],"CustID":"1360b0f1f8bcb56f"},"4":{"token":"","part_notification":["\u0e01\u0e23\u0e2d\u0e07\u0e17\u0e35\u0e48 2 (Double Filter)","\u0e01\u0e23\u0e2d\u0e07\u0e17\u0e35\u0e48 3 (Double Filter)","\u0e01\u0e23\u0e2d\u0e07\u0e17\u0e35\u0e48 4 (Extractor)","\u0e01\u0e23\u0e2d\u0e07\u0e17\u0e35\u0e48 5 (Purified Filter)","\u0e01\u0e23\u0e2d\u0e07\u0e17\u0e35\u0e48 1 (First Filter)"],"part_notification_id":[1297,1298,1299,1300,4328],"product_part_id":[2,3,4,5,1],"remind_type":["early     ","early     ","early     ","early     ","early     "],"timely_date":["2020-06-10","2020-06-10","2020-06-10","2020-06-10","2020-06-10"],"CustID":"120848c1831303d4"},"8":{"token":"6e794c12-968c-45dd-93e5-5505eadb980b","part_notification":["\u0e01\u0e23\u0e2d\u0e07\u0e17\u0e35\u0e48 1 (First Filter)"],"part_notification_id":[4310],"product_part_id":[6],"remind_type":["timely    "],"timely_date":["2020-06-07"],"CustID":"f50c5992ae583aba"}}
