2019-10-15 08:00:01 data : [{"token":"5581f088-981d-4d96-a780-4b18c885550a","part_notification":["\u0e01\u0e23\u0e2d\u0e07\u0e17\u0e35\u0e48 1 (First Filter)"],"part_notification_id":[3151],"product_part_id":[1],"remind_type":["lately    "],"timely_date":["2019-09-30"],"CustID":"3b4bfcf91f59f5e2"},{"token":"304a9303-ca3b-47bb-9049-a9cbdce8f306","part_notification":["\u0e01\u0e23\u0e2d\u0e07\u0e17\u0e35\u0e48 1 (First Filter)"],"part_notification_id":[3156],"product_part_id":[1],"remind_type":["lately    "],"timely_date":["2019-09-30"],"CustID":"3a2b8f65425579d1"},{"token":"941180a4-06c2-4b48-abb3-07bfc8d1d6de","part_notification":["\u0e01\u0e23\u0e2d\u0e07\u0e17\u0e35\u0e48 1 (First Filter)","\u0e01\u0e23\u0e2d\u0e07\u0e17\u0e35\u0e48 1 (First Filter)","\u0e01\u0e23\u0e2d\u0e07\u0e17\u0e35\u0e48 1 (First Filter)"],"part_notification_id":[3240,3245,3250],"product_part_id":[1,1,1],"remind_type":["early     ","early     ","early     "],"timely_date":["2019-10-18","2019-10-18","2019-10-18"],"CustID":"c859e44d101d129d"}]
2019-10-15 08:00:01 data : [{"token":"5581f088-981d-4d96-a780-4b18c885550a","part_notification":["\u0e01\u0e23\u0e2d\u0e07\u0e17\u0e35\u0e48 1 (First Filter)"],"part_notification_id":[3151],"product_part_id":[1],"remind_type":["lately    "],"timely_date":["2019-09-30"],"CustID":"3b4bfcf91f59f5e2"},{"token":"304a9303-ca3b-47bb-9049-a9cbdce8f306","part_notification":["\u0e01\u0e23\u0e2d\u0e07\u0e17\u0e35\u0e48 1 (First Filter)"],"part_notification_id":[3156],"product_part_id":[1],"remind_type":["lately    "],"timely_date":["2019-09-30"],"CustID":"3a2b8f65425579d1"},{"token":"941180a4-06c2-4b48-abb3-07bfc8d1d6de","part_notification":["\u0e01\u0e23\u0e2d\u0e07\u0e17\u0e35\u0e48 1 (First Filter)","\u0e01\u0e23\u0e2d\u0e07\u0e17\u0e35\u0e48 1 (First Filter)","\u0e01\u0e23\u0e2d\u0e07\u0e17\u0e35\u0e48 1 (First Filter)"],"part_notification_id":[3240,3245,3250],"product_part_id":[1,1,1],"remind_type":["early     ","early     ","early     "],"timely_date":["2019-10-18","2019-10-18","2019-10-18"],"CustID":"c859e44d101d129d"}]
2019-10-15 08:00:01 data : [{"token":"5581f088-981d-4d96-a780-4b18c885550a","part_notification":["\u0e01\u0e23\u0e2d\u0e07\u0e17\u0e35\u0e48 1 (First Filter)"],"part_notification_id":[3151],"product_part_id":[1],"remind_type":["lately    "],"timely_date":["2019-09-30"],"CustID":"3b4bfcf91f59f5e2"},{"token":"304a9303-ca3b-47bb-9049-a9cbdce8f306","part_notification":["\u0e01\u0e23\u0e2d\u0e07\u0e17\u0e35\u0e48 1 (First Filter)"],"part_notification_id":[3156],"product_part_id":[1],"remind_type":["lately    "],"timely_date":["2019-09-30"],"CustID":"3a2b8f65425579d1"},{"token":"941180a4-06c2-4b48-abb3-07bfc8d1d6de","part_notification":["\u0e01\u0e23\u0e2d\u0e07\u0e17\u0e35\u0e48 1 (First Filter)","\u0e01\u0e23\u0e2d\u0e07\u0e17\u0e35\u0e48 1 (First Filter)","\u0e01\u0e23\u0e2d\u0e07\u0e17\u0e35\u0e48 1 (First Filter)"],"part_notification_id":[3240,3245,3250],"product_part_id":[1,1,1],"remind_type":["early     ","early     ","early     "],"timely_date":["2019-10-18","2019-10-18","2019-10-18"],"CustID":"c859e44d101d129d"}]
2019-10-15 08:00:01 data : [{"token":"5581f088-981d-4d96-a780-4b18c885550a","part_notification":["\u0e01\u0e23\u0e2d\u0e07\u0e17\u0e35\u0e48 1 (First Filter)"],"part_notification_id":[3151],"product_part_id":[1],"remind_type":["lately    "],"timely_date":["2019-09-30"],"CustID":"3b4bfcf91f59f5e2"},{"token":"304a9303-ca3b-47bb-9049-a9cbdce8f306","part_notification":["\u0e01\u0e23\u0e2d\u0e07\u0e17\u0e35\u0e48 1 (First Filter)"],"part_notification_id":[3156],"product_part_id":[1],"remind_type":["lately    "],"timely_date":["2019-09-30"],"CustID":"3a2b8f65425579d1"},{"token":"941180a4-06c2-4b48-abb3-07bfc8d1d6de","part_notification":["\u0e01\u0e23\u0e2d\u0e07\u0e17\u0e35\u0e48 1 (First Filter)","\u0e01\u0e23\u0e2d\u0e07\u0e17\u0e35\u0e48 1 (First Filter)","\u0e01\u0e23\u0e2d\u0e07\u0e17\u0e35\u0e48 1 (First Filter)"],"part_notification_id":[3240,3245,3250],"product_part_id":[1,1,1],"remind_type":["early     ","early     ","early     "],"timely_date":["2019-10-18","2019-10-18","2019-10-18"],"CustID":"c859e44d101d129d"}]
2019-10-15 08:00:01 data : [{"token":"5581f088-981d-4d96-a780-4b18c885550a","part_notification":["\u0e01\u0e23\u0e2d\u0e07\u0e17\u0e35\u0e48 1 (First Filter)"],"part_notification_id":[3151],"product_part_id":[1],"remind_type":["lately    "],"timely_date":["2019-09-30"],"CustID":"3b4bfcf91f59f5e2"},{"token":"304a9303-ca3b-47bb-9049-a9cbdce8f306","part_notification":["\u0e01\u0e23\u0e2d\u0e07\u0e17\u0e35\u0e48 1 (First Filter)"],"part_notification_id":[3156],"product_part_id":[1],"remind_type":["lately    "],"timely_date":["2019-09-30"],"CustID":"3a2b8f65425579d1"},{"token":"941180a4-06c2-4b48-abb3-07bfc8d1d6de","part_notification":["\u0e01\u0e23\u0e2d\u0e07\u0e17\u0e35\u0e48 1 (First Filter)","\u0e01\u0e23\u0e2d\u0e07\u0e17\u0e35\u0e48 1 (First Filter)","\u0e01\u0e23\u0e2d\u0e07\u0e17\u0e35\u0e48 1 (First Filter)"],"part_notification_id":[3240,3245,3250],"product_part_id":[1,1,1],"remind_type":["early     ","early     ","early     "],"timely_date":["2019-10-18","2019-10-18","2019-10-18"],"CustID":"c859e44d101d129d"}]
