2020-03-08 13:00:01 data : {"0":{"token":"c39e2a09-6a21-40cd-a6ec-2399894643e7","part_notification":["\u0e01\u0e23\u0e2d\u0e07\u0e17\u0e35\u0e48 2 (Double Filter)","\u0e01\u0e23\u0e2d\u0e07\u0e17\u0e35\u0e48 3 (Double Filter)","\u0e01\u0e23\u0e2d\u0e07\u0e17\u0e35\u0e48 4 (Extractor)","\u0e01\u0e23\u0e2d\u0e07\u0e17\u0e35\u0e48 5 (Purified Filter)"],"part_notification_id":[822,823,824,825],"product_part_id":[2,3,4,5],"remind_type":["timely    ","timely    ","timely    ","timely    "],"timely_date":["2020-03-08","2020-03-08","2020-03-08","2020-03-08"],"CustID":"bb8f45f97048f173"},"4":{"token":"","part_notification":["\u0e01\u0e23\u0e2d\u0e07\u0e17\u0e35\u0e48 1 (First Filter)","\u0e01\u0e23\u0e2d\u0e07\u0e17\u0e35\u0e48 1 (First Filter)"],"part_notification_id":[3880,3888],"product_part_id":[6,1],"remind_type":["early     ","early     "],"timely_date":["2020-03-11","2020-03-11"],"CustID":"d95967d19c7d9010"}}
2020-03-08 13:00:01 data : {"0":{"token":"c39e2a09-6a21-40cd-a6ec-2399894643e7","part_notification":["\u0e01\u0e23\u0e2d\u0e07\u0e17\u0e35\u0e48 2 (Double Filter)","\u0e01\u0e23\u0e2d\u0e07\u0e17\u0e35\u0e48 3 (Double Filter)","\u0e01\u0e23\u0e2d\u0e07\u0e17\u0e35\u0e48 4 (Extractor)","\u0e01\u0e23\u0e2d\u0e07\u0e17\u0e35\u0e48 5 (Purified Filter)"],"part_notification_id":[822,823,824,825],"product_part_id":[2,3,4,5],"remind_type":["timely    ","timely    ","timely    ","timely    "],"timely_date":["2020-03-08","2020-03-08","2020-03-08","2020-03-08"],"CustID":"bb8f45f97048f173"},"4":{"token":"","part_notification":["\u0e01\u0e23\u0e2d\u0e07\u0e17\u0e35\u0e48 1 (First Filter)","\u0e01\u0e23\u0e2d\u0e07\u0e17\u0e35\u0e48 1 (First Filter)"],"part_notification_id":[3880,3888],"product_part_id":[6,1],"remind_type":["early     ","early     "],"timely_date":["2020-03-11","2020-03-11"],"CustID":"d95967d19c7d9010"}}
2020-03-08 13:00:01 data : {"0":{"token":"c39e2a09-6a21-40cd-a6ec-2399894643e7","part_notification":["\u0e01\u0e23\u0e2d\u0e07\u0e17\u0e35\u0e48 2 (Double Filter)","\u0e01\u0e23\u0e2d\u0e07\u0e17\u0e35\u0e48 3 (Double Filter)","\u0e01\u0e23\u0e2d\u0e07\u0e17\u0e35\u0e48 4 (Extractor)","\u0e01\u0e23\u0e2d\u0e07\u0e17\u0e35\u0e48 5 (Purified Filter)"],"part_notification_id":[822,823,824,825],"product_part_id":[2,3,4,5],"remind_type":["timely    ","timely    ","timely    ","timely    "],"timely_date":["2020-03-08","2020-03-08","2020-03-08","2020-03-08"],"CustID":"bb8f45f97048f173"},"4":{"token":"","part_notification":["\u0e01\u0e23\u0e2d\u0e07\u0e17\u0e35\u0e48 1 (First Filter)","\u0e01\u0e23\u0e2d\u0e07\u0e17\u0e35\u0e48 1 (First Filter)"],"part_notification_id":[3880,3888],"product_part_id":[6,1],"remind_type":["early     ","early     "],"timely_date":["2020-03-11","2020-03-11"],"CustID":"d95967d19c7d9010"}}
2020-03-08 13:00:01 data : {"0":{"token":"c39e2a09-6a21-40cd-a6ec-2399894643e7","part_notification":["\u0e01\u0e23\u0e2d\u0e07\u0e17\u0e35\u0e48 2 (Double Filter)","\u0e01\u0e23\u0e2d\u0e07\u0e17\u0e35\u0e48 3 (Double Filter)","\u0e01\u0e23\u0e2d\u0e07\u0e17\u0e35\u0e48 4 (Extractor)","\u0e01\u0e23\u0e2d\u0e07\u0e17\u0e35\u0e48 5 (Purified Filter)"],"part_notification_id":[822,823,824,825],"product_part_id":[2,3,4,5],"remind_type":["timely    ","timely    ","timely    ","timely    "],"timely_date":["2020-03-08","2020-03-08","2020-03-08","2020-03-08"],"CustID":"bb8f45f97048f173"},"4":{"token":"","part_notification":["\u0e01\u0e23\u0e2d\u0e07\u0e17\u0e35\u0e48 1 (First Filter)","\u0e01\u0e23\u0e2d\u0e07\u0e17\u0e35\u0e48 1 (First Filter)"],"part_notification_id":[3880,3888],"product_part_id":[6,1],"remind_type":["early     ","early     "],"timely_date":["2020-03-11","2020-03-11"],"CustID":"d95967d19c7d9010"}}
2020-03-08 13:00:01 data : {"0":{"token":"c39e2a09-6a21-40cd-a6ec-2399894643e7","part_notification":["\u0e01\u0e23\u0e2d\u0e07\u0e17\u0e35\u0e48 2 (Double Filter)","\u0e01\u0e23\u0e2d\u0e07\u0e17\u0e35\u0e48 3 (Double Filter)","\u0e01\u0e23\u0e2d\u0e07\u0e17\u0e35\u0e48 4 (Extractor)","\u0e01\u0e23\u0e2d\u0e07\u0e17\u0e35\u0e48 5 (Purified Filter)"],"part_notification_id":[822,823,824,825],"product_part_id":[2,3,4,5],"remind_type":["timely    ","timely    ","timely    ","timely    "],"timely_date":["2020-03-08","2020-03-08","2020-03-08","2020-03-08"],"CustID":"bb8f45f97048f173"},"4":{"token":"","part_notification":["\u0e01\u0e23\u0e2d\u0e07\u0e17\u0e35\u0e48 1 (First Filter)","\u0e01\u0e23\u0e2d\u0e07\u0e17\u0e35\u0e48 1 (First Filter)"],"part_notification_id":[3880,3888],"product_part_id":[6,1],"remind_type":["early     ","early     "],"timely_date":["2020-03-11","2020-03-11"],"CustID":"d95967d19c7d9010"}}
2020-03-08 13:00:01 data : {"0":{"token":"c39e2a09-6a21-40cd-a6ec-2399894643e7","part_notification":["\u0e01\u0e23\u0e2d\u0e07\u0e17\u0e35\u0e48 2 (Double Filter)","\u0e01\u0e23\u0e2d\u0e07\u0e17\u0e35\u0e48 3 (Double Filter)","\u0e01\u0e23\u0e2d\u0e07\u0e17\u0e35\u0e48 4 (Extractor)","\u0e01\u0e23\u0e2d\u0e07\u0e17\u0e35\u0e48 5 (Purified Filter)"],"part_notification_id":[822,823,824,825],"product_part_id":[2,3,4,5],"remind_type":["timely    ","timely    ","timely    ","timely    "],"timely_date":["2020-03-08","2020-03-08","2020-03-08","2020-03-08"],"CustID":"bb8f45f97048f173"},"4":{"token":"","part_notification":["\u0e01\u0e23\u0e2d\u0e07\u0e17\u0e35\u0e48 1 (First Filter)","\u0e01\u0e23\u0e2d\u0e07\u0e17\u0e35\u0e48 1 (First Filter)"],"part_notification_id":[3880,3888],"product_part_id":[6,1],"remind_type":["early     ","early     "],"timely_date":["2020-03-11","2020-03-11"],"CustID":"d95967d19c7d9010"}}
