2020-07-10 14:00:01 data : {"0":{"token":null,"part_notification":["\u0e01\u0e23\u0e2d\u0e07\u0e17\u0e35\u0e48 2 (Double Filter)","\u0e01\u0e23\u0e2d\u0e07\u0e17\u0e35\u0e48 3 (Double Filter)","\u0e01\u0e23\u0e2d\u0e07\u0e17\u0e35\u0e48 4 (Extractor)","\u0e01\u0e23\u0e2d\u0e07\u0e17\u0e35\u0e48 5 (Purified Filter)"],"part_notification_id":[1597,1598,1599,1600],"product_part_id":[2,3,4,5],"remind_type":["early     ","early     ","early     ","early     "],"timely_date":["2020-07-13","2020-07-13","2020-07-13","2020-07-13"],"CustID":"1cbca54c08d2739b"},"4":{"token":"60c95c02-5cd7-467b-84bf-2f3eea0061d8","part_notification":["\u0e01\u0e23\u0e2d\u0e07\u0e17\u0e35\u0e48 2 (Double Filter)","\u0e01\u0e23\u0e2d\u0e07\u0e17\u0e35\u0e48 3 (Double Filter)","\u0e01\u0e23\u0e2d\u0e07\u0e17\u0e35\u0e48 4 (Extractor)","\u0e01\u0e23\u0e2d\u0e07\u0e17\u0e35\u0e48 5 (Purified Filter)"],"part_notification_id":[1607,1608,1609,1610],"product_part_id":[2,3,4,5],"remind_type":["early     ","early     ","early     ","early     "],"timely_date":["2020-07-13","2020-07-13","2020-07-13","2020-07-13"],"CustID":"6e45272b80398877"}}
2020-07-10 14:00:01 data : {"0":{"token":null,"part_notification":["\u0e01\u0e23\u0e2d\u0e07\u0e17\u0e35\u0e48 2 (Double Filter)","\u0e01\u0e23\u0e2d\u0e07\u0e17\u0e35\u0e48 3 (Double Filter)","\u0e01\u0e23\u0e2d\u0e07\u0e17\u0e35\u0e48 4 (Extractor)","\u0e01\u0e23\u0e2d\u0e07\u0e17\u0e35\u0e48 5 (Purified Filter)"],"part_notification_id":[1597,1598,1599,1600],"product_part_id":[2,3,4,5],"remind_type":["early     ","early     ","early     ","early     "],"timely_date":["2020-07-13","2020-07-13","2020-07-13","2020-07-13"],"CustID":"1cbca54c08d2739b"},"4":{"token":"60c95c02-5cd7-467b-84bf-2f3eea0061d8","part_notification":["\u0e01\u0e23\u0e2d\u0e07\u0e17\u0e35\u0e48 2 (Double Filter)","\u0e01\u0e23\u0e2d\u0e07\u0e17\u0e35\u0e48 3 (Double Filter)","\u0e01\u0e23\u0e2d\u0e07\u0e17\u0e35\u0e48 4 (Extractor)","\u0e01\u0e23\u0e2d\u0e07\u0e17\u0e35\u0e48 5 (Purified Filter)"],"part_notification_id":[1607,1608,1609,1610],"product_part_id":[2,3,4,5],"remind_type":["early     ","early     ","early     ","early     "],"timely_date":["2020-07-13","2020-07-13","2020-07-13","2020-07-13"],"CustID":"6e45272b80398877"}}
2020-07-10 14:00:01 data : {"0":{"token":null,"part_notification":["\u0e01\u0e23\u0e2d\u0e07\u0e17\u0e35\u0e48 2 (Double Filter)","\u0e01\u0e23\u0e2d\u0e07\u0e17\u0e35\u0e48 3 (Double Filter)","\u0e01\u0e23\u0e2d\u0e07\u0e17\u0e35\u0e48 4 (Extractor)","\u0e01\u0e23\u0e2d\u0e07\u0e17\u0e35\u0e48 5 (Purified Filter)"],"part_notification_id":[1597,1598,1599,1600],"product_part_id":[2,3,4,5],"remind_type":["early     ","early     ","early     ","early     "],"timely_date":["2020-07-13","2020-07-13","2020-07-13","2020-07-13"],"CustID":"1cbca54c08d2739b"},"4":{"token":"60c95c02-5cd7-467b-84bf-2f3eea0061d8","part_notification":["\u0e01\u0e23\u0e2d\u0e07\u0e17\u0e35\u0e48 2 (Double Filter)","\u0e01\u0e23\u0e2d\u0e07\u0e17\u0e35\u0e48 3 (Double Filter)","\u0e01\u0e23\u0e2d\u0e07\u0e17\u0e35\u0e48 4 (Extractor)","\u0e01\u0e23\u0e2d\u0e07\u0e17\u0e35\u0e48 5 (Purified Filter)"],"part_notification_id":[1607,1608,1609,1610],"product_part_id":[2,3,4,5],"remind_type":["early     ","early     ","early     ","early     "],"timely_date":["2020-07-13","2020-07-13","2020-07-13","2020-07-13"],"CustID":"6e45272b80398877"}}
2020-07-10 14:00:01 data : {"0":{"token":null,"part_notification":["\u0e01\u0e23\u0e2d\u0e07\u0e17\u0e35\u0e48 2 (Double Filter)","\u0e01\u0e23\u0e2d\u0e07\u0e17\u0e35\u0e48 3 (Double Filter)","\u0e01\u0e23\u0e2d\u0e07\u0e17\u0e35\u0e48 4 (Extractor)","\u0e01\u0e23\u0e2d\u0e07\u0e17\u0e35\u0e48 5 (Purified Filter)"],"part_notification_id":[1597,1598,1599,1600],"product_part_id":[2,3,4,5],"remind_type":["early     ","early     ","early     ","early     "],"timely_date":["2020-07-13","2020-07-13","2020-07-13","2020-07-13"],"CustID":"1cbca54c08d2739b"},"4":{"token":"60c95c02-5cd7-467b-84bf-2f3eea0061d8","part_notification":["\u0e01\u0e23\u0e2d\u0e07\u0e17\u0e35\u0e48 2 (Double Filter)","\u0e01\u0e23\u0e2d\u0e07\u0e17\u0e35\u0e48 3 (Double Filter)","\u0e01\u0e23\u0e2d\u0e07\u0e17\u0e35\u0e48 4 (Extractor)","\u0e01\u0e23\u0e2d\u0e07\u0e17\u0e35\u0e48 5 (Purified Filter)"],"part_notification_id":[1607,1608,1609,1610],"product_part_id":[2,3,4,5],"remind_type":["early     ","early     ","early     ","early     "],"timely_date":["2020-07-13","2020-07-13","2020-07-13","2020-07-13"],"CustID":"6e45272b80398877"}}
2020-07-10 14:00:01 data : {"0":{"token":null,"part_notification":["\u0e01\u0e23\u0e2d\u0e07\u0e17\u0e35\u0e48 2 (Double Filter)","\u0e01\u0e23\u0e2d\u0e07\u0e17\u0e35\u0e48 3 (Double Filter)","\u0e01\u0e23\u0e2d\u0e07\u0e17\u0e35\u0e48 4 (Extractor)","\u0e01\u0e23\u0e2d\u0e07\u0e17\u0e35\u0e48 5 (Purified Filter)"],"part_notification_id":[1597,1598,1599,1600],"product_part_id":[2,3,4,5],"remind_type":["early     ","early     ","early     ","early     "],"timely_date":["2020-07-13","2020-07-13","2020-07-13","2020-07-13"],"CustID":"1cbca54c08d2739b"},"4":{"token":"60c95c02-5cd7-467b-84bf-2f3eea0061d8","part_notification":["\u0e01\u0e23\u0e2d\u0e07\u0e17\u0e35\u0e48 2 (Double Filter)","\u0e01\u0e23\u0e2d\u0e07\u0e17\u0e35\u0e48 3 (Double Filter)","\u0e01\u0e23\u0e2d\u0e07\u0e17\u0e35\u0e48 4 (Extractor)","\u0e01\u0e23\u0e2d\u0e07\u0e17\u0e35\u0e48 5 (Purified Filter)"],"part_notification_id":[1607,1608,1609,1610],"product_part_id":[2,3,4,5],"remind_type":["early     ","early     ","early     ","early     "],"timely_date":["2020-07-13","2020-07-13","2020-07-13","2020-07-13"],"CustID":"6e45272b80398877"}}
2020-07-10 14:00:01 data : {"0":{"token":null,"part_notification":["\u0e01\u0e23\u0e2d\u0e07\u0e17\u0e35\u0e48 2 (Double Filter)","\u0e01\u0e23\u0e2d\u0e07\u0e17\u0e35\u0e48 3 (Double Filter)","\u0e01\u0e23\u0e2d\u0e07\u0e17\u0e35\u0e48 4 (Extractor)","\u0e01\u0e23\u0e2d\u0e07\u0e17\u0e35\u0e48 5 (Purified Filter)"],"part_notification_id":[1597,1598,1599,1600],"product_part_id":[2,3,4,5],"remind_type":["early     ","early     ","early     ","early     "],"timely_date":["2020-07-13","2020-07-13","2020-07-13","2020-07-13"],"CustID":"1cbca54c08d2739b"},"4":{"token":"60c95c02-5cd7-467b-84bf-2f3eea0061d8","part_notification":["\u0e01\u0e23\u0e2d\u0e07\u0e17\u0e35\u0e48 2 (Double Filter)","\u0e01\u0e23\u0e2d\u0e07\u0e17\u0e35\u0e48 3 (Double Filter)","\u0e01\u0e23\u0e2d\u0e07\u0e17\u0e35\u0e48 4 (Extractor)","\u0e01\u0e23\u0e2d\u0e07\u0e17\u0e35\u0e48 5 (Purified Filter)"],"part_notification_id":[1607,1608,1609,1610],"product_part_id":[2,3,4,5],"remind_type":["early     ","early     ","early     ","early     "],"timely_date":["2020-07-13","2020-07-13","2020-07-13","2020-07-13"],"CustID":"6e45272b80398877"}}
2020-07-10 14:00:01 data : {"0":{"token":null,"part_notification":["\u0e01\u0e23\u0e2d\u0e07\u0e17\u0e35\u0e48 2 (Double Filter)","\u0e01\u0e23\u0e2d\u0e07\u0e17\u0e35\u0e48 3 (Double Filter)","\u0e01\u0e23\u0e2d\u0e07\u0e17\u0e35\u0e48 4 (Extractor)","\u0e01\u0e23\u0e2d\u0e07\u0e17\u0e35\u0e48 5 (Purified Filter)"],"part_notification_id":[1597,1598,1599,1600],"product_part_id":[2,3,4,5],"remind_type":["early     ","early     ","early     ","early     "],"timely_date":["2020-07-13","2020-07-13","2020-07-13","2020-07-13"],"CustID":"1cbca54c08d2739b"},"4":{"token":"60c95c02-5cd7-467b-84bf-2f3eea0061d8","part_notification":["\u0e01\u0e23\u0e2d\u0e07\u0e17\u0e35\u0e48 2 (Double Filter)","\u0e01\u0e23\u0e2d\u0e07\u0e17\u0e35\u0e48 3 (Double Filter)","\u0e01\u0e23\u0e2d\u0e07\u0e17\u0e35\u0e48 4 (Extractor)","\u0e01\u0e23\u0e2d\u0e07\u0e17\u0e35\u0e48 5 (Purified Filter)"],"part_notification_id":[1607,1608,1609,1610],"product_part_id":[2,3,4,5],"remind_type":["early     ","early     ","early     ","early     "],"timely_date":["2020-07-13","2020-07-13","2020-07-13","2020-07-13"],"CustID":"6e45272b80398877"}}
2020-07-10 14:00:01 data : {"0":{"token":null,"part_notification":["\u0e01\u0e23\u0e2d\u0e07\u0e17\u0e35\u0e48 2 (Double Filter)","\u0e01\u0e23\u0e2d\u0e07\u0e17\u0e35\u0e48 3 (Double Filter)","\u0e01\u0e23\u0e2d\u0e07\u0e17\u0e35\u0e48 4 (Extractor)","\u0e01\u0e23\u0e2d\u0e07\u0e17\u0e35\u0e48 5 (Purified Filter)"],"part_notification_id":[1597,1598,1599,1600],"product_part_id":[2,3,4,5],"remind_type":["early     ","early     ","early     ","early     "],"timely_date":["2020-07-13","2020-07-13","2020-07-13","2020-07-13"],"CustID":"1cbca54c08d2739b"},"4":{"token":"60c95c02-5cd7-467b-84bf-2f3eea0061d8","part_notification":["\u0e01\u0e23\u0e2d\u0e07\u0e17\u0e35\u0e48 2 (Double Filter)","\u0e01\u0e23\u0e2d\u0e07\u0e17\u0e35\u0e48 3 (Double Filter)","\u0e01\u0e23\u0e2d\u0e07\u0e17\u0e35\u0e48 4 (Extractor)","\u0e01\u0e23\u0e2d\u0e07\u0e17\u0e35\u0e48 5 (Purified Filter)"],"part_notification_id":[1607,1608,1609,1610],"product_part_id":[2,3,4,5],"remind_type":["early     ","early     ","early     ","early     "],"timely_date":["2020-07-13","2020-07-13","2020-07-13","2020-07-13"],"CustID":"6e45272b80398877"}}
