2019-05-05 08:00:02 data : [{"token":"f0c1a5d7-62c2-4fd1-a26e-ac6d6756c7fc","part_notification":["\u0e01\u0e23\u0e2d\u0e07\u0e17\u0e35\u0e48 1 (First Filter)"],"part_notification_id":[2416],"product_part_id":[1],"remind_type":["lately    "],"timely_date":["2019-04-20"],"CustID":"c57e18d00801b480"},{"token":"66f76e46-71ca-4004-86b7-811e8010c3ca","part_notification":["\u0e01\u0e23\u0e2d\u0e07\u0e17\u0e35\u0e48 1 (First Filter)"],"part_notification_id":[2556],"product_part_id":[1],"remind_type":["early     "],"timely_date":["2019-05-08"],"CustID":"c1250e277f396652"},{"token":"0d342c6a-3c94-401d-b924-f9e33acd3050","part_notification":["\u0e01\u0e23\u0e2d\u0e07\u0e17\u0e35\u0e48 1 (First Filter)"],"part_notification_id":[2561],"product_part_id":[1],"remind_type":["early     "],"timely_date":["2019-05-08"],"CustID":"9f241b77d5669bdc"},{"token":"f3ae0216-6b57-4032-a981-f323102eae1b","part_notification":["\u0e01\u0e23\u0e2d\u0e07\u0e17\u0e35\u0e48 1 (First Filter)"],"part_notification_id":[2566],"product_part_id":[1],"remind_type":["early     "],"timely_date":["2019-05-08"],"CustID":"bad7d451d43b01"}]
2019-05-05 08:00:02 data : [{"token":"f0c1a5d7-62c2-4fd1-a26e-ac6d6756c7fc","part_notification":["\u0e01\u0e23\u0e2d\u0e07\u0e17\u0e35\u0e48 1 (First Filter)"],"part_notification_id":[2416],"product_part_id":[1],"remind_type":["lately    "],"timely_date":["2019-04-20"],"CustID":"c57e18d00801b480"},{"token":"66f76e46-71ca-4004-86b7-811e8010c3ca","part_notification":["\u0e01\u0e23\u0e2d\u0e07\u0e17\u0e35\u0e48 1 (First Filter)"],"part_notification_id":[2556],"product_part_id":[1],"remind_type":["early     "],"timely_date":["2019-05-08"],"CustID":"c1250e277f396652"},{"token":"0d342c6a-3c94-401d-b924-f9e33acd3050","part_notification":["\u0e01\u0e23\u0e2d\u0e07\u0e17\u0e35\u0e48 1 (First Filter)"],"part_notification_id":[2561],"product_part_id":[1],"remind_type":["early     "],"timely_date":["2019-05-08"],"CustID":"9f241b77d5669bdc"},{"token":"f3ae0216-6b57-4032-a981-f323102eae1b","part_notification":["\u0e01\u0e23\u0e2d\u0e07\u0e17\u0e35\u0e48 1 (First Filter)"],"part_notification_id":[2566],"product_part_id":[1],"remind_type":["early     "],"timely_date":["2019-05-08"],"CustID":"bad7d451d43b01"}]
2019-05-05 08:00:02 data : [{"token":"f0c1a5d7-62c2-4fd1-a26e-ac6d6756c7fc","part_notification":["\u0e01\u0e23\u0e2d\u0e07\u0e17\u0e35\u0e48 1 (First Filter)"],"part_notification_id":[2416],"product_part_id":[1],"remind_type":["lately    "],"timely_date":["2019-04-20"],"CustID":"c57e18d00801b480"},{"token":"66f76e46-71ca-4004-86b7-811e8010c3ca","part_notification":["\u0e01\u0e23\u0e2d\u0e07\u0e17\u0e35\u0e48 1 (First Filter)"],"part_notification_id":[2556],"product_part_id":[1],"remind_type":["early     "],"timely_date":["2019-05-08"],"CustID":"c1250e277f396652"},{"token":"0d342c6a-3c94-401d-b924-f9e33acd3050","part_notification":["\u0e01\u0e23\u0e2d\u0e07\u0e17\u0e35\u0e48 1 (First Filter)"],"part_notification_id":[2561],"product_part_id":[1],"remind_type":["early     "],"timely_date":["2019-05-08"],"CustID":"9f241b77d5669bdc"},{"token":"f3ae0216-6b57-4032-a981-f323102eae1b","part_notification":["\u0e01\u0e23\u0e2d\u0e07\u0e17\u0e35\u0e48 1 (First Filter)"],"part_notification_id":[2566],"product_part_id":[1],"remind_type":["early     "],"timely_date":["2019-05-08"],"CustID":"bad7d451d43b01"}]
