2019-05-29 13:00:01 data : [{"token":"b6429038-a075-40a2-a287-893b6e5e052c","part_notification":["\u0e01\u0e23\u0e2d\u0e07\u0e17\u0e35\u0e48 2 (Double Filter)","\u0e01\u0e23\u0e2d\u0e07\u0e17\u0e35\u0e48 3 (Double Filter)","\u0e01\u0e23\u0e2d\u0e07\u0e17\u0e35\u0e48 4 (Extractor)","\u0e01\u0e23\u0e2d\u0e07\u0e17\u0e35\u0e48 5 (Purified Filter)"],"part_notification_id":[877,878,879,880],"product_part_id":[2,3,4,5],"remind_type":["lately    ","lately    ","lately    ","lately    "],"timely_date":["2019-05-14","2019-05-14","2019-05-14","2019-05-14"],"CustID":"282a4f649d9c0ef2"}]
2019-05-29 13:00:01 data : [{"token":"b6429038-a075-40a2-a287-893b6e5e052c","part_notification":["\u0e01\u0e23\u0e2d\u0e07\u0e17\u0e35\u0e48 2 (Double Filter)","\u0e01\u0e23\u0e2d\u0e07\u0e17\u0e35\u0e48 3 (Double Filter)","\u0e01\u0e23\u0e2d\u0e07\u0e17\u0e35\u0e48 4 (Extractor)","\u0e01\u0e23\u0e2d\u0e07\u0e17\u0e35\u0e48 5 (Purified Filter)"],"part_notification_id":[877,878,879,880],"product_part_id":[2,3,4,5],"remind_type":["lately    ","lately    ","lately    ","lately    "],"timely_date":["2019-05-14","2019-05-14","2019-05-14","2019-05-14"],"CustID":"282a4f649d9c0ef2"}]
2019-05-29 13:00:01 data : [{"token":"b6429038-a075-40a2-a287-893b6e5e052c","part_notification":["\u0e01\u0e23\u0e2d\u0e07\u0e17\u0e35\u0e48 2 (Double Filter)","\u0e01\u0e23\u0e2d\u0e07\u0e17\u0e35\u0e48 3 (Double Filter)","\u0e01\u0e23\u0e2d\u0e07\u0e17\u0e35\u0e48 4 (Extractor)","\u0e01\u0e23\u0e2d\u0e07\u0e17\u0e35\u0e48 5 (Purified Filter)"],"part_notification_id":[877,878,879,880],"product_part_id":[2,3,4,5],"remind_type":["lately    ","lately    ","lately    ","lately    "],"timely_date":["2019-05-14","2019-05-14","2019-05-14","2019-05-14"],"CustID":"282a4f649d9c0ef2"}]
2019-05-29 13:00:01 data : [{"token":"b6429038-a075-40a2-a287-893b6e5e052c","part_notification":["\u0e01\u0e23\u0e2d\u0e07\u0e17\u0e35\u0e48 2 (Double Filter)","\u0e01\u0e23\u0e2d\u0e07\u0e17\u0e35\u0e48 3 (Double Filter)","\u0e01\u0e23\u0e2d\u0e07\u0e17\u0e35\u0e48 4 (Extractor)","\u0e01\u0e23\u0e2d\u0e07\u0e17\u0e35\u0e48 5 (Purified Filter)"],"part_notification_id":[877,878,879,880],"product_part_id":[2,3,4,5],"remind_type":["lately    ","lately    ","lately    ","lately    "],"timely_date":["2019-05-14","2019-05-14","2019-05-14","2019-05-14"],"CustID":"282a4f649d9c0ef2"}]
