2020-05-27 09:00:02 data : {"0":{"token":"","part_notification":["\u0e01\u0e23\u0e2d\u0e07\u0e17\u0e35\u0e48 2 (Double Filter)","\u0e01\u0e23\u0e2d\u0e07\u0e17\u0e35\u0e48 3 (Double Filter)","\u0e01\u0e23\u0e2d\u0e07\u0e17\u0e35\u0e48 4 (Extractor)","\u0e01\u0e23\u0e2d\u0e07\u0e17\u0e35\u0e48 5 (Purified Filter)"],"part_notification_id":[1702,1703,1704,1705],"product_part_id":[2,3,4,5],"remind_type":["early     ","early     ","early     ","early     "],"timely_date":["2020-05-30","2020-05-30","2020-05-30","2020-05-30"],"CustID":"9021ca0dbc3c7a45"},"4":{"token":"fee0f8b1-82cf-4c05-8544-1a484385768f","part_notification":["\u0e01\u0e23\u0e2d\u0e07\u0e17\u0e35\u0e48 1 (First Filter)"],"part_notification_id":[2581],"product_part_id":[1],"remind_type":["timely    "],"timely_date":["2020-05-27"],"CustID":"706bbd5ddf321223"}}
2020-05-27 09:00:02 data : {"0":{"token":"","part_notification":["\u0e01\u0e23\u0e2d\u0e07\u0e17\u0e35\u0e48 2 (Double Filter)","\u0e01\u0e23\u0e2d\u0e07\u0e17\u0e35\u0e48 3 (Double Filter)","\u0e01\u0e23\u0e2d\u0e07\u0e17\u0e35\u0e48 4 (Extractor)","\u0e01\u0e23\u0e2d\u0e07\u0e17\u0e35\u0e48 5 (Purified Filter)"],"part_notification_id":[1702,1703,1704,1705],"product_part_id":[2,3,4,5],"remind_type":["early     ","early     ","early     ","early     "],"timely_date":["2020-05-30","2020-05-30","2020-05-30","2020-05-30"],"CustID":"9021ca0dbc3c7a45"},"4":{"token":"fee0f8b1-82cf-4c05-8544-1a484385768f","part_notification":["\u0e01\u0e23\u0e2d\u0e07\u0e17\u0e35\u0e48 1 (First Filter)"],"part_notification_id":[2581],"product_part_id":[1],"remind_type":["timely    "],"timely_date":["2020-05-27"],"CustID":"706bbd5ddf321223"}}
2020-05-27 09:00:02 data : {"0":{"token":"","part_notification":["\u0e01\u0e23\u0e2d\u0e07\u0e17\u0e35\u0e48 2 (Double Filter)","\u0e01\u0e23\u0e2d\u0e07\u0e17\u0e35\u0e48 3 (Double Filter)","\u0e01\u0e23\u0e2d\u0e07\u0e17\u0e35\u0e48 4 (Extractor)","\u0e01\u0e23\u0e2d\u0e07\u0e17\u0e35\u0e48 5 (Purified Filter)"],"part_notification_id":[1702,1703,1704,1705],"product_part_id":[2,3,4,5],"remind_type":["early     ","early     ","early     ","early     "],"timely_date":["2020-05-30","2020-05-30","2020-05-30","2020-05-30"],"CustID":"9021ca0dbc3c7a45"},"4":{"token":"fee0f8b1-82cf-4c05-8544-1a484385768f","part_notification":["\u0e01\u0e23\u0e2d\u0e07\u0e17\u0e35\u0e48 1 (First Filter)"],"part_notification_id":[2581],"product_part_id":[1],"remind_type":["timely    "],"timely_date":["2020-05-27"],"CustID":"706bbd5ddf321223"}}
2020-05-27 09:00:02 data : {"0":{"token":"","part_notification":["\u0e01\u0e23\u0e2d\u0e07\u0e17\u0e35\u0e48 2 (Double Filter)","\u0e01\u0e23\u0e2d\u0e07\u0e17\u0e35\u0e48 3 (Double Filter)","\u0e01\u0e23\u0e2d\u0e07\u0e17\u0e35\u0e48 4 (Extractor)","\u0e01\u0e23\u0e2d\u0e07\u0e17\u0e35\u0e48 5 (Purified Filter)"],"part_notification_id":[1702,1703,1704,1705],"product_part_id":[2,3,4,5],"remind_type":["early     ","early     ","early     ","early     "],"timely_date":["2020-05-30","2020-05-30","2020-05-30","2020-05-30"],"CustID":"9021ca0dbc3c7a45"},"4":{"token":"fee0f8b1-82cf-4c05-8544-1a484385768f","part_notification":["\u0e01\u0e23\u0e2d\u0e07\u0e17\u0e35\u0e48 1 (First Filter)"],"part_notification_id":[2581],"product_part_id":[1],"remind_type":["timely    "],"timely_date":["2020-05-27"],"CustID":"706bbd5ddf321223"}}
2020-05-27 09:00:02 data : {"0":{"token":"","part_notification":["\u0e01\u0e23\u0e2d\u0e07\u0e17\u0e35\u0e48 2 (Double Filter)","\u0e01\u0e23\u0e2d\u0e07\u0e17\u0e35\u0e48 3 (Double Filter)","\u0e01\u0e23\u0e2d\u0e07\u0e17\u0e35\u0e48 4 (Extractor)","\u0e01\u0e23\u0e2d\u0e07\u0e17\u0e35\u0e48 5 (Purified Filter)"],"part_notification_id":[1702,1703,1704,1705],"product_part_id":[2,3,4,5],"remind_type":["early     ","early     ","early     ","early     "],"timely_date":["2020-05-30","2020-05-30","2020-05-30","2020-05-30"],"CustID":"9021ca0dbc3c7a45"},"4":{"token":"fee0f8b1-82cf-4c05-8544-1a484385768f","part_notification":["\u0e01\u0e23\u0e2d\u0e07\u0e17\u0e35\u0e48 1 (First Filter)"],"part_notification_id":[2581],"product_part_id":[1],"remind_type":["timely    "],"timely_date":["2020-05-27"],"CustID":"706bbd5ddf321223"}}
