2018-12-26 08:00:01 data : {"0":{"token":"05d80cbd-6c31-4403-8ec2-5192f0d773d4","part_notification":["\u0e01\u0e23\u0e2d\u0e07\u0e17\u0e35\u0e48 1 (First Filter)","\u0e01\u0e23\u0e2d\u0e07\u0e17\u0e35\u0e48 1 (First Filter)"],"part_notification_id":[1451,1456],"product_part_id":[1,1],"remind_type":["timely    ","timely    "],"timely_date":["2018-12-26","2018-12-26"],"CustID":"595b429272bbf8a4"},"2":{"token":"3847690d-d8b1-4fdc-99e3-b3656365744b","part_notification":["\u0e01\u0e23\u0e2d\u0e07\u0e17\u0e35\u0e48 1 (First Filter)"],"part_notification_id":[1461],"product_part_id":[1],"remind_type":["timely    "],"timely_date":["2018-12-26"],"CustID":"b28705d061c77d32"},"3":{"token":"b1d207be-0bb1-4f50-82cb-b90f8a51bad1","part_notification":["\u0e01\u0e23\u0e2d\u0e07\u0e17\u0e35\u0e48 1 (First Filter)"],"part_notification_id":[1466],"product_part_id":[1],"remind_type":["timely    "],"timely_date":["2018-12-26"],"CustID":"8e107318172836d7"}}
2018-12-26 08:00:01 data : {"0":{"token":"05d80cbd-6c31-4403-8ec2-5192f0d773d4","part_notification":["\u0e01\u0e23\u0e2d\u0e07\u0e17\u0e35\u0e48 1 (First Filter)","\u0e01\u0e23\u0e2d\u0e07\u0e17\u0e35\u0e48 1 (First Filter)"],"part_notification_id":[1451,1456],"product_part_id":[1,1],"remind_type":["timely    ","timely    "],"timely_date":["2018-12-26","2018-12-26"],"CustID":"595b429272bbf8a4"},"2":{"token":"3847690d-d8b1-4fdc-99e3-b3656365744b","part_notification":["\u0e01\u0e23\u0e2d\u0e07\u0e17\u0e35\u0e48 1 (First Filter)"],"part_notification_id":[1461],"product_part_id":[1],"remind_type":["timely    "],"timely_date":["2018-12-26"],"CustID":"b28705d061c77d32"},"3":{"token":"b1d207be-0bb1-4f50-82cb-b90f8a51bad1","part_notification":["\u0e01\u0e23\u0e2d\u0e07\u0e17\u0e35\u0e48 1 (First Filter)"],"part_notification_id":[1466],"product_part_id":[1],"remind_type":["timely    "],"timely_date":["2018-12-26"],"CustID":"8e107318172836d7"}}
2018-12-26 08:00:01 data : {"0":{"token":"05d80cbd-6c31-4403-8ec2-5192f0d773d4","part_notification":["\u0e01\u0e23\u0e2d\u0e07\u0e17\u0e35\u0e48 1 (First Filter)","\u0e01\u0e23\u0e2d\u0e07\u0e17\u0e35\u0e48 1 (First Filter)"],"part_notification_id":[1451,1456],"product_part_id":[1,1],"remind_type":["timely    ","timely    "],"timely_date":["2018-12-26","2018-12-26"],"CustID":"595b429272bbf8a4"},"2":{"token":"3847690d-d8b1-4fdc-99e3-b3656365744b","part_notification":["\u0e01\u0e23\u0e2d\u0e07\u0e17\u0e35\u0e48 1 (First Filter)"],"part_notification_id":[1461],"product_part_id":[1],"remind_type":["timely    "],"timely_date":["2018-12-26"],"CustID":"b28705d061c77d32"},"3":{"token":"b1d207be-0bb1-4f50-82cb-b90f8a51bad1","part_notification":["\u0e01\u0e23\u0e2d\u0e07\u0e17\u0e35\u0e48 1 (First Filter)"],"part_notification_id":[1466],"product_part_id":[1],"remind_type":["timely    "],"timely_date":["2018-12-26"],"CustID":"8e107318172836d7"}}
2018-12-26 08:00:01 data : {"0":{"token":"05d80cbd-6c31-4403-8ec2-5192f0d773d4","part_notification":["\u0e01\u0e23\u0e2d\u0e07\u0e17\u0e35\u0e48 1 (First Filter)","\u0e01\u0e23\u0e2d\u0e07\u0e17\u0e35\u0e48 1 (First Filter)"],"part_notification_id":[1451,1456],"product_part_id":[1,1],"remind_type":["timely    ","timely    "],"timely_date":["2018-12-26","2018-12-26"],"CustID":"595b429272bbf8a4"},"2":{"token":"3847690d-d8b1-4fdc-99e3-b3656365744b","part_notification":["\u0e01\u0e23\u0e2d\u0e07\u0e17\u0e35\u0e48 1 (First Filter)"],"part_notification_id":[1461],"product_part_id":[1],"remind_type":["timely    "],"timely_date":["2018-12-26"],"CustID":"b28705d061c77d32"},"3":{"token":"b1d207be-0bb1-4f50-82cb-b90f8a51bad1","part_notification":["\u0e01\u0e23\u0e2d\u0e07\u0e17\u0e35\u0e48 1 (First Filter)"],"part_notification_id":[1466],"product_part_id":[1],"remind_type":["timely    "],"timely_date":["2018-12-26"],"CustID":"8e107318172836d7"}}
2018-12-26 08:00:01 data : {"0":{"token":"05d80cbd-6c31-4403-8ec2-5192f0d773d4","part_notification":["\u0e01\u0e23\u0e2d\u0e07\u0e17\u0e35\u0e48 1 (First Filter)","\u0e01\u0e23\u0e2d\u0e07\u0e17\u0e35\u0e48 1 (First Filter)"],"part_notification_id":[1451,1456],"product_part_id":[1,1],"remind_type":["timely    ","timely    "],"timely_date":["2018-12-26","2018-12-26"],"CustID":"595b429272bbf8a4"},"2":{"token":"3847690d-d8b1-4fdc-99e3-b3656365744b","part_notification":["\u0e01\u0e23\u0e2d\u0e07\u0e17\u0e35\u0e48 1 (First Filter)"],"part_notification_id":[1461],"product_part_id":[1],"remind_type":["timely    "],"timely_date":["2018-12-26"],"CustID":"b28705d061c77d32"},"3":{"token":"b1d207be-0bb1-4f50-82cb-b90f8a51bad1","part_notification":["\u0e01\u0e23\u0e2d\u0e07\u0e17\u0e35\u0e48 1 (First Filter)"],"part_notification_id":[1466],"product_part_id":[1],"remind_type":["timely    "],"timely_date":["2018-12-26"],"CustID":"8e107318172836d7"}}
2018-12-26 08:00:01 data : {"0":{"token":"05d80cbd-6c31-4403-8ec2-5192f0d773d4","part_notification":["\u0e01\u0e23\u0e2d\u0e07\u0e17\u0e35\u0e48 1 (First Filter)","\u0e01\u0e23\u0e2d\u0e07\u0e17\u0e35\u0e48 1 (First Filter)"],"part_notification_id":[1451,1456],"product_part_id":[1,1],"remind_type":["timely    ","timely    "],"timely_date":["2018-12-26","2018-12-26"],"CustID":"595b429272bbf8a4"},"2":{"token":"3847690d-d8b1-4fdc-99e3-b3656365744b","part_notification":["\u0e01\u0e23\u0e2d\u0e07\u0e17\u0e35\u0e48 1 (First Filter)"],"part_notification_id":[1461],"product_part_id":[1],"remind_type":["timely    "],"timely_date":["2018-12-26"],"CustID":"b28705d061c77d32"},"3":{"token":"b1d207be-0bb1-4f50-82cb-b90f8a51bad1","part_notification":["\u0e01\u0e23\u0e2d\u0e07\u0e17\u0e35\u0e48 1 (First Filter)"],"part_notification_id":[1466],"product_part_id":[1],"remind_type":["timely    "],"timely_date":["2018-12-26"],"CustID":"8e107318172836d7"}}
