2020-08-17 09:00:04 data : {"0":{"token":"b88cfa34-e0c2-4535-901d-43cf8316a018","part_notification":["\u0e01\u0e23\u0e2d\u0e07\u0e17\u0e35\u0e48 1 (First Filter)"],"part_notification_id":[781],"product_part_id":[1],"remind_type":["timely    "],"timely_date":["2020-08-17"],"CustID":"362665b923fbd24f"},"1":{"token":"218ae9ab-e9c0-475f-a318-4d777e73ea68","part_notification":["\u0e01\u0e23\u0e2d\u0e07\u0e17\u0e35\u0e48 1 (First Filter)"],"part_notification_id":[1641],"product_part_id":[1],"remind_type":["timely    "],"timely_date":["2020-08-17"],"CustID":"a72a1f30a691fa73"},"2":{"token":"","part_notification":["\u0e01\u0e23\u0e2d\u0e07\u0e17\u0e35\u0e48 2 (Double Filter)","\u0e01\u0e23\u0e2d\u0e07\u0e17\u0e35\u0e48 3 (Double Filter)","\u0e01\u0e23\u0e2d\u0e07\u0e17\u0e35\u0e48 4 (Extractor)","\u0e01\u0e23\u0e2d\u0e07\u0e17\u0e35\u0e48 5 (Purified Filter)"],"part_notification_id":[1852,1853,1854,1855],"product_part_id":[2,3,4,5],"remind_type":["early     ","early     ","early     ","early     "],"timely_date":["2020-08-20","2020-08-20","2020-08-20","2020-08-20"],"CustID":"6eb618aacae6c540"},"6":{"token":"af69f462-f850-4a16-87e6-4313d5f65aff","part_notification":["\u0e01\u0e23\u0e2d\u0e07\u0e17\u0e35\u0e48 1 (First Filter)","\u0e01\u0e23\u0e2d\u0e07\u0e17\u0e35\u0e48 1 (First Filter)","\u0e01\u0e23\u0e2d\u0e07\u0e17\u0e35\u0e48 1 (First Filter)"],"part_notification_id":[4739,4743,4747],"product_part_id":[6,6,6],"remind_type":["timely    ","timely    ","timely    "],"timely_date":["2020-08-17","2020-08-17","2020-08-17"],"CustID":"fb081dad48873d1e"}}
2020-08-17 09:00:04 data : {"0":{"token":"b88cfa34-e0c2-4535-901d-43cf8316a018","part_notification":["\u0e01\u0e23\u0e2d\u0e07\u0e17\u0e35\u0e48 1 (First Filter)"],"part_notification_id":[781],"product_part_id":[1],"remind_type":["timely    "],"timely_date":["2020-08-17"],"CustID":"362665b923fbd24f"},"1":{"token":"218ae9ab-e9c0-475f-a318-4d777e73ea68","part_notification":["\u0e01\u0e23\u0e2d\u0e07\u0e17\u0e35\u0e48 1 (First Filter)"],"part_notification_id":[1641],"product_part_id":[1],"remind_type":["timely    "],"timely_date":["2020-08-17"],"CustID":"a72a1f30a691fa73"},"2":{"token":"","part_notification":["\u0e01\u0e23\u0e2d\u0e07\u0e17\u0e35\u0e48 2 (Double Filter)","\u0e01\u0e23\u0e2d\u0e07\u0e17\u0e35\u0e48 3 (Double Filter)","\u0e01\u0e23\u0e2d\u0e07\u0e17\u0e35\u0e48 4 (Extractor)","\u0e01\u0e23\u0e2d\u0e07\u0e17\u0e35\u0e48 5 (Purified Filter)"],"part_notification_id":[1852,1853,1854,1855],"product_part_id":[2,3,4,5],"remind_type":["early     ","early     ","early     ","early     "],"timely_date":["2020-08-20","2020-08-20","2020-08-20","2020-08-20"],"CustID":"6eb618aacae6c540"},"6":{"token":"af69f462-f850-4a16-87e6-4313d5f65aff","part_notification":["\u0e01\u0e23\u0e2d\u0e07\u0e17\u0e35\u0e48 1 (First Filter)","\u0e01\u0e23\u0e2d\u0e07\u0e17\u0e35\u0e48 1 (First Filter)","\u0e01\u0e23\u0e2d\u0e07\u0e17\u0e35\u0e48 1 (First Filter)"],"part_notification_id":[4739,4743,4747],"product_part_id":[6,6,6],"remind_type":["timely    ","timely    ","timely    "],"timely_date":["2020-08-17","2020-08-17","2020-08-17"],"CustID":"fb081dad48873d1e"}}
2020-08-17 09:00:04 data : {"0":{"token":"b88cfa34-e0c2-4535-901d-43cf8316a018","part_notification":["\u0e01\u0e23\u0e2d\u0e07\u0e17\u0e35\u0e48 1 (First Filter)"],"part_notification_id":[781],"product_part_id":[1],"remind_type":["timely    "],"timely_date":["2020-08-17"],"CustID":"362665b923fbd24f"},"1":{"token":"218ae9ab-e9c0-475f-a318-4d777e73ea68","part_notification":["\u0e01\u0e23\u0e2d\u0e07\u0e17\u0e35\u0e48 1 (First Filter)"],"part_notification_id":[1641],"product_part_id":[1],"remind_type":["timely    "],"timely_date":["2020-08-17"],"CustID":"a72a1f30a691fa73"},"2":{"token":"","part_notification":["\u0e01\u0e23\u0e2d\u0e07\u0e17\u0e35\u0e48 2 (Double Filter)","\u0e01\u0e23\u0e2d\u0e07\u0e17\u0e35\u0e48 3 (Double Filter)","\u0e01\u0e23\u0e2d\u0e07\u0e17\u0e35\u0e48 4 (Extractor)","\u0e01\u0e23\u0e2d\u0e07\u0e17\u0e35\u0e48 5 (Purified Filter)"],"part_notification_id":[1852,1853,1854,1855],"product_part_id":[2,3,4,5],"remind_type":["early     ","early     ","early     ","early     "],"timely_date":["2020-08-20","2020-08-20","2020-08-20","2020-08-20"],"CustID":"6eb618aacae6c540"},"6":{"token":"af69f462-f850-4a16-87e6-4313d5f65aff","part_notification":["\u0e01\u0e23\u0e2d\u0e07\u0e17\u0e35\u0e48 1 (First Filter)","\u0e01\u0e23\u0e2d\u0e07\u0e17\u0e35\u0e48 1 (First Filter)","\u0e01\u0e23\u0e2d\u0e07\u0e17\u0e35\u0e48 1 (First Filter)"],"part_notification_id":[4739,4743,4747],"product_part_id":[6,6,6],"remind_type":["timely    ","timely    ","timely    "],"timely_date":["2020-08-17","2020-08-17","2020-08-17"],"CustID":"fb081dad48873d1e"}}
