2019-03-05 09:00:01 data : [{"token":"","part_notification":["\u0e01\u0e23\u0e2d\u0e07\u0e17\u0e35\u0e48 1 (First Filter)","\u0e01\u0e23\u0e2d\u0e07\u0e17\u0e35\u0e48 1 (First Filter)","\u0e01\u0e23\u0e2d\u0e07\u0e17\u0e35\u0e48 1 (First Filter)"],"part_notification_id":[2011,2016,2021],"product_part_id":[1,1,1],"remind_type":["early     ","early     ","early     "],"timely_date":["2019-03-08","2019-03-08","2019-03-08"],"CustID":"5a98eb7a5cb268e9"}]
2019-03-05 09:00:01 data : [{"token":"","part_notification":["\u0e01\u0e23\u0e2d\u0e07\u0e17\u0e35\u0e48 1 (First Filter)","\u0e01\u0e23\u0e2d\u0e07\u0e17\u0e35\u0e48 1 (First Filter)","\u0e01\u0e23\u0e2d\u0e07\u0e17\u0e35\u0e48 1 (First Filter)"],"part_notification_id":[2011,2016,2021],"product_part_id":[1,1,1],"remind_type":["early     ","early     ","early     "],"timely_date":["2019-03-08","2019-03-08","2019-03-08"],"CustID":"5a98eb7a5cb268e9"}]
2019-03-05 09:00:01 data : [{"token":"","part_notification":["\u0e01\u0e23\u0e2d\u0e07\u0e17\u0e35\u0e48 1 (First Filter)","\u0e01\u0e23\u0e2d\u0e07\u0e17\u0e35\u0e48 1 (First Filter)","\u0e01\u0e23\u0e2d\u0e07\u0e17\u0e35\u0e48 1 (First Filter)"],"part_notification_id":[2011,2016,2021],"product_part_id":[1,1,1],"remind_type":["early     ","early     ","early     "],"timely_date":["2019-03-08","2019-03-08","2019-03-08"],"CustID":"5a98eb7a5cb268e9"}]
