2020-04-17 11:00:02 data : {"0":{"token":"b1347ac9-ae4d-4b6c-90eb-8c84c6292109","part_notification":["\u0e01\u0e23\u0e2d\u0e07\u0e17\u0e35\u0e48 2 (Double Filter)","\u0e01\u0e23\u0e2d\u0e07\u0e17\u0e35\u0e48 3 (Double Filter)","\u0e01\u0e23\u0e2d\u0e07\u0e17\u0e35\u0e48 4 (Extractor)","\u0e01\u0e23\u0e2d\u0e07\u0e17\u0e35\u0e48 5 (Purified Filter)"],"part_notification_id":[442,443,444,445],"product_part_id":[2,3,4,5],"remind_type":["timely    ","timely    ","timely    ","timely    "],"timely_date":["2020-04-17","2020-04-17","2020-04-17","2020-04-17"],"CustID":"9df23ee4e39f6ea2"},"4":{"token":"1669d9f3-c090-4172-97b8-21482377d532","part_notification":["\u0e01\u0e23\u0e2d\u0e07\u0e17\u0e35\u0e48 2 (Double Filter)","\u0e01\u0e23\u0e2d\u0e07\u0e17\u0e35\u0e48 3 (Double Filter)","\u0e01\u0e23\u0e2d\u0e07\u0e17\u0e35\u0e48 4 (Extractor)","\u0e01\u0e23\u0e2d\u0e07\u0e17\u0e35\u0e48 5 (Purified Filter)"],"part_notification_id":[452,453,454,455],"product_part_id":[2,3,4,5],"remind_type":["timely    ","timely    ","timely    ","timely    "],"timely_date":["2020-04-17","2020-04-17","2020-04-17","2020-04-17"],"CustID":"278c4867da881145"},"8":{"token":"51af5dd6-4319-4065-9297-9863c0c4f869","part_notification":["\u0e01\u0e23\u0e2d\u0e07\u0e17\u0e35\u0e48 1 (First Filter)"],"part_notification_id":[4098],"product_part_id":[1],"remind_type":["timely    "],"timely_date":["2020-04-17"],"CustID":"f01dd3dcfb53f6c8"},"9":{"token":"","part_notification":["\u0e01\u0e23\u0e2d\u0e07\u0e17\u0e35\u0e48 1 (First Filter)"],"part_notification_id":[4149],"product_part_id":[1],"remind_type":["early     "],"timely_date":["2020-04-20"],"CustID":"864d79837fbabd45"}}
2020-04-17 11:00:02 data : {"0":{"token":"b1347ac9-ae4d-4b6c-90eb-8c84c6292109","part_notification":["\u0e01\u0e23\u0e2d\u0e07\u0e17\u0e35\u0e48 2 (Double Filter)","\u0e01\u0e23\u0e2d\u0e07\u0e17\u0e35\u0e48 3 (Double Filter)","\u0e01\u0e23\u0e2d\u0e07\u0e17\u0e35\u0e48 4 (Extractor)","\u0e01\u0e23\u0e2d\u0e07\u0e17\u0e35\u0e48 5 (Purified Filter)"],"part_notification_id":[442,443,444,445],"product_part_id":[2,3,4,5],"remind_type":["timely    ","timely    ","timely    ","timely    "],"timely_date":["2020-04-17","2020-04-17","2020-04-17","2020-04-17"],"CustID":"9df23ee4e39f6ea2"},"4":{"token":"1669d9f3-c090-4172-97b8-21482377d532","part_notification":["\u0e01\u0e23\u0e2d\u0e07\u0e17\u0e35\u0e48 2 (Double Filter)","\u0e01\u0e23\u0e2d\u0e07\u0e17\u0e35\u0e48 3 (Double Filter)","\u0e01\u0e23\u0e2d\u0e07\u0e17\u0e35\u0e48 4 (Extractor)","\u0e01\u0e23\u0e2d\u0e07\u0e17\u0e35\u0e48 5 (Purified Filter)"],"part_notification_id":[452,453,454,455],"product_part_id":[2,3,4,5],"remind_type":["timely    ","timely    ","timely    ","timely    "],"timely_date":["2020-04-17","2020-04-17","2020-04-17","2020-04-17"],"CustID":"278c4867da881145"},"8":{"token":"51af5dd6-4319-4065-9297-9863c0c4f869","part_notification":["\u0e01\u0e23\u0e2d\u0e07\u0e17\u0e35\u0e48 1 (First Filter)"],"part_notification_id":[4098],"product_part_id":[1],"remind_type":["timely    "],"timely_date":["2020-04-17"],"CustID":"f01dd3dcfb53f6c8"},"9":{"token":"","part_notification":["\u0e01\u0e23\u0e2d\u0e07\u0e17\u0e35\u0e48 1 (First Filter)"],"part_notification_id":[4149],"product_part_id":[1],"remind_type":["early     "],"timely_date":["2020-04-20"],"CustID":"864d79837fbabd45"}}
2020-04-17 11:00:02 data : {"0":{"token":"b1347ac9-ae4d-4b6c-90eb-8c84c6292109","part_notification":["\u0e01\u0e23\u0e2d\u0e07\u0e17\u0e35\u0e48 2 (Double Filter)","\u0e01\u0e23\u0e2d\u0e07\u0e17\u0e35\u0e48 3 (Double Filter)","\u0e01\u0e23\u0e2d\u0e07\u0e17\u0e35\u0e48 4 (Extractor)","\u0e01\u0e23\u0e2d\u0e07\u0e17\u0e35\u0e48 5 (Purified Filter)"],"part_notification_id":[442,443,444,445],"product_part_id":[2,3,4,5],"remind_type":["timely    ","timely    ","timely    ","timely    "],"timely_date":["2020-04-17","2020-04-17","2020-04-17","2020-04-17"],"CustID":"9df23ee4e39f6ea2"},"4":{"token":"1669d9f3-c090-4172-97b8-21482377d532","part_notification":["\u0e01\u0e23\u0e2d\u0e07\u0e17\u0e35\u0e48 2 (Double Filter)","\u0e01\u0e23\u0e2d\u0e07\u0e17\u0e35\u0e48 3 (Double Filter)","\u0e01\u0e23\u0e2d\u0e07\u0e17\u0e35\u0e48 4 (Extractor)","\u0e01\u0e23\u0e2d\u0e07\u0e17\u0e35\u0e48 5 (Purified Filter)"],"part_notification_id":[452,453,454,455],"product_part_id":[2,3,4,5],"remind_type":["timely    ","timely    ","timely    ","timely    "],"timely_date":["2020-04-17","2020-04-17","2020-04-17","2020-04-17"],"CustID":"278c4867da881145"},"8":{"token":"51af5dd6-4319-4065-9297-9863c0c4f869","part_notification":["\u0e01\u0e23\u0e2d\u0e07\u0e17\u0e35\u0e48 1 (First Filter)"],"part_notification_id":[4098],"product_part_id":[1],"remind_type":["timely    "],"timely_date":["2020-04-17"],"CustID":"f01dd3dcfb53f6c8"},"9":{"token":"","part_notification":["\u0e01\u0e23\u0e2d\u0e07\u0e17\u0e35\u0e48 1 (First Filter)"],"part_notification_id":[4149],"product_part_id":[1],"remind_type":["early     "],"timely_date":["2020-04-20"],"CustID":"864d79837fbabd45"}}
2020-04-17 11:00:02 data : {"0":{"token":"b1347ac9-ae4d-4b6c-90eb-8c84c6292109","part_notification":["\u0e01\u0e23\u0e2d\u0e07\u0e17\u0e35\u0e48 2 (Double Filter)","\u0e01\u0e23\u0e2d\u0e07\u0e17\u0e35\u0e48 3 (Double Filter)","\u0e01\u0e23\u0e2d\u0e07\u0e17\u0e35\u0e48 4 (Extractor)","\u0e01\u0e23\u0e2d\u0e07\u0e17\u0e35\u0e48 5 (Purified Filter)"],"part_notification_id":[442,443,444,445],"product_part_id":[2,3,4,5],"remind_type":["timely    ","timely    ","timely    ","timely    "],"timely_date":["2020-04-17","2020-04-17","2020-04-17","2020-04-17"],"CustID":"9df23ee4e39f6ea2"},"4":{"token":"1669d9f3-c090-4172-97b8-21482377d532","part_notification":["\u0e01\u0e23\u0e2d\u0e07\u0e17\u0e35\u0e48 2 (Double Filter)","\u0e01\u0e23\u0e2d\u0e07\u0e17\u0e35\u0e48 3 (Double Filter)","\u0e01\u0e23\u0e2d\u0e07\u0e17\u0e35\u0e48 4 (Extractor)","\u0e01\u0e23\u0e2d\u0e07\u0e17\u0e35\u0e48 5 (Purified Filter)"],"part_notification_id":[452,453,454,455],"product_part_id":[2,3,4,5],"remind_type":["timely    ","timely    ","timely    ","timely    "],"timely_date":["2020-04-17","2020-04-17","2020-04-17","2020-04-17"],"CustID":"278c4867da881145"},"8":{"token":"51af5dd6-4319-4065-9297-9863c0c4f869","part_notification":["\u0e01\u0e23\u0e2d\u0e07\u0e17\u0e35\u0e48 1 (First Filter)"],"part_notification_id":[4098],"product_part_id":[1],"remind_type":["timely    "],"timely_date":["2020-04-17"],"CustID":"f01dd3dcfb53f6c8"},"9":{"token":"","part_notification":["\u0e01\u0e23\u0e2d\u0e07\u0e17\u0e35\u0e48 1 (First Filter)"],"part_notification_id":[4149],"product_part_id":[1],"remind_type":["early     "],"timely_date":["2020-04-20"],"CustID":"864d79837fbabd45"}}
2020-04-17 11:00:02 data : {"0":{"token":"b1347ac9-ae4d-4b6c-90eb-8c84c6292109","part_notification":["\u0e01\u0e23\u0e2d\u0e07\u0e17\u0e35\u0e48 2 (Double Filter)","\u0e01\u0e23\u0e2d\u0e07\u0e17\u0e35\u0e48 3 (Double Filter)","\u0e01\u0e23\u0e2d\u0e07\u0e17\u0e35\u0e48 4 (Extractor)","\u0e01\u0e23\u0e2d\u0e07\u0e17\u0e35\u0e48 5 (Purified Filter)"],"part_notification_id":[442,443,444,445],"product_part_id":[2,3,4,5],"remind_type":["timely    ","timely    ","timely    ","timely    "],"timely_date":["2020-04-17","2020-04-17","2020-04-17","2020-04-17"],"CustID":"9df23ee4e39f6ea2"},"4":{"token":"1669d9f3-c090-4172-97b8-21482377d532","part_notification":["\u0e01\u0e23\u0e2d\u0e07\u0e17\u0e35\u0e48 2 (Double Filter)","\u0e01\u0e23\u0e2d\u0e07\u0e17\u0e35\u0e48 3 (Double Filter)","\u0e01\u0e23\u0e2d\u0e07\u0e17\u0e35\u0e48 4 (Extractor)","\u0e01\u0e23\u0e2d\u0e07\u0e17\u0e35\u0e48 5 (Purified Filter)"],"part_notification_id":[452,453,454,455],"product_part_id":[2,3,4,5],"remind_type":["timely    ","timely    ","timely    ","timely    "],"timely_date":["2020-04-17","2020-04-17","2020-04-17","2020-04-17"],"CustID":"278c4867da881145"},"8":{"token":"51af5dd6-4319-4065-9297-9863c0c4f869","part_notification":["\u0e01\u0e23\u0e2d\u0e07\u0e17\u0e35\u0e48 1 (First Filter)"],"part_notification_id":[4098],"product_part_id":[1],"remind_type":["timely    "],"timely_date":["2020-04-17"],"CustID":"f01dd3dcfb53f6c8"},"9":{"token":"","part_notification":["\u0e01\u0e23\u0e2d\u0e07\u0e17\u0e35\u0e48 1 (First Filter)"],"part_notification_id":[4149],"product_part_id":[1],"remind_type":["early     "],"timely_date":["2020-04-20"],"CustID":"864d79837fbabd45"}}
2020-04-17 11:00:02 data : {"0":{"token":"b1347ac9-ae4d-4b6c-90eb-8c84c6292109","part_notification":["\u0e01\u0e23\u0e2d\u0e07\u0e17\u0e35\u0e48 2 (Double Filter)","\u0e01\u0e23\u0e2d\u0e07\u0e17\u0e35\u0e48 3 (Double Filter)","\u0e01\u0e23\u0e2d\u0e07\u0e17\u0e35\u0e48 4 (Extractor)","\u0e01\u0e23\u0e2d\u0e07\u0e17\u0e35\u0e48 5 (Purified Filter)"],"part_notification_id":[442,443,444,445],"product_part_id":[2,3,4,5],"remind_type":["timely    ","timely    ","timely    ","timely    "],"timely_date":["2020-04-17","2020-04-17","2020-04-17","2020-04-17"],"CustID":"9df23ee4e39f6ea2"},"4":{"token":"1669d9f3-c090-4172-97b8-21482377d532","part_notification":["\u0e01\u0e23\u0e2d\u0e07\u0e17\u0e35\u0e48 2 (Double Filter)","\u0e01\u0e23\u0e2d\u0e07\u0e17\u0e35\u0e48 3 (Double Filter)","\u0e01\u0e23\u0e2d\u0e07\u0e17\u0e35\u0e48 4 (Extractor)","\u0e01\u0e23\u0e2d\u0e07\u0e17\u0e35\u0e48 5 (Purified Filter)"],"part_notification_id":[452,453,454,455],"product_part_id":[2,3,4,5],"remind_type":["timely    ","timely    ","timely    ","timely    "],"timely_date":["2020-04-17","2020-04-17","2020-04-17","2020-04-17"],"CustID":"278c4867da881145"},"8":{"token":"51af5dd6-4319-4065-9297-9863c0c4f869","part_notification":["\u0e01\u0e23\u0e2d\u0e07\u0e17\u0e35\u0e48 1 (First Filter)"],"part_notification_id":[4098],"product_part_id":[1],"remind_type":["timely    "],"timely_date":["2020-04-17"],"CustID":"f01dd3dcfb53f6c8"},"9":{"token":"","part_notification":["\u0e01\u0e23\u0e2d\u0e07\u0e17\u0e35\u0e48 1 (First Filter)"],"part_notification_id":[4149],"product_part_id":[1],"remind_type":["early     "],"timely_date":["2020-04-20"],"CustID":"864d79837fbabd45"}}
2020-04-17 11:00:02 data : {"0":{"token":"b1347ac9-ae4d-4b6c-90eb-8c84c6292109","part_notification":["\u0e01\u0e23\u0e2d\u0e07\u0e17\u0e35\u0e48 2 (Double Filter)","\u0e01\u0e23\u0e2d\u0e07\u0e17\u0e35\u0e48 3 (Double Filter)","\u0e01\u0e23\u0e2d\u0e07\u0e17\u0e35\u0e48 4 (Extractor)","\u0e01\u0e23\u0e2d\u0e07\u0e17\u0e35\u0e48 5 (Purified Filter)"],"part_notification_id":[442,443,444,445],"product_part_id":[2,3,4,5],"remind_type":["timely    ","timely    ","timely    ","timely    "],"timely_date":["2020-04-17","2020-04-17","2020-04-17","2020-04-17"],"CustID":"9df23ee4e39f6ea2"},"4":{"token":"1669d9f3-c090-4172-97b8-21482377d532","part_notification":["\u0e01\u0e23\u0e2d\u0e07\u0e17\u0e35\u0e48 2 (Double Filter)","\u0e01\u0e23\u0e2d\u0e07\u0e17\u0e35\u0e48 3 (Double Filter)","\u0e01\u0e23\u0e2d\u0e07\u0e17\u0e35\u0e48 4 (Extractor)","\u0e01\u0e23\u0e2d\u0e07\u0e17\u0e35\u0e48 5 (Purified Filter)"],"part_notification_id":[452,453,454,455],"product_part_id":[2,3,4,5],"remind_type":["timely    ","timely    ","timely    ","timely    "],"timely_date":["2020-04-17","2020-04-17","2020-04-17","2020-04-17"],"CustID":"278c4867da881145"},"8":{"token":"51af5dd6-4319-4065-9297-9863c0c4f869","part_notification":["\u0e01\u0e23\u0e2d\u0e07\u0e17\u0e35\u0e48 1 (First Filter)"],"part_notification_id":[4098],"product_part_id":[1],"remind_type":["timely    "],"timely_date":["2020-04-17"],"CustID":"f01dd3dcfb53f6c8"},"9":{"token":"","part_notification":["\u0e01\u0e23\u0e2d\u0e07\u0e17\u0e35\u0e48 1 (First Filter)"],"part_notification_id":[4149],"product_part_id":[1],"remind_type":["early     "],"timely_date":["2020-04-20"],"CustID":"864d79837fbabd45"}}
2020-04-17 11:00:02 data : {"0":{"token":"b1347ac9-ae4d-4b6c-90eb-8c84c6292109","part_notification":["\u0e01\u0e23\u0e2d\u0e07\u0e17\u0e35\u0e48 2 (Double Filter)","\u0e01\u0e23\u0e2d\u0e07\u0e17\u0e35\u0e48 3 (Double Filter)","\u0e01\u0e23\u0e2d\u0e07\u0e17\u0e35\u0e48 4 (Extractor)","\u0e01\u0e23\u0e2d\u0e07\u0e17\u0e35\u0e48 5 (Purified Filter)"],"part_notification_id":[442,443,444,445],"product_part_id":[2,3,4,5],"remind_type":["timely    ","timely    ","timely    ","timely    "],"timely_date":["2020-04-17","2020-04-17","2020-04-17","2020-04-17"],"CustID":"9df23ee4e39f6ea2"},"4":{"token":"1669d9f3-c090-4172-97b8-21482377d532","part_notification":["\u0e01\u0e23\u0e2d\u0e07\u0e17\u0e35\u0e48 2 (Double Filter)","\u0e01\u0e23\u0e2d\u0e07\u0e17\u0e35\u0e48 3 (Double Filter)","\u0e01\u0e23\u0e2d\u0e07\u0e17\u0e35\u0e48 4 (Extractor)","\u0e01\u0e23\u0e2d\u0e07\u0e17\u0e35\u0e48 5 (Purified Filter)"],"part_notification_id":[452,453,454,455],"product_part_id":[2,3,4,5],"remind_type":["timely    ","timely    ","timely    ","timely    "],"timely_date":["2020-04-17","2020-04-17","2020-04-17","2020-04-17"],"CustID":"278c4867da881145"},"8":{"token":"51af5dd6-4319-4065-9297-9863c0c4f869","part_notification":["\u0e01\u0e23\u0e2d\u0e07\u0e17\u0e35\u0e48 1 (First Filter)"],"part_notification_id":[4098],"product_part_id":[1],"remind_type":["timely    "],"timely_date":["2020-04-17"],"CustID":"f01dd3dcfb53f6c8"},"9":{"token":"","part_notification":["\u0e01\u0e23\u0e2d\u0e07\u0e17\u0e35\u0e48 1 (First Filter)"],"part_notification_id":[4149],"product_part_id":[1],"remind_type":["early     "],"timely_date":["2020-04-20"],"CustID":"864d79837fbabd45"}}
2020-04-17 11:00:02 data : {"0":{"token":"b1347ac9-ae4d-4b6c-90eb-8c84c6292109","part_notification":["\u0e01\u0e23\u0e2d\u0e07\u0e17\u0e35\u0e48 2 (Double Filter)","\u0e01\u0e23\u0e2d\u0e07\u0e17\u0e35\u0e48 3 (Double Filter)","\u0e01\u0e23\u0e2d\u0e07\u0e17\u0e35\u0e48 4 (Extractor)","\u0e01\u0e23\u0e2d\u0e07\u0e17\u0e35\u0e48 5 (Purified Filter)"],"part_notification_id":[442,443,444,445],"product_part_id":[2,3,4,5],"remind_type":["timely    ","timely    ","timely    ","timely    "],"timely_date":["2020-04-17","2020-04-17","2020-04-17","2020-04-17"],"CustID":"9df23ee4e39f6ea2"},"4":{"token":"1669d9f3-c090-4172-97b8-21482377d532","part_notification":["\u0e01\u0e23\u0e2d\u0e07\u0e17\u0e35\u0e48 2 (Double Filter)","\u0e01\u0e23\u0e2d\u0e07\u0e17\u0e35\u0e48 3 (Double Filter)","\u0e01\u0e23\u0e2d\u0e07\u0e17\u0e35\u0e48 4 (Extractor)","\u0e01\u0e23\u0e2d\u0e07\u0e17\u0e35\u0e48 5 (Purified Filter)"],"part_notification_id":[452,453,454,455],"product_part_id":[2,3,4,5],"remind_type":["timely    ","timely    ","timely    ","timely    "],"timely_date":["2020-04-17","2020-04-17","2020-04-17","2020-04-17"],"CustID":"278c4867da881145"},"8":{"token":"51af5dd6-4319-4065-9297-9863c0c4f869","part_notification":["\u0e01\u0e23\u0e2d\u0e07\u0e17\u0e35\u0e48 1 (First Filter)"],"part_notification_id":[4098],"product_part_id":[1],"remind_type":["timely    "],"timely_date":["2020-04-17"],"CustID":"f01dd3dcfb53f6c8"},"9":{"token":"","part_notification":["\u0e01\u0e23\u0e2d\u0e07\u0e17\u0e35\u0e48 1 (First Filter)"],"part_notification_id":[4149],"product_part_id":[1],"remind_type":["early     "],"timely_date":["2020-04-20"],"CustID":"864d79837fbabd45"}}
