2020-09-13 13:00:01 data : {"0":{"token":"d2db2a08-d394-4456-b01e-6edacdb36ae9","part_notification":["\u0e01\u0e23\u0e2d\u0e07\u0e17\u0e35\u0e48 2 (Double Filter)","\u0e01\u0e23\u0e2d\u0e07\u0e17\u0e35\u0e48 3 (Double Filter)","\u0e01\u0e23\u0e2d\u0e07\u0e17\u0e35\u0e48 4 (Extractor)","\u0e01\u0e23\u0e2d\u0e07\u0e17\u0e35\u0e48 5 (Purified Filter)"],"part_notification_id":[2057,2058,2059,2060],"product_part_id":[2,3,4,5],"remind_type":["timely    ","timely    ","timely    ","timely    "],"timely_date":["2020-09-13","2020-09-13","2020-09-13","2020-09-13"],"CustID":"a76350424d18932c"},"4":{"token":"","part_notification":["\u0e01\u0e23\u0e2d\u0e07\u0e17\u0e35\u0e48 1 (First Filter)"],"part_notification_id":[4831],"product_part_id":[6],"remind_type":["early     "],"timely_date":["2020-09-16"],"CustID":"272491ab7b7c52e8"}}
2020-09-13 13:00:01 data : {"0":{"token":"d2db2a08-d394-4456-b01e-6edacdb36ae9","part_notification":["\u0e01\u0e23\u0e2d\u0e07\u0e17\u0e35\u0e48 2 (Double Filter)","\u0e01\u0e23\u0e2d\u0e07\u0e17\u0e35\u0e48 3 (Double Filter)","\u0e01\u0e23\u0e2d\u0e07\u0e17\u0e35\u0e48 4 (Extractor)","\u0e01\u0e23\u0e2d\u0e07\u0e17\u0e35\u0e48 5 (Purified Filter)"],"part_notification_id":[2057,2058,2059,2060],"product_part_id":[2,3,4,5],"remind_type":["timely    ","timely    ","timely    ","timely    "],"timely_date":["2020-09-13","2020-09-13","2020-09-13","2020-09-13"],"CustID":"a76350424d18932c"},"4":{"token":"","part_notification":["\u0e01\u0e23\u0e2d\u0e07\u0e17\u0e35\u0e48 1 (First Filter)"],"part_notification_id":[4831],"product_part_id":[6],"remind_type":["early     "],"timely_date":["2020-09-16"],"CustID":"272491ab7b7c52e8"}}
2020-09-13 13:00:01 data : {"0":{"token":"d2db2a08-d394-4456-b01e-6edacdb36ae9","part_notification":["\u0e01\u0e23\u0e2d\u0e07\u0e17\u0e35\u0e48 2 (Double Filter)","\u0e01\u0e23\u0e2d\u0e07\u0e17\u0e35\u0e48 3 (Double Filter)","\u0e01\u0e23\u0e2d\u0e07\u0e17\u0e35\u0e48 4 (Extractor)","\u0e01\u0e23\u0e2d\u0e07\u0e17\u0e35\u0e48 5 (Purified Filter)"],"part_notification_id":[2057,2058,2059,2060],"product_part_id":[2,3,4,5],"remind_type":["timely    ","timely    ","timely    ","timely    "],"timely_date":["2020-09-13","2020-09-13","2020-09-13","2020-09-13"],"CustID":"a76350424d18932c"},"4":{"token":"","part_notification":["\u0e01\u0e23\u0e2d\u0e07\u0e17\u0e35\u0e48 1 (First Filter)"],"part_notification_id":[4831],"product_part_id":[6],"remind_type":["early     "],"timely_date":["2020-09-16"],"CustID":"272491ab7b7c52e8"}}
2020-09-13 13:00:01 data : {"0":{"token":"d2db2a08-d394-4456-b01e-6edacdb36ae9","part_notification":["\u0e01\u0e23\u0e2d\u0e07\u0e17\u0e35\u0e48 2 (Double Filter)","\u0e01\u0e23\u0e2d\u0e07\u0e17\u0e35\u0e48 3 (Double Filter)","\u0e01\u0e23\u0e2d\u0e07\u0e17\u0e35\u0e48 4 (Extractor)","\u0e01\u0e23\u0e2d\u0e07\u0e17\u0e35\u0e48 5 (Purified Filter)"],"part_notification_id":[2057,2058,2059,2060],"product_part_id":[2,3,4,5],"remind_type":["timely    ","timely    ","timely    ","timely    "],"timely_date":["2020-09-13","2020-09-13","2020-09-13","2020-09-13"],"CustID":"a76350424d18932c"},"4":{"token":"","part_notification":["\u0e01\u0e23\u0e2d\u0e07\u0e17\u0e35\u0e48 1 (First Filter)"],"part_notification_id":[4831],"product_part_id":[6],"remind_type":["early     "],"timely_date":["2020-09-16"],"CustID":"272491ab7b7c52e8"}}
2020-09-13 13:00:01 data : {"0":{"token":"d2db2a08-d394-4456-b01e-6edacdb36ae9","part_notification":["\u0e01\u0e23\u0e2d\u0e07\u0e17\u0e35\u0e48 2 (Double Filter)","\u0e01\u0e23\u0e2d\u0e07\u0e17\u0e35\u0e48 3 (Double Filter)","\u0e01\u0e23\u0e2d\u0e07\u0e17\u0e35\u0e48 4 (Extractor)","\u0e01\u0e23\u0e2d\u0e07\u0e17\u0e35\u0e48 5 (Purified Filter)"],"part_notification_id":[2057,2058,2059,2060],"product_part_id":[2,3,4,5],"remind_type":["timely    ","timely    ","timely    ","timely    "],"timely_date":["2020-09-13","2020-09-13","2020-09-13","2020-09-13"],"CustID":"a76350424d18932c"},"4":{"token":"","part_notification":["\u0e01\u0e23\u0e2d\u0e07\u0e17\u0e35\u0e48 1 (First Filter)"],"part_notification_id":[4831],"product_part_id":[6],"remind_type":["early     "],"timely_date":["2020-09-16"],"CustID":"272491ab7b7c52e8"}}
