2020-09-08 08:00:07 data : {"0":{"token":"941180a4-06c2-4b48-abb3-07bfc8d1d6de","part_notification":["\u0e01\u0e23\u0e2d\u0e07\u0e17\u0e35\u0e48 2 (Double Filter)","\u0e01\u0e23\u0e2d\u0e07\u0e17\u0e35\u0e48 3 (Double Filter)","\u0e01\u0e23\u0e2d\u0e07\u0e17\u0e35\u0e48 4 (Extractor)","\u0e01\u0e23\u0e2d\u0e07\u0e17\u0e35\u0e48 5 (Purified Filter)","\u0e01\u0e23\u0e2d\u0e07\u0e17\u0e35\u0e48 2 (Double Filter)","\u0e01\u0e23\u0e2d\u0e07\u0e17\u0e35\u0e48 3 (Double Filter)","\u0e01\u0e23\u0e2d\u0e07\u0e17\u0e35\u0e48 4 (Extractor)","\u0e01\u0e23\u0e2d\u0e07\u0e17\u0e35\u0e48 5 (Purified Filter)","\u0e01\u0e23\u0e2d\u0e07\u0e17\u0e35\u0e48 2 (Double Filter)","\u0e01\u0e23\u0e2d\u0e07\u0e17\u0e35\u0e48 3 (Double Filter)","\u0e01\u0e23\u0e2d\u0e07\u0e17\u0e35\u0e48 4 (Extractor)","\u0e01\u0e23\u0e2d\u0e07\u0e17\u0e35\u0e48 5 (Purified Filter)"],"part_notification_id":[2012,2013,2014,2015,2017,2018,2019,2020,2022,2023,2024,2025],"product_part_id":[2,3,4,5,2,3,4,5,2,3,4,5],"remind_type":["timely    ","timely    ","timely    ","timely    ","timely    ","timely    ","timely    ","timely    ","timely    ","timely    ","timely    ","timely    "],"timely_date":["2020-09-08","2020-09-08","2020-09-08","2020-09-08","2020-09-08","2020-09-08","2020-09-08","2020-09-08","2020-09-08","2020-09-08","2020-09-08","2020-09-08"],"CustID":"c859e44d101d129d"},"12":{"token":"9e58739a-a1c4-4215-88fb-7457335dd6b3","part_notification":["\u0e01\u0e23\u0e2d\u0e07\u0e17\u0e35\u0e48 1 (First Filter)"],"part_notification_id":[4814],"product_part_id":[6],"remind_type":["early     "],"timely_date":["2020-09-11"],"CustID":"c3485fd64ffce3b1"}}
2020-09-08 08:00:07 data : {"0":{"token":"941180a4-06c2-4b48-abb3-07bfc8d1d6de","part_notification":["\u0e01\u0e23\u0e2d\u0e07\u0e17\u0e35\u0e48 2 (Double Filter)","\u0e01\u0e23\u0e2d\u0e07\u0e17\u0e35\u0e48 3 (Double Filter)","\u0e01\u0e23\u0e2d\u0e07\u0e17\u0e35\u0e48 4 (Extractor)","\u0e01\u0e23\u0e2d\u0e07\u0e17\u0e35\u0e48 5 (Purified Filter)","\u0e01\u0e23\u0e2d\u0e07\u0e17\u0e35\u0e48 2 (Double Filter)","\u0e01\u0e23\u0e2d\u0e07\u0e17\u0e35\u0e48 3 (Double Filter)","\u0e01\u0e23\u0e2d\u0e07\u0e17\u0e35\u0e48 4 (Extractor)","\u0e01\u0e23\u0e2d\u0e07\u0e17\u0e35\u0e48 5 (Purified Filter)","\u0e01\u0e23\u0e2d\u0e07\u0e17\u0e35\u0e48 2 (Double Filter)","\u0e01\u0e23\u0e2d\u0e07\u0e17\u0e35\u0e48 3 (Double Filter)","\u0e01\u0e23\u0e2d\u0e07\u0e17\u0e35\u0e48 4 (Extractor)","\u0e01\u0e23\u0e2d\u0e07\u0e17\u0e35\u0e48 5 (Purified Filter)"],"part_notification_id":[2012,2013,2014,2015,2017,2018,2019,2020,2022,2023,2024,2025],"product_part_id":[2,3,4,5,2,3,4,5,2,3,4,5],"remind_type":["timely    ","timely    ","timely    ","timely    ","timely    ","timely    ","timely    ","timely    ","timely    ","timely    ","timely    ","timely    "],"timely_date":["2020-09-08","2020-09-08","2020-09-08","2020-09-08","2020-09-08","2020-09-08","2020-09-08","2020-09-08","2020-09-08","2020-09-08","2020-09-08","2020-09-08"],"CustID":"c859e44d101d129d"},"12":{"token":"9e58739a-a1c4-4215-88fb-7457335dd6b3","part_notification":["\u0e01\u0e23\u0e2d\u0e07\u0e17\u0e35\u0e48 1 (First Filter)"],"part_notification_id":[4814],"product_part_id":[6],"remind_type":["early     "],"timely_date":["2020-09-11"],"CustID":"c3485fd64ffce3b1"}}
2020-09-08 08:00:07 data : {"0":{"token":"941180a4-06c2-4b48-abb3-07bfc8d1d6de","part_notification":["\u0e01\u0e23\u0e2d\u0e07\u0e17\u0e35\u0e48 2 (Double Filter)","\u0e01\u0e23\u0e2d\u0e07\u0e17\u0e35\u0e48 3 (Double Filter)","\u0e01\u0e23\u0e2d\u0e07\u0e17\u0e35\u0e48 4 (Extractor)","\u0e01\u0e23\u0e2d\u0e07\u0e17\u0e35\u0e48 5 (Purified Filter)","\u0e01\u0e23\u0e2d\u0e07\u0e17\u0e35\u0e48 2 (Double Filter)","\u0e01\u0e23\u0e2d\u0e07\u0e17\u0e35\u0e48 3 (Double Filter)","\u0e01\u0e23\u0e2d\u0e07\u0e17\u0e35\u0e48 4 (Extractor)","\u0e01\u0e23\u0e2d\u0e07\u0e17\u0e35\u0e48 5 (Purified Filter)","\u0e01\u0e23\u0e2d\u0e07\u0e17\u0e35\u0e48 2 (Double Filter)","\u0e01\u0e23\u0e2d\u0e07\u0e17\u0e35\u0e48 3 (Double Filter)","\u0e01\u0e23\u0e2d\u0e07\u0e17\u0e35\u0e48 4 (Extractor)","\u0e01\u0e23\u0e2d\u0e07\u0e17\u0e35\u0e48 5 (Purified Filter)"],"part_notification_id":[2012,2013,2014,2015,2017,2018,2019,2020,2022,2023,2024,2025],"product_part_id":[2,3,4,5,2,3,4,5,2,3,4,5],"remind_type":["timely    ","timely    ","timely    ","timely    ","timely    ","timely    ","timely    ","timely    ","timely    ","timely    ","timely    ","timely    "],"timely_date":["2020-09-08","2020-09-08","2020-09-08","2020-09-08","2020-09-08","2020-09-08","2020-09-08","2020-09-08","2020-09-08","2020-09-08","2020-09-08","2020-09-08"],"CustID":"c859e44d101d129d"},"12":{"token":"9e58739a-a1c4-4215-88fb-7457335dd6b3","part_notification":["\u0e01\u0e23\u0e2d\u0e07\u0e17\u0e35\u0e48 1 (First Filter)"],"part_notification_id":[4814],"product_part_id":[6],"remind_type":["early     "],"timely_date":["2020-09-11"],"CustID":"c3485fd64ffce3b1"}}
2020-09-08 08:00:07 data : {"0":{"token":"941180a4-06c2-4b48-abb3-07bfc8d1d6de","part_notification":["\u0e01\u0e23\u0e2d\u0e07\u0e17\u0e35\u0e48 2 (Double Filter)","\u0e01\u0e23\u0e2d\u0e07\u0e17\u0e35\u0e48 3 (Double Filter)","\u0e01\u0e23\u0e2d\u0e07\u0e17\u0e35\u0e48 4 (Extractor)","\u0e01\u0e23\u0e2d\u0e07\u0e17\u0e35\u0e48 5 (Purified Filter)","\u0e01\u0e23\u0e2d\u0e07\u0e17\u0e35\u0e48 2 (Double Filter)","\u0e01\u0e23\u0e2d\u0e07\u0e17\u0e35\u0e48 3 (Double Filter)","\u0e01\u0e23\u0e2d\u0e07\u0e17\u0e35\u0e48 4 (Extractor)","\u0e01\u0e23\u0e2d\u0e07\u0e17\u0e35\u0e48 5 (Purified Filter)","\u0e01\u0e23\u0e2d\u0e07\u0e17\u0e35\u0e48 2 (Double Filter)","\u0e01\u0e23\u0e2d\u0e07\u0e17\u0e35\u0e48 3 (Double Filter)","\u0e01\u0e23\u0e2d\u0e07\u0e17\u0e35\u0e48 4 (Extractor)","\u0e01\u0e23\u0e2d\u0e07\u0e17\u0e35\u0e48 5 (Purified Filter)"],"part_notification_id":[2012,2013,2014,2015,2017,2018,2019,2020,2022,2023,2024,2025],"product_part_id":[2,3,4,5,2,3,4,5,2,3,4,5],"remind_type":["timely    ","timely    ","timely    ","timely    ","timely    ","timely    ","timely    ","timely    ","timely    ","timely    ","timely    ","timely    "],"timely_date":["2020-09-08","2020-09-08","2020-09-08","2020-09-08","2020-09-08","2020-09-08","2020-09-08","2020-09-08","2020-09-08","2020-09-08","2020-09-08","2020-09-08"],"CustID":"c859e44d101d129d"},"12":{"token":"9e58739a-a1c4-4215-88fb-7457335dd6b3","part_notification":["\u0e01\u0e23\u0e2d\u0e07\u0e17\u0e35\u0e48 1 (First Filter)"],"part_notification_id":[4814],"product_part_id":[6],"remind_type":["early     "],"timely_date":["2020-09-11"],"CustID":"c3485fd64ffce3b1"}}
2020-09-08 08:00:07 data : {"0":{"token":"941180a4-06c2-4b48-abb3-07bfc8d1d6de","part_notification":["\u0e01\u0e23\u0e2d\u0e07\u0e17\u0e35\u0e48 2 (Double Filter)","\u0e01\u0e23\u0e2d\u0e07\u0e17\u0e35\u0e48 3 (Double Filter)","\u0e01\u0e23\u0e2d\u0e07\u0e17\u0e35\u0e48 4 (Extractor)","\u0e01\u0e23\u0e2d\u0e07\u0e17\u0e35\u0e48 5 (Purified Filter)","\u0e01\u0e23\u0e2d\u0e07\u0e17\u0e35\u0e48 2 (Double Filter)","\u0e01\u0e23\u0e2d\u0e07\u0e17\u0e35\u0e48 3 (Double Filter)","\u0e01\u0e23\u0e2d\u0e07\u0e17\u0e35\u0e48 4 (Extractor)","\u0e01\u0e23\u0e2d\u0e07\u0e17\u0e35\u0e48 5 (Purified Filter)","\u0e01\u0e23\u0e2d\u0e07\u0e17\u0e35\u0e48 2 (Double Filter)","\u0e01\u0e23\u0e2d\u0e07\u0e17\u0e35\u0e48 3 (Double Filter)","\u0e01\u0e23\u0e2d\u0e07\u0e17\u0e35\u0e48 4 (Extractor)","\u0e01\u0e23\u0e2d\u0e07\u0e17\u0e35\u0e48 5 (Purified Filter)"],"part_notification_id":[2012,2013,2014,2015,2017,2018,2019,2020,2022,2023,2024,2025],"product_part_id":[2,3,4,5,2,3,4,5,2,3,4,5],"remind_type":["timely    ","timely    ","timely    ","timely    ","timely    ","timely    ","timely    ","timely    ","timely    ","timely    ","timely    ","timely    "],"timely_date":["2020-09-08","2020-09-08","2020-09-08","2020-09-08","2020-09-08","2020-09-08","2020-09-08","2020-09-08","2020-09-08","2020-09-08","2020-09-08","2020-09-08"],"CustID":"c859e44d101d129d"},"12":{"token":"9e58739a-a1c4-4215-88fb-7457335dd6b3","part_notification":["\u0e01\u0e23\u0e2d\u0e07\u0e17\u0e35\u0e48 1 (First Filter)"],"part_notification_id":[4814],"product_part_id":[6],"remind_type":["early     "],"timely_date":["2020-09-11"],"CustID":"c3485fd64ffce3b1"}}
2020-09-08 08:00:07 data : {"0":{"token":"941180a4-06c2-4b48-abb3-07bfc8d1d6de","part_notification":["\u0e01\u0e23\u0e2d\u0e07\u0e17\u0e35\u0e48 2 (Double Filter)","\u0e01\u0e23\u0e2d\u0e07\u0e17\u0e35\u0e48 3 (Double Filter)","\u0e01\u0e23\u0e2d\u0e07\u0e17\u0e35\u0e48 4 (Extractor)","\u0e01\u0e23\u0e2d\u0e07\u0e17\u0e35\u0e48 5 (Purified Filter)","\u0e01\u0e23\u0e2d\u0e07\u0e17\u0e35\u0e48 2 (Double Filter)","\u0e01\u0e23\u0e2d\u0e07\u0e17\u0e35\u0e48 3 (Double Filter)","\u0e01\u0e23\u0e2d\u0e07\u0e17\u0e35\u0e48 4 (Extractor)","\u0e01\u0e23\u0e2d\u0e07\u0e17\u0e35\u0e48 5 (Purified Filter)","\u0e01\u0e23\u0e2d\u0e07\u0e17\u0e35\u0e48 2 (Double Filter)","\u0e01\u0e23\u0e2d\u0e07\u0e17\u0e35\u0e48 3 (Double Filter)","\u0e01\u0e23\u0e2d\u0e07\u0e17\u0e35\u0e48 4 (Extractor)","\u0e01\u0e23\u0e2d\u0e07\u0e17\u0e35\u0e48 5 (Purified Filter)"],"part_notification_id":[2012,2013,2014,2015,2017,2018,2019,2020,2022,2023,2024,2025],"product_part_id":[2,3,4,5,2,3,4,5,2,3,4,5],"remind_type":["timely    ","timely    ","timely    ","timely    ","timely    ","timely    ","timely    ","timely    ","timely    ","timely    ","timely    ","timely    "],"timely_date":["2020-09-08","2020-09-08","2020-09-08","2020-09-08","2020-09-08","2020-09-08","2020-09-08","2020-09-08","2020-09-08","2020-09-08","2020-09-08","2020-09-08"],"CustID":"c859e44d101d129d"},"12":{"token":"9e58739a-a1c4-4215-88fb-7457335dd6b3","part_notification":["\u0e01\u0e23\u0e2d\u0e07\u0e17\u0e35\u0e48 1 (First Filter)"],"part_notification_id":[4814],"product_part_id":[6],"remind_type":["early     "],"timely_date":["2020-09-11"],"CustID":"c3485fd64ffce3b1"}}
2020-09-08 08:00:07 data : {"0":{"token":"941180a4-06c2-4b48-abb3-07bfc8d1d6de","part_notification":["\u0e01\u0e23\u0e2d\u0e07\u0e17\u0e35\u0e48 2 (Double Filter)","\u0e01\u0e23\u0e2d\u0e07\u0e17\u0e35\u0e48 3 (Double Filter)","\u0e01\u0e23\u0e2d\u0e07\u0e17\u0e35\u0e48 4 (Extractor)","\u0e01\u0e23\u0e2d\u0e07\u0e17\u0e35\u0e48 5 (Purified Filter)","\u0e01\u0e23\u0e2d\u0e07\u0e17\u0e35\u0e48 2 (Double Filter)","\u0e01\u0e23\u0e2d\u0e07\u0e17\u0e35\u0e48 3 (Double Filter)","\u0e01\u0e23\u0e2d\u0e07\u0e17\u0e35\u0e48 4 (Extractor)","\u0e01\u0e23\u0e2d\u0e07\u0e17\u0e35\u0e48 5 (Purified Filter)","\u0e01\u0e23\u0e2d\u0e07\u0e17\u0e35\u0e48 2 (Double Filter)","\u0e01\u0e23\u0e2d\u0e07\u0e17\u0e35\u0e48 3 (Double Filter)","\u0e01\u0e23\u0e2d\u0e07\u0e17\u0e35\u0e48 4 (Extractor)","\u0e01\u0e23\u0e2d\u0e07\u0e17\u0e35\u0e48 5 (Purified Filter)"],"part_notification_id":[2012,2013,2014,2015,2017,2018,2019,2020,2022,2023,2024,2025],"product_part_id":[2,3,4,5,2,3,4,5,2,3,4,5],"remind_type":["timely    ","timely    ","timely    ","timely    ","timely    ","timely    ","timely    ","timely    ","timely    ","timely    ","timely    ","timely    "],"timely_date":["2020-09-08","2020-09-08","2020-09-08","2020-09-08","2020-09-08","2020-09-08","2020-09-08","2020-09-08","2020-09-08","2020-09-08","2020-09-08","2020-09-08"],"CustID":"c859e44d101d129d"},"12":{"token":"9e58739a-a1c4-4215-88fb-7457335dd6b3","part_notification":["\u0e01\u0e23\u0e2d\u0e07\u0e17\u0e35\u0e48 1 (First Filter)"],"part_notification_id":[4814],"product_part_id":[6],"remind_type":["early     "],"timely_date":["2020-09-11"],"CustID":"c3485fd64ffce3b1"}}
2020-09-08 08:00:07 data : {"0":{"token":"941180a4-06c2-4b48-abb3-07bfc8d1d6de","part_notification":["\u0e01\u0e23\u0e2d\u0e07\u0e17\u0e35\u0e48 2 (Double Filter)","\u0e01\u0e23\u0e2d\u0e07\u0e17\u0e35\u0e48 3 (Double Filter)","\u0e01\u0e23\u0e2d\u0e07\u0e17\u0e35\u0e48 4 (Extractor)","\u0e01\u0e23\u0e2d\u0e07\u0e17\u0e35\u0e48 5 (Purified Filter)","\u0e01\u0e23\u0e2d\u0e07\u0e17\u0e35\u0e48 2 (Double Filter)","\u0e01\u0e23\u0e2d\u0e07\u0e17\u0e35\u0e48 3 (Double Filter)","\u0e01\u0e23\u0e2d\u0e07\u0e17\u0e35\u0e48 4 (Extractor)","\u0e01\u0e23\u0e2d\u0e07\u0e17\u0e35\u0e48 5 (Purified Filter)","\u0e01\u0e23\u0e2d\u0e07\u0e17\u0e35\u0e48 2 (Double Filter)","\u0e01\u0e23\u0e2d\u0e07\u0e17\u0e35\u0e48 3 (Double Filter)","\u0e01\u0e23\u0e2d\u0e07\u0e17\u0e35\u0e48 4 (Extractor)","\u0e01\u0e23\u0e2d\u0e07\u0e17\u0e35\u0e48 5 (Purified Filter)"],"part_notification_id":[2012,2013,2014,2015,2017,2018,2019,2020,2022,2023,2024,2025],"product_part_id":[2,3,4,5,2,3,4,5,2,3,4,5],"remind_type":["timely    ","timely    ","timely    ","timely    ","timely    ","timely    ","timely    ","timely    ","timely    ","timely    ","timely    ","timely    "],"timely_date":["2020-09-08","2020-09-08","2020-09-08","2020-09-08","2020-09-08","2020-09-08","2020-09-08","2020-09-08","2020-09-08","2020-09-08","2020-09-08","2020-09-08"],"CustID":"c859e44d101d129d"},"12":{"token":"9e58739a-a1c4-4215-88fb-7457335dd6b3","part_notification":["\u0e01\u0e23\u0e2d\u0e07\u0e17\u0e35\u0e48 1 (First Filter)"],"part_notification_id":[4814],"product_part_id":[6],"remind_type":["early     "],"timely_date":["2020-09-11"],"CustID":"c3485fd64ffce3b1"}}
2020-09-08 08:00:07 data : {"0":{"token":"941180a4-06c2-4b48-abb3-07bfc8d1d6de","part_notification":["\u0e01\u0e23\u0e2d\u0e07\u0e17\u0e35\u0e48 2 (Double Filter)","\u0e01\u0e23\u0e2d\u0e07\u0e17\u0e35\u0e48 3 (Double Filter)","\u0e01\u0e23\u0e2d\u0e07\u0e17\u0e35\u0e48 4 (Extractor)","\u0e01\u0e23\u0e2d\u0e07\u0e17\u0e35\u0e48 5 (Purified Filter)","\u0e01\u0e23\u0e2d\u0e07\u0e17\u0e35\u0e48 2 (Double Filter)","\u0e01\u0e23\u0e2d\u0e07\u0e17\u0e35\u0e48 3 (Double Filter)","\u0e01\u0e23\u0e2d\u0e07\u0e17\u0e35\u0e48 4 (Extractor)","\u0e01\u0e23\u0e2d\u0e07\u0e17\u0e35\u0e48 5 (Purified Filter)","\u0e01\u0e23\u0e2d\u0e07\u0e17\u0e35\u0e48 2 (Double Filter)","\u0e01\u0e23\u0e2d\u0e07\u0e17\u0e35\u0e48 3 (Double Filter)","\u0e01\u0e23\u0e2d\u0e07\u0e17\u0e35\u0e48 4 (Extractor)","\u0e01\u0e23\u0e2d\u0e07\u0e17\u0e35\u0e48 5 (Purified Filter)"],"part_notification_id":[2012,2013,2014,2015,2017,2018,2019,2020,2022,2023,2024,2025],"product_part_id":[2,3,4,5,2,3,4,5,2,3,4,5],"remind_type":["timely    ","timely    ","timely    ","timely    ","timely    ","timely    ","timely    ","timely    ","timely    ","timely    ","timely    ","timely    "],"timely_date":["2020-09-08","2020-09-08","2020-09-08","2020-09-08","2020-09-08","2020-09-08","2020-09-08","2020-09-08","2020-09-08","2020-09-08","2020-09-08","2020-09-08"],"CustID":"c859e44d101d129d"},"12":{"token":"9e58739a-a1c4-4215-88fb-7457335dd6b3","part_notification":["\u0e01\u0e23\u0e2d\u0e07\u0e17\u0e35\u0e48 1 (First Filter)"],"part_notification_id":[4814],"product_part_id":[6],"remind_type":["early     "],"timely_date":["2020-09-11"],"CustID":"c3485fd64ffce3b1"}}
2020-09-08 08:00:07 data : {"0":{"token":"941180a4-06c2-4b48-abb3-07bfc8d1d6de","part_notification":["\u0e01\u0e23\u0e2d\u0e07\u0e17\u0e35\u0e48 2 (Double Filter)","\u0e01\u0e23\u0e2d\u0e07\u0e17\u0e35\u0e48 3 (Double Filter)","\u0e01\u0e23\u0e2d\u0e07\u0e17\u0e35\u0e48 4 (Extractor)","\u0e01\u0e23\u0e2d\u0e07\u0e17\u0e35\u0e48 5 (Purified Filter)","\u0e01\u0e23\u0e2d\u0e07\u0e17\u0e35\u0e48 2 (Double Filter)","\u0e01\u0e23\u0e2d\u0e07\u0e17\u0e35\u0e48 3 (Double Filter)","\u0e01\u0e23\u0e2d\u0e07\u0e17\u0e35\u0e48 4 (Extractor)","\u0e01\u0e23\u0e2d\u0e07\u0e17\u0e35\u0e48 5 (Purified Filter)","\u0e01\u0e23\u0e2d\u0e07\u0e17\u0e35\u0e48 2 (Double Filter)","\u0e01\u0e23\u0e2d\u0e07\u0e17\u0e35\u0e48 3 (Double Filter)","\u0e01\u0e23\u0e2d\u0e07\u0e17\u0e35\u0e48 4 (Extractor)","\u0e01\u0e23\u0e2d\u0e07\u0e17\u0e35\u0e48 5 (Purified Filter)"],"part_notification_id":[2012,2013,2014,2015,2017,2018,2019,2020,2022,2023,2024,2025],"product_part_id":[2,3,4,5,2,3,4,5,2,3,4,5],"remind_type":["timely    ","timely    ","timely    ","timely    ","timely    ","timely    ","timely    ","timely    ","timely    ","timely    ","timely    ","timely    "],"timely_date":["2020-09-08","2020-09-08","2020-09-08","2020-09-08","2020-09-08","2020-09-08","2020-09-08","2020-09-08","2020-09-08","2020-09-08","2020-09-08","2020-09-08"],"CustID":"c859e44d101d129d"},"12":{"token":"9e58739a-a1c4-4215-88fb-7457335dd6b3","part_notification":["\u0e01\u0e23\u0e2d\u0e07\u0e17\u0e35\u0e48 1 (First Filter)"],"part_notification_id":[4814],"product_part_id":[6],"remind_type":["early     "],"timely_date":["2020-09-11"],"CustID":"c3485fd64ffce3b1"}}
2020-09-08 08:00:07 data : {"0":{"token":"941180a4-06c2-4b48-abb3-07bfc8d1d6de","part_notification":["\u0e01\u0e23\u0e2d\u0e07\u0e17\u0e35\u0e48 2 (Double Filter)","\u0e01\u0e23\u0e2d\u0e07\u0e17\u0e35\u0e48 3 (Double Filter)","\u0e01\u0e23\u0e2d\u0e07\u0e17\u0e35\u0e48 4 (Extractor)","\u0e01\u0e23\u0e2d\u0e07\u0e17\u0e35\u0e48 5 (Purified Filter)","\u0e01\u0e23\u0e2d\u0e07\u0e17\u0e35\u0e48 2 (Double Filter)","\u0e01\u0e23\u0e2d\u0e07\u0e17\u0e35\u0e48 3 (Double Filter)","\u0e01\u0e23\u0e2d\u0e07\u0e17\u0e35\u0e48 4 (Extractor)","\u0e01\u0e23\u0e2d\u0e07\u0e17\u0e35\u0e48 5 (Purified Filter)","\u0e01\u0e23\u0e2d\u0e07\u0e17\u0e35\u0e48 2 (Double Filter)","\u0e01\u0e23\u0e2d\u0e07\u0e17\u0e35\u0e48 3 (Double Filter)","\u0e01\u0e23\u0e2d\u0e07\u0e17\u0e35\u0e48 4 (Extractor)","\u0e01\u0e23\u0e2d\u0e07\u0e17\u0e35\u0e48 5 (Purified Filter)"],"part_notification_id":[2012,2013,2014,2015,2017,2018,2019,2020,2022,2023,2024,2025],"product_part_id":[2,3,4,5,2,3,4,5,2,3,4,5],"remind_type":["timely    ","timely    ","timely    ","timely    ","timely    ","timely    ","timely    ","timely    ","timely    ","timely    ","timely    ","timely    "],"timely_date":["2020-09-08","2020-09-08","2020-09-08","2020-09-08","2020-09-08","2020-09-08","2020-09-08","2020-09-08","2020-09-08","2020-09-08","2020-09-08","2020-09-08"],"CustID":"c859e44d101d129d"},"12":{"token":"9e58739a-a1c4-4215-88fb-7457335dd6b3","part_notification":["\u0e01\u0e23\u0e2d\u0e07\u0e17\u0e35\u0e48 1 (First Filter)"],"part_notification_id":[4814],"product_part_id":[6],"remind_type":["early     "],"timely_date":["2020-09-11"],"CustID":"c3485fd64ffce3b1"}}
2020-09-08 08:00:07 data : {"0":{"token":"941180a4-06c2-4b48-abb3-07bfc8d1d6de","part_notification":["\u0e01\u0e23\u0e2d\u0e07\u0e17\u0e35\u0e48 2 (Double Filter)","\u0e01\u0e23\u0e2d\u0e07\u0e17\u0e35\u0e48 3 (Double Filter)","\u0e01\u0e23\u0e2d\u0e07\u0e17\u0e35\u0e48 4 (Extractor)","\u0e01\u0e23\u0e2d\u0e07\u0e17\u0e35\u0e48 5 (Purified Filter)","\u0e01\u0e23\u0e2d\u0e07\u0e17\u0e35\u0e48 2 (Double Filter)","\u0e01\u0e23\u0e2d\u0e07\u0e17\u0e35\u0e48 3 (Double Filter)","\u0e01\u0e23\u0e2d\u0e07\u0e17\u0e35\u0e48 4 (Extractor)","\u0e01\u0e23\u0e2d\u0e07\u0e17\u0e35\u0e48 5 (Purified Filter)","\u0e01\u0e23\u0e2d\u0e07\u0e17\u0e35\u0e48 2 (Double Filter)","\u0e01\u0e23\u0e2d\u0e07\u0e17\u0e35\u0e48 3 (Double Filter)","\u0e01\u0e23\u0e2d\u0e07\u0e17\u0e35\u0e48 4 (Extractor)","\u0e01\u0e23\u0e2d\u0e07\u0e17\u0e35\u0e48 5 (Purified Filter)"],"part_notification_id":[2012,2013,2014,2015,2017,2018,2019,2020,2022,2023,2024,2025],"product_part_id":[2,3,4,5,2,3,4,5,2,3,4,5],"remind_type":["timely    ","timely    ","timely    ","timely    ","timely    ","timely    ","timely    ","timely    ","timely    ","timely    ","timely    ","timely    "],"timely_date":["2020-09-08","2020-09-08","2020-09-08","2020-09-08","2020-09-08","2020-09-08","2020-09-08","2020-09-08","2020-09-08","2020-09-08","2020-09-08","2020-09-08"],"CustID":"c859e44d101d129d"},"12":{"token":"9e58739a-a1c4-4215-88fb-7457335dd6b3","part_notification":["\u0e01\u0e23\u0e2d\u0e07\u0e17\u0e35\u0e48 1 (First Filter)"],"part_notification_id":[4814],"product_part_id":[6],"remind_type":["early     "],"timely_date":["2020-09-11"],"CustID":"c3485fd64ffce3b1"}}
2020-09-08 08:00:07 data : {"0":{"token":"941180a4-06c2-4b48-abb3-07bfc8d1d6de","part_notification":["\u0e01\u0e23\u0e2d\u0e07\u0e17\u0e35\u0e48 2 (Double Filter)","\u0e01\u0e23\u0e2d\u0e07\u0e17\u0e35\u0e48 3 (Double Filter)","\u0e01\u0e23\u0e2d\u0e07\u0e17\u0e35\u0e48 4 (Extractor)","\u0e01\u0e23\u0e2d\u0e07\u0e17\u0e35\u0e48 5 (Purified Filter)","\u0e01\u0e23\u0e2d\u0e07\u0e17\u0e35\u0e48 2 (Double Filter)","\u0e01\u0e23\u0e2d\u0e07\u0e17\u0e35\u0e48 3 (Double Filter)","\u0e01\u0e23\u0e2d\u0e07\u0e17\u0e35\u0e48 4 (Extractor)","\u0e01\u0e23\u0e2d\u0e07\u0e17\u0e35\u0e48 5 (Purified Filter)","\u0e01\u0e23\u0e2d\u0e07\u0e17\u0e35\u0e48 2 (Double Filter)","\u0e01\u0e23\u0e2d\u0e07\u0e17\u0e35\u0e48 3 (Double Filter)","\u0e01\u0e23\u0e2d\u0e07\u0e17\u0e35\u0e48 4 (Extractor)","\u0e01\u0e23\u0e2d\u0e07\u0e17\u0e35\u0e48 5 (Purified Filter)"],"part_notification_id":[2012,2013,2014,2015,2017,2018,2019,2020,2022,2023,2024,2025],"product_part_id":[2,3,4,5,2,3,4,5,2,3,4,5],"remind_type":["timely    ","timely    ","timely    ","timely    ","timely    ","timely    ","timely    ","timely    ","timely    ","timely    ","timely    ","timely    "],"timely_date":["2020-09-08","2020-09-08","2020-09-08","2020-09-08","2020-09-08","2020-09-08","2020-09-08","2020-09-08","2020-09-08","2020-09-08","2020-09-08","2020-09-08"],"CustID":"c859e44d101d129d"},"12":{"token":"9e58739a-a1c4-4215-88fb-7457335dd6b3","part_notification":["\u0e01\u0e23\u0e2d\u0e07\u0e17\u0e35\u0e48 1 (First Filter)"],"part_notification_id":[4814],"product_part_id":[6],"remind_type":["early     "],"timely_date":["2020-09-11"],"CustID":"c3485fd64ffce3b1"}}
