2020-02-23 08:00:01 data : [{"token":"941180a4-06c2-4b48-abb3-07bfc8d1d6de","part_notification":["\u0e01\u0e23\u0e2d\u0e07\u0e17\u0e35\u0e48 1 (First Filter)"],"part_notification_id":[2376],"product_part_id":[1],"remind_type":["early     "],"timely_date":["2020-02-23"],"CustID":"c859e44d101d129d"},{"token":"e7f7b059-e39b-4cfb-9766-d4d244c9aaa6","part_notification":["\u0e01\u0e23\u0e2d\u0e07\u0e17\u0e35\u0e48 1 (First Filter)"],"part_notification_id":[3779],"product_part_id":[1],"remind_type":["timely    "],"timely_date":["2020-02-23"],"CustID":"1bf85cf32857e30b"},{"token":"45f23c6c-a98e-4030-ae80-768433bace68","part_notification":["\u0e01\u0e23\u0e2d\u0e07\u0e17\u0e35\u0e48 1 (First Filter)"],"part_notification_id":[3807],"product_part_id":[1],"remind_type":["early     "],"timely_date":["2020-02-26"],"CustID":"4610d58f264a4203"}]
2020-02-23 08:00:01 data : [{"token":"941180a4-06c2-4b48-abb3-07bfc8d1d6de","part_notification":["\u0e01\u0e23\u0e2d\u0e07\u0e17\u0e35\u0e48 1 (First Filter)"],"part_notification_id":[2376],"product_part_id":[1],"remind_type":["early     "],"timely_date":["2020-02-23"],"CustID":"c859e44d101d129d"},{"token":"e7f7b059-e39b-4cfb-9766-d4d244c9aaa6","part_notification":["\u0e01\u0e23\u0e2d\u0e07\u0e17\u0e35\u0e48 1 (First Filter)"],"part_notification_id":[3779],"product_part_id":[1],"remind_type":["timely    "],"timely_date":["2020-02-23"],"CustID":"1bf85cf32857e30b"},{"token":"45f23c6c-a98e-4030-ae80-768433bace68","part_notification":["\u0e01\u0e23\u0e2d\u0e07\u0e17\u0e35\u0e48 1 (First Filter)"],"part_notification_id":[3807],"product_part_id":[1],"remind_type":["early     "],"timely_date":["2020-02-26"],"CustID":"4610d58f264a4203"}]
2020-02-23 08:00:01 data : [{"token":"941180a4-06c2-4b48-abb3-07bfc8d1d6de","part_notification":["\u0e01\u0e23\u0e2d\u0e07\u0e17\u0e35\u0e48 1 (First Filter)"],"part_notification_id":[2376],"product_part_id":[1],"remind_type":["early     "],"timely_date":["2020-02-23"],"CustID":"c859e44d101d129d"},{"token":"e7f7b059-e39b-4cfb-9766-d4d244c9aaa6","part_notification":["\u0e01\u0e23\u0e2d\u0e07\u0e17\u0e35\u0e48 1 (First Filter)"],"part_notification_id":[3779],"product_part_id":[1],"remind_type":["timely    "],"timely_date":["2020-02-23"],"CustID":"1bf85cf32857e30b"},{"token":"45f23c6c-a98e-4030-ae80-768433bace68","part_notification":["\u0e01\u0e23\u0e2d\u0e07\u0e17\u0e35\u0e48 1 (First Filter)"],"part_notification_id":[3807],"product_part_id":[1],"remind_type":["early     "],"timely_date":["2020-02-26"],"CustID":"4610d58f264a4203"}]
