2020-07-26 09:00:02 data : {"0":{"token":"cb419312-3b0e-4a5f-83f9-c4ecba4e9548","part_notification":["\u0e01\u0e23\u0e2d\u0e07\u0e17\u0e35\u0e48 2 (Double Filter)","\u0e01\u0e23\u0e2d\u0e07\u0e17\u0e35\u0e48 3 (Double Filter)","\u0e01\u0e23\u0e2d\u0e07\u0e17\u0e35\u0e48 4 (Extractor)","\u0e01\u0e23\u0e2d\u0e07\u0e17\u0e35\u0e48 5 (Purified Filter)"],"part_notification_id":[1577,1578,1579,1580],"product_part_id":[2,3,4,5],"remind_type":["lately    ","lately    ","lately    ","lately    "],"timely_date":["2020-07-11","2020-07-11","2020-07-11","2020-07-11"],"CustID":"675245cf0051dffb"},"4":{"token":"830855ec-b133-4606-b688-232fc3a0b16b","part_notification":["\u0e01\u0e23\u0e2d\u0e07\u0e17\u0e35\u0e48 2 (Double Filter)","\u0e01\u0e23\u0e2d\u0e07\u0e17\u0e35\u0e48 3 (Double Filter)","\u0e01\u0e23\u0e2d\u0e07\u0e17\u0e35\u0e48 4 (Extractor)","\u0e01\u0e23\u0e2d\u0e07\u0e17\u0e35\u0e48 5 (Purified Filter)"],"part_notification_id":[1682,1683,1684,1685],"product_part_id":[2,3,4,5],"remind_type":["timely    ","timely    ","timely    ","timely    "],"timely_date":["2020-07-26","2020-07-26","2020-07-26","2020-07-26"],"CustID":"f56ceaa93c9f0736"}}
2020-07-26 09:00:02 data : {"0":{"token":"cb419312-3b0e-4a5f-83f9-c4ecba4e9548","part_notification":["\u0e01\u0e23\u0e2d\u0e07\u0e17\u0e35\u0e48 2 (Double Filter)","\u0e01\u0e23\u0e2d\u0e07\u0e17\u0e35\u0e48 3 (Double Filter)","\u0e01\u0e23\u0e2d\u0e07\u0e17\u0e35\u0e48 4 (Extractor)","\u0e01\u0e23\u0e2d\u0e07\u0e17\u0e35\u0e48 5 (Purified Filter)"],"part_notification_id":[1577,1578,1579,1580],"product_part_id":[2,3,4,5],"remind_type":["lately    ","lately    ","lately    ","lately    "],"timely_date":["2020-07-11","2020-07-11","2020-07-11","2020-07-11"],"CustID":"675245cf0051dffb"},"4":{"token":"830855ec-b133-4606-b688-232fc3a0b16b","part_notification":["\u0e01\u0e23\u0e2d\u0e07\u0e17\u0e35\u0e48 2 (Double Filter)","\u0e01\u0e23\u0e2d\u0e07\u0e17\u0e35\u0e48 3 (Double Filter)","\u0e01\u0e23\u0e2d\u0e07\u0e17\u0e35\u0e48 4 (Extractor)","\u0e01\u0e23\u0e2d\u0e07\u0e17\u0e35\u0e48 5 (Purified Filter)"],"part_notification_id":[1682,1683,1684,1685],"product_part_id":[2,3,4,5],"remind_type":["timely    ","timely    ","timely    ","timely    "],"timely_date":["2020-07-26","2020-07-26","2020-07-26","2020-07-26"],"CustID":"f56ceaa93c9f0736"}}
2020-07-26 09:00:02 data : {"0":{"token":"cb419312-3b0e-4a5f-83f9-c4ecba4e9548","part_notification":["\u0e01\u0e23\u0e2d\u0e07\u0e17\u0e35\u0e48 2 (Double Filter)","\u0e01\u0e23\u0e2d\u0e07\u0e17\u0e35\u0e48 3 (Double Filter)","\u0e01\u0e23\u0e2d\u0e07\u0e17\u0e35\u0e48 4 (Extractor)","\u0e01\u0e23\u0e2d\u0e07\u0e17\u0e35\u0e48 5 (Purified Filter)"],"part_notification_id":[1577,1578,1579,1580],"product_part_id":[2,3,4,5],"remind_type":["lately    ","lately    ","lately    ","lately    "],"timely_date":["2020-07-11","2020-07-11","2020-07-11","2020-07-11"],"CustID":"675245cf0051dffb"},"4":{"token":"830855ec-b133-4606-b688-232fc3a0b16b","part_notification":["\u0e01\u0e23\u0e2d\u0e07\u0e17\u0e35\u0e48 2 (Double Filter)","\u0e01\u0e23\u0e2d\u0e07\u0e17\u0e35\u0e48 3 (Double Filter)","\u0e01\u0e23\u0e2d\u0e07\u0e17\u0e35\u0e48 4 (Extractor)","\u0e01\u0e23\u0e2d\u0e07\u0e17\u0e35\u0e48 5 (Purified Filter)"],"part_notification_id":[1682,1683,1684,1685],"product_part_id":[2,3,4,5],"remind_type":["timely    ","timely    ","timely    ","timely    "],"timely_date":["2020-07-26","2020-07-26","2020-07-26","2020-07-26"],"CustID":"f56ceaa93c9f0736"}}
2020-07-26 09:00:02 data : {"0":{"token":"cb419312-3b0e-4a5f-83f9-c4ecba4e9548","part_notification":["\u0e01\u0e23\u0e2d\u0e07\u0e17\u0e35\u0e48 2 (Double Filter)","\u0e01\u0e23\u0e2d\u0e07\u0e17\u0e35\u0e48 3 (Double Filter)","\u0e01\u0e23\u0e2d\u0e07\u0e17\u0e35\u0e48 4 (Extractor)","\u0e01\u0e23\u0e2d\u0e07\u0e17\u0e35\u0e48 5 (Purified Filter)"],"part_notification_id":[1577,1578,1579,1580],"product_part_id":[2,3,4,5],"remind_type":["lately    ","lately    ","lately    ","lately    "],"timely_date":["2020-07-11","2020-07-11","2020-07-11","2020-07-11"],"CustID":"675245cf0051dffb"},"4":{"token":"830855ec-b133-4606-b688-232fc3a0b16b","part_notification":["\u0e01\u0e23\u0e2d\u0e07\u0e17\u0e35\u0e48 2 (Double Filter)","\u0e01\u0e23\u0e2d\u0e07\u0e17\u0e35\u0e48 3 (Double Filter)","\u0e01\u0e23\u0e2d\u0e07\u0e17\u0e35\u0e48 4 (Extractor)","\u0e01\u0e23\u0e2d\u0e07\u0e17\u0e35\u0e48 5 (Purified Filter)"],"part_notification_id":[1682,1683,1684,1685],"product_part_id":[2,3,4,5],"remind_type":["timely    ","timely    ","timely    ","timely    "],"timely_date":["2020-07-26","2020-07-26","2020-07-26","2020-07-26"],"CustID":"f56ceaa93c9f0736"}}
2020-07-26 09:00:02 data : {"0":{"token":"cb419312-3b0e-4a5f-83f9-c4ecba4e9548","part_notification":["\u0e01\u0e23\u0e2d\u0e07\u0e17\u0e35\u0e48 2 (Double Filter)","\u0e01\u0e23\u0e2d\u0e07\u0e17\u0e35\u0e48 3 (Double Filter)","\u0e01\u0e23\u0e2d\u0e07\u0e17\u0e35\u0e48 4 (Extractor)","\u0e01\u0e23\u0e2d\u0e07\u0e17\u0e35\u0e48 5 (Purified Filter)"],"part_notification_id":[1577,1578,1579,1580],"product_part_id":[2,3,4,5],"remind_type":["lately    ","lately    ","lately    ","lately    "],"timely_date":["2020-07-11","2020-07-11","2020-07-11","2020-07-11"],"CustID":"675245cf0051dffb"},"4":{"token":"830855ec-b133-4606-b688-232fc3a0b16b","part_notification":["\u0e01\u0e23\u0e2d\u0e07\u0e17\u0e35\u0e48 2 (Double Filter)","\u0e01\u0e23\u0e2d\u0e07\u0e17\u0e35\u0e48 3 (Double Filter)","\u0e01\u0e23\u0e2d\u0e07\u0e17\u0e35\u0e48 4 (Extractor)","\u0e01\u0e23\u0e2d\u0e07\u0e17\u0e35\u0e48 5 (Purified Filter)"],"part_notification_id":[1682,1683,1684,1685],"product_part_id":[2,3,4,5],"remind_type":["timely    ","timely    ","timely    ","timely    "],"timely_date":["2020-07-26","2020-07-26","2020-07-26","2020-07-26"],"CustID":"f56ceaa93c9f0736"}}
2020-07-26 09:00:02 data : {"0":{"token":"cb419312-3b0e-4a5f-83f9-c4ecba4e9548","part_notification":["\u0e01\u0e23\u0e2d\u0e07\u0e17\u0e35\u0e48 2 (Double Filter)","\u0e01\u0e23\u0e2d\u0e07\u0e17\u0e35\u0e48 3 (Double Filter)","\u0e01\u0e23\u0e2d\u0e07\u0e17\u0e35\u0e48 4 (Extractor)","\u0e01\u0e23\u0e2d\u0e07\u0e17\u0e35\u0e48 5 (Purified Filter)"],"part_notification_id":[1577,1578,1579,1580],"product_part_id":[2,3,4,5],"remind_type":["lately    ","lately    ","lately    ","lately    "],"timely_date":["2020-07-11","2020-07-11","2020-07-11","2020-07-11"],"CustID":"675245cf0051dffb"},"4":{"token":"830855ec-b133-4606-b688-232fc3a0b16b","part_notification":["\u0e01\u0e23\u0e2d\u0e07\u0e17\u0e35\u0e48 2 (Double Filter)","\u0e01\u0e23\u0e2d\u0e07\u0e17\u0e35\u0e48 3 (Double Filter)","\u0e01\u0e23\u0e2d\u0e07\u0e17\u0e35\u0e48 4 (Extractor)","\u0e01\u0e23\u0e2d\u0e07\u0e17\u0e35\u0e48 5 (Purified Filter)"],"part_notification_id":[1682,1683,1684,1685],"product_part_id":[2,3,4,5],"remind_type":["timely    ","timely    ","timely    ","timely    "],"timely_date":["2020-07-26","2020-07-26","2020-07-26","2020-07-26"],"CustID":"f56ceaa93c9f0736"}}
2020-07-26 09:00:02 data : {"0":{"token":"cb419312-3b0e-4a5f-83f9-c4ecba4e9548","part_notification":["\u0e01\u0e23\u0e2d\u0e07\u0e17\u0e35\u0e48 2 (Double Filter)","\u0e01\u0e23\u0e2d\u0e07\u0e17\u0e35\u0e48 3 (Double Filter)","\u0e01\u0e23\u0e2d\u0e07\u0e17\u0e35\u0e48 4 (Extractor)","\u0e01\u0e23\u0e2d\u0e07\u0e17\u0e35\u0e48 5 (Purified Filter)"],"part_notification_id":[1577,1578,1579,1580],"product_part_id":[2,3,4,5],"remind_type":["lately    ","lately    ","lately    ","lately    "],"timely_date":["2020-07-11","2020-07-11","2020-07-11","2020-07-11"],"CustID":"675245cf0051dffb"},"4":{"token":"830855ec-b133-4606-b688-232fc3a0b16b","part_notification":["\u0e01\u0e23\u0e2d\u0e07\u0e17\u0e35\u0e48 2 (Double Filter)","\u0e01\u0e23\u0e2d\u0e07\u0e17\u0e35\u0e48 3 (Double Filter)","\u0e01\u0e23\u0e2d\u0e07\u0e17\u0e35\u0e48 4 (Extractor)","\u0e01\u0e23\u0e2d\u0e07\u0e17\u0e35\u0e48 5 (Purified Filter)"],"part_notification_id":[1682,1683,1684,1685],"product_part_id":[2,3,4,5],"remind_type":["timely    ","timely    ","timely    ","timely    "],"timely_date":["2020-07-26","2020-07-26","2020-07-26","2020-07-26"],"CustID":"f56ceaa93c9f0736"}}
2020-07-26 09:00:02 data : {"0":{"token":"cb419312-3b0e-4a5f-83f9-c4ecba4e9548","part_notification":["\u0e01\u0e23\u0e2d\u0e07\u0e17\u0e35\u0e48 2 (Double Filter)","\u0e01\u0e23\u0e2d\u0e07\u0e17\u0e35\u0e48 3 (Double Filter)","\u0e01\u0e23\u0e2d\u0e07\u0e17\u0e35\u0e48 4 (Extractor)","\u0e01\u0e23\u0e2d\u0e07\u0e17\u0e35\u0e48 5 (Purified Filter)"],"part_notification_id":[1577,1578,1579,1580],"product_part_id":[2,3,4,5],"remind_type":["lately    ","lately    ","lately    ","lately    "],"timely_date":["2020-07-11","2020-07-11","2020-07-11","2020-07-11"],"CustID":"675245cf0051dffb"},"4":{"token":"830855ec-b133-4606-b688-232fc3a0b16b","part_notification":["\u0e01\u0e23\u0e2d\u0e07\u0e17\u0e35\u0e48 2 (Double Filter)","\u0e01\u0e23\u0e2d\u0e07\u0e17\u0e35\u0e48 3 (Double Filter)","\u0e01\u0e23\u0e2d\u0e07\u0e17\u0e35\u0e48 4 (Extractor)","\u0e01\u0e23\u0e2d\u0e07\u0e17\u0e35\u0e48 5 (Purified Filter)"],"part_notification_id":[1682,1683,1684,1685],"product_part_id":[2,3,4,5],"remind_type":["timely    ","timely    ","timely    ","timely    "],"timely_date":["2020-07-26","2020-07-26","2020-07-26","2020-07-26"],"CustID":"f56ceaa93c9f0736"}}
