2019-12-02 08:00:01 data : [{"token":"b1509578-5778-4c33-bee5-de8c19d069fc","part_notification":["\u0e01\u0e23\u0e2d\u0e07\u0e17\u0e35\u0e48 1 (First Filter)"],"part_notification_id":[3390],"product_part_id":[1],"remind_type":["lately    "],"timely_date":["2019-11-17"],"CustID":"ed236e763f2c6e1d"},{"token":"58742853-3186-4af2-b806-dc70b90393fb","part_notification":["\u0e01\u0e23\u0e2d\u0e07\u0e17\u0e35\u0e48 1 (First Filter)"],"part_notification_id":[3444],"product_part_id":[1],"remind_type":["timely    "],"timely_date":["2019-12-02"],"CustID":"421a9cb50a8c4ca8"},{"token":"3c95b3fb-c601-4979-9ee9-e65c870663ab","part_notification":["\u0e01\u0e23\u0e2d\u0e07\u0e17\u0e35\u0e48 1 (First Filter)"],"part_notification_id":[3459],"product_part_id":[6],"remind_type":["early     "],"timely_date":["2019-12-05"],"CustID":"4613c5d8756a7961"},{"token":"44f43ff8-07eb-4064-a74a-401c9c4e21b1","part_notification":["\u0e01\u0e23\u0e2d\u0e07\u0e17\u0e35\u0e48 1 (First Filter)"],"part_notification_id":[3478],"product_part_id":[1],"remind_type":["early     "],"timely_date":["2019-12-02"],"CustID":"dc95ac86bd841f36"}]
2019-12-02 08:00:01 data : [{"token":"b1509578-5778-4c33-bee5-de8c19d069fc","part_notification":["\u0e01\u0e23\u0e2d\u0e07\u0e17\u0e35\u0e48 1 (First Filter)"],"part_notification_id":[3390],"product_part_id":[1],"remind_type":["lately    "],"timely_date":["2019-11-17"],"CustID":"ed236e763f2c6e1d"},{"token":"58742853-3186-4af2-b806-dc70b90393fb","part_notification":["\u0e01\u0e23\u0e2d\u0e07\u0e17\u0e35\u0e48 1 (First Filter)"],"part_notification_id":[3444],"product_part_id":[1],"remind_type":["timely    "],"timely_date":["2019-12-02"],"CustID":"421a9cb50a8c4ca8"},{"token":"3c95b3fb-c601-4979-9ee9-e65c870663ab","part_notification":["\u0e01\u0e23\u0e2d\u0e07\u0e17\u0e35\u0e48 1 (First Filter)"],"part_notification_id":[3459],"product_part_id":[6],"remind_type":["early     "],"timely_date":["2019-12-05"],"CustID":"4613c5d8756a7961"},{"token":"44f43ff8-07eb-4064-a74a-401c9c4e21b1","part_notification":["\u0e01\u0e23\u0e2d\u0e07\u0e17\u0e35\u0e48 1 (First Filter)"],"part_notification_id":[3478],"product_part_id":[1],"remind_type":["early     "],"timely_date":["2019-12-02"],"CustID":"dc95ac86bd841f36"}]
2019-12-02 08:00:01 data : [{"token":"b1509578-5778-4c33-bee5-de8c19d069fc","part_notification":["\u0e01\u0e23\u0e2d\u0e07\u0e17\u0e35\u0e48 1 (First Filter)"],"part_notification_id":[3390],"product_part_id":[1],"remind_type":["lately    "],"timely_date":["2019-11-17"],"CustID":"ed236e763f2c6e1d"},{"token":"58742853-3186-4af2-b806-dc70b90393fb","part_notification":["\u0e01\u0e23\u0e2d\u0e07\u0e17\u0e35\u0e48 1 (First Filter)"],"part_notification_id":[3444],"product_part_id":[1],"remind_type":["timely    "],"timely_date":["2019-12-02"],"CustID":"421a9cb50a8c4ca8"},{"token":"3c95b3fb-c601-4979-9ee9-e65c870663ab","part_notification":["\u0e01\u0e23\u0e2d\u0e07\u0e17\u0e35\u0e48 1 (First Filter)"],"part_notification_id":[3459],"product_part_id":[6],"remind_type":["early     "],"timely_date":["2019-12-05"],"CustID":"4613c5d8756a7961"},{"token":"44f43ff8-07eb-4064-a74a-401c9c4e21b1","part_notification":["\u0e01\u0e23\u0e2d\u0e07\u0e17\u0e35\u0e48 1 (First Filter)"],"part_notification_id":[3478],"product_part_id":[1],"remind_type":["early     "],"timely_date":["2019-12-02"],"CustID":"dc95ac86bd841f36"}]
