2020-04-07 08:00:01 data : {"0":{"token":"26b19db0-aba2-4756-8a2e-c008c0046056","part_notification":["\u0e01\u0e23\u0e2d\u0e07\u0e17\u0e35\u0e48 2 (Double Filter)","\u0e01\u0e23\u0e2d\u0e07\u0e17\u0e35\u0e48 3 (Double Filter)","\u0e01\u0e23\u0e2d\u0e07\u0e17\u0e35\u0e48 4 (Extractor)","\u0e01\u0e23\u0e2d\u0e07\u0e17\u0e35\u0e48 5 (Purified Filter)"],"part_notification_id":[262,263,264,265],"product_part_id":[2,3,4,5],"remind_type":["timely    ","timely    ","timely    ","timely    "],"timely_date":["2020-04-07","2020-04-07","2020-04-07","2020-04-07"],"CustID":"5b3b573be4443cd6"},"4":{"token":"fc25424b-4f4f-40ef-9a70-623dbaf73224","part_notification":["\u0e01\u0e23\u0e2d\u0e07\u0e17\u0e35\u0e48 1 (First Filter)"],"part_notification_id":[4071],"product_part_id":[6],"remind_type":["early     "],"timely_date":["2020-04-10"],"CustID":"85a58702ac708f4c"},"5":{"token":"d39214e8-aa94-4336-8153-6d05305e2851","part_notification":["\u0e01\u0e23\u0e2d\u0e07\u0e17\u0e35\u0e48 1 (First Filter)"],"part_notification_id":[4075],"product_part_id":[1],"remind_type":["early     "],"timely_date":["2020-04-10"],"CustID":"f39bd47af35c8180"}}
2020-04-07 08:00:01 data : {"0":{"token":"26b19db0-aba2-4756-8a2e-c008c0046056","part_notification":["\u0e01\u0e23\u0e2d\u0e07\u0e17\u0e35\u0e48 2 (Double Filter)","\u0e01\u0e23\u0e2d\u0e07\u0e17\u0e35\u0e48 3 (Double Filter)","\u0e01\u0e23\u0e2d\u0e07\u0e17\u0e35\u0e48 4 (Extractor)","\u0e01\u0e23\u0e2d\u0e07\u0e17\u0e35\u0e48 5 (Purified Filter)"],"part_notification_id":[262,263,264,265],"product_part_id":[2,3,4,5],"remind_type":["timely    ","timely    ","timely    ","timely    "],"timely_date":["2020-04-07","2020-04-07","2020-04-07","2020-04-07"],"CustID":"5b3b573be4443cd6"},"4":{"token":"fc25424b-4f4f-40ef-9a70-623dbaf73224","part_notification":["\u0e01\u0e23\u0e2d\u0e07\u0e17\u0e35\u0e48 1 (First Filter)"],"part_notification_id":[4071],"product_part_id":[6],"remind_type":["early     "],"timely_date":["2020-04-10"],"CustID":"85a58702ac708f4c"},"5":{"token":"d39214e8-aa94-4336-8153-6d05305e2851","part_notification":["\u0e01\u0e23\u0e2d\u0e07\u0e17\u0e35\u0e48 1 (First Filter)"],"part_notification_id":[4075],"product_part_id":[1],"remind_type":["early     "],"timely_date":["2020-04-10"],"CustID":"f39bd47af35c8180"}}
2020-04-07 08:00:01 data : {"0":{"token":"26b19db0-aba2-4756-8a2e-c008c0046056","part_notification":["\u0e01\u0e23\u0e2d\u0e07\u0e17\u0e35\u0e48 2 (Double Filter)","\u0e01\u0e23\u0e2d\u0e07\u0e17\u0e35\u0e48 3 (Double Filter)","\u0e01\u0e23\u0e2d\u0e07\u0e17\u0e35\u0e48 4 (Extractor)","\u0e01\u0e23\u0e2d\u0e07\u0e17\u0e35\u0e48 5 (Purified Filter)"],"part_notification_id":[262,263,264,265],"product_part_id":[2,3,4,5],"remind_type":["timely    ","timely    ","timely    ","timely    "],"timely_date":["2020-04-07","2020-04-07","2020-04-07","2020-04-07"],"CustID":"5b3b573be4443cd6"},"4":{"token":"fc25424b-4f4f-40ef-9a70-623dbaf73224","part_notification":["\u0e01\u0e23\u0e2d\u0e07\u0e17\u0e35\u0e48 1 (First Filter)"],"part_notification_id":[4071],"product_part_id":[6],"remind_type":["early     "],"timely_date":["2020-04-10"],"CustID":"85a58702ac708f4c"},"5":{"token":"d39214e8-aa94-4336-8153-6d05305e2851","part_notification":["\u0e01\u0e23\u0e2d\u0e07\u0e17\u0e35\u0e48 1 (First Filter)"],"part_notification_id":[4075],"product_part_id":[1],"remind_type":["early     "],"timely_date":["2020-04-10"],"CustID":"f39bd47af35c8180"}}
2020-04-07 08:00:01 data : {"0":{"token":"26b19db0-aba2-4756-8a2e-c008c0046056","part_notification":["\u0e01\u0e23\u0e2d\u0e07\u0e17\u0e35\u0e48 2 (Double Filter)","\u0e01\u0e23\u0e2d\u0e07\u0e17\u0e35\u0e48 3 (Double Filter)","\u0e01\u0e23\u0e2d\u0e07\u0e17\u0e35\u0e48 4 (Extractor)","\u0e01\u0e23\u0e2d\u0e07\u0e17\u0e35\u0e48 5 (Purified Filter)"],"part_notification_id":[262,263,264,265],"product_part_id":[2,3,4,5],"remind_type":["timely    ","timely    ","timely    ","timely    "],"timely_date":["2020-04-07","2020-04-07","2020-04-07","2020-04-07"],"CustID":"5b3b573be4443cd6"},"4":{"token":"fc25424b-4f4f-40ef-9a70-623dbaf73224","part_notification":["\u0e01\u0e23\u0e2d\u0e07\u0e17\u0e35\u0e48 1 (First Filter)"],"part_notification_id":[4071],"product_part_id":[6],"remind_type":["early     "],"timely_date":["2020-04-10"],"CustID":"85a58702ac708f4c"},"5":{"token":"d39214e8-aa94-4336-8153-6d05305e2851","part_notification":["\u0e01\u0e23\u0e2d\u0e07\u0e17\u0e35\u0e48 1 (First Filter)"],"part_notification_id":[4075],"product_part_id":[1],"remind_type":["early     "],"timely_date":["2020-04-10"],"CustID":"f39bd47af35c8180"}}
2020-04-07 08:00:01 data : {"0":{"token":"26b19db0-aba2-4756-8a2e-c008c0046056","part_notification":["\u0e01\u0e23\u0e2d\u0e07\u0e17\u0e35\u0e48 2 (Double Filter)","\u0e01\u0e23\u0e2d\u0e07\u0e17\u0e35\u0e48 3 (Double Filter)","\u0e01\u0e23\u0e2d\u0e07\u0e17\u0e35\u0e48 4 (Extractor)","\u0e01\u0e23\u0e2d\u0e07\u0e17\u0e35\u0e48 5 (Purified Filter)"],"part_notification_id":[262,263,264,265],"product_part_id":[2,3,4,5],"remind_type":["timely    ","timely    ","timely    ","timely    "],"timely_date":["2020-04-07","2020-04-07","2020-04-07","2020-04-07"],"CustID":"5b3b573be4443cd6"},"4":{"token":"fc25424b-4f4f-40ef-9a70-623dbaf73224","part_notification":["\u0e01\u0e23\u0e2d\u0e07\u0e17\u0e35\u0e48 1 (First Filter)"],"part_notification_id":[4071],"product_part_id":[6],"remind_type":["early     "],"timely_date":["2020-04-10"],"CustID":"85a58702ac708f4c"},"5":{"token":"d39214e8-aa94-4336-8153-6d05305e2851","part_notification":["\u0e01\u0e23\u0e2d\u0e07\u0e17\u0e35\u0e48 1 (First Filter)"],"part_notification_id":[4075],"product_part_id":[1],"remind_type":["early     "],"timely_date":["2020-04-10"],"CustID":"f39bd47af35c8180"}}
2020-04-07 08:00:01 data : {"0":{"token":"26b19db0-aba2-4756-8a2e-c008c0046056","part_notification":["\u0e01\u0e23\u0e2d\u0e07\u0e17\u0e35\u0e48 2 (Double Filter)","\u0e01\u0e23\u0e2d\u0e07\u0e17\u0e35\u0e48 3 (Double Filter)","\u0e01\u0e23\u0e2d\u0e07\u0e17\u0e35\u0e48 4 (Extractor)","\u0e01\u0e23\u0e2d\u0e07\u0e17\u0e35\u0e48 5 (Purified Filter)"],"part_notification_id":[262,263,264,265],"product_part_id":[2,3,4,5],"remind_type":["timely    ","timely    ","timely    ","timely    "],"timely_date":["2020-04-07","2020-04-07","2020-04-07","2020-04-07"],"CustID":"5b3b573be4443cd6"},"4":{"token":"fc25424b-4f4f-40ef-9a70-623dbaf73224","part_notification":["\u0e01\u0e23\u0e2d\u0e07\u0e17\u0e35\u0e48 1 (First Filter)"],"part_notification_id":[4071],"product_part_id":[6],"remind_type":["early     "],"timely_date":["2020-04-10"],"CustID":"85a58702ac708f4c"},"5":{"token":"d39214e8-aa94-4336-8153-6d05305e2851","part_notification":["\u0e01\u0e23\u0e2d\u0e07\u0e17\u0e35\u0e48 1 (First Filter)"],"part_notification_id":[4075],"product_part_id":[1],"remind_type":["early     "],"timely_date":["2020-04-10"],"CustID":"f39bd47af35c8180"}}
