2020-08-13 08:00:02 data : {"0":{"token":"1eebe851-cbaf-4ada-b1eb-ee29a7b2a94d","part_notification":["\u0e01\u0e23\u0e2d\u0e07\u0e17\u0e35\u0e48 2 (Double Filter)","\u0e01\u0e23\u0e2d\u0e07\u0e17\u0e35\u0e48 3 (Double Filter)","\u0e01\u0e23\u0e2d\u0e07\u0e17\u0e35\u0e48 4 (Extractor)","\u0e01\u0e23\u0e2d\u0e07\u0e17\u0e35\u0e48 5 (Purified Filter)"],"part_notification_id":[1832,1833,1834,1835],"product_part_id":[2,3,4,5],"remind_type":["early     ","early     ","early     ","early     "],"timely_date":["2020-08-16","2020-08-16","2020-08-16","2020-08-16"],"CustID":"dda5a3531dfcad43"},"4":{"token":null,"part_notification":["\u0e01\u0e23\u0e2d\u0e07\u0e17\u0e35\u0e48 1 (First Filter)"],"part_notification_id":[3061],"product_part_id":[1],"remind_type":["early     "],"timely_date":["2020-08-13"],"CustID":"fe85dbba76112afd"},"5":{"token":"cb4b9e18-4d52-4800-b860-99a029374fb5","part_notification":["\u0e01\u0e23\u0e2d\u0e07\u0e17\u0e35\u0e48 1 (First Filter)"],"part_notification_id":[4717],"product_part_id":[6],"remind_type":["timely    "],"timely_date":["2020-08-13"],"CustID":"4dc6300a0312640e"},"6":{"token":"6e59e5f2-8f58-4175-ad30-3874a393fa33","part_notification":["\u0e01\u0e23\u0e2d\u0e07\u0e17\u0e35\u0e48 1 (First Filter)"],"part_notification_id":[4721],"product_part_id":[6],"remind_type":["timely    "],"timely_date":["2020-08-13"],"CustID":"8eba409a746be596"}}
2020-08-13 08:00:02 data : {"0":{"token":"1eebe851-cbaf-4ada-b1eb-ee29a7b2a94d","part_notification":["\u0e01\u0e23\u0e2d\u0e07\u0e17\u0e35\u0e48 2 (Double Filter)","\u0e01\u0e23\u0e2d\u0e07\u0e17\u0e35\u0e48 3 (Double Filter)","\u0e01\u0e23\u0e2d\u0e07\u0e17\u0e35\u0e48 4 (Extractor)","\u0e01\u0e23\u0e2d\u0e07\u0e17\u0e35\u0e48 5 (Purified Filter)"],"part_notification_id":[1832,1833,1834,1835],"product_part_id":[2,3,4,5],"remind_type":["early     ","early     ","early     ","early     "],"timely_date":["2020-08-16","2020-08-16","2020-08-16","2020-08-16"],"CustID":"dda5a3531dfcad43"},"4":{"token":null,"part_notification":["\u0e01\u0e23\u0e2d\u0e07\u0e17\u0e35\u0e48 1 (First Filter)"],"part_notification_id":[3061],"product_part_id":[1],"remind_type":["early     "],"timely_date":["2020-08-13"],"CustID":"fe85dbba76112afd"},"5":{"token":"cb4b9e18-4d52-4800-b860-99a029374fb5","part_notification":["\u0e01\u0e23\u0e2d\u0e07\u0e17\u0e35\u0e48 1 (First Filter)"],"part_notification_id":[4717],"product_part_id":[6],"remind_type":["timely    "],"timely_date":["2020-08-13"],"CustID":"4dc6300a0312640e"},"6":{"token":"6e59e5f2-8f58-4175-ad30-3874a393fa33","part_notification":["\u0e01\u0e23\u0e2d\u0e07\u0e17\u0e35\u0e48 1 (First Filter)"],"part_notification_id":[4721],"product_part_id":[6],"remind_type":["timely    "],"timely_date":["2020-08-13"],"CustID":"8eba409a746be596"}}
2020-08-13 08:00:02 data : {"0":{"token":"1eebe851-cbaf-4ada-b1eb-ee29a7b2a94d","part_notification":["\u0e01\u0e23\u0e2d\u0e07\u0e17\u0e35\u0e48 2 (Double Filter)","\u0e01\u0e23\u0e2d\u0e07\u0e17\u0e35\u0e48 3 (Double Filter)","\u0e01\u0e23\u0e2d\u0e07\u0e17\u0e35\u0e48 4 (Extractor)","\u0e01\u0e23\u0e2d\u0e07\u0e17\u0e35\u0e48 5 (Purified Filter)"],"part_notification_id":[1832,1833,1834,1835],"product_part_id":[2,3,4,5],"remind_type":["early     ","early     ","early     ","early     "],"timely_date":["2020-08-16","2020-08-16","2020-08-16","2020-08-16"],"CustID":"dda5a3531dfcad43"},"4":{"token":null,"part_notification":["\u0e01\u0e23\u0e2d\u0e07\u0e17\u0e35\u0e48 1 (First Filter)"],"part_notification_id":[3061],"product_part_id":[1],"remind_type":["early     "],"timely_date":["2020-08-13"],"CustID":"fe85dbba76112afd"},"5":{"token":"cb4b9e18-4d52-4800-b860-99a029374fb5","part_notification":["\u0e01\u0e23\u0e2d\u0e07\u0e17\u0e35\u0e48 1 (First Filter)"],"part_notification_id":[4717],"product_part_id":[6],"remind_type":["timely    "],"timely_date":["2020-08-13"],"CustID":"4dc6300a0312640e"},"6":{"token":"6e59e5f2-8f58-4175-ad30-3874a393fa33","part_notification":["\u0e01\u0e23\u0e2d\u0e07\u0e17\u0e35\u0e48 1 (First Filter)"],"part_notification_id":[4721],"product_part_id":[6],"remind_type":["timely    "],"timely_date":["2020-08-13"],"CustID":"8eba409a746be596"}}
2020-08-13 08:00:02 data : {"0":{"token":"1eebe851-cbaf-4ada-b1eb-ee29a7b2a94d","part_notification":["\u0e01\u0e23\u0e2d\u0e07\u0e17\u0e35\u0e48 2 (Double Filter)","\u0e01\u0e23\u0e2d\u0e07\u0e17\u0e35\u0e48 3 (Double Filter)","\u0e01\u0e23\u0e2d\u0e07\u0e17\u0e35\u0e48 4 (Extractor)","\u0e01\u0e23\u0e2d\u0e07\u0e17\u0e35\u0e48 5 (Purified Filter)"],"part_notification_id":[1832,1833,1834,1835],"product_part_id":[2,3,4,5],"remind_type":["early     ","early     ","early     ","early     "],"timely_date":["2020-08-16","2020-08-16","2020-08-16","2020-08-16"],"CustID":"dda5a3531dfcad43"},"4":{"token":null,"part_notification":["\u0e01\u0e23\u0e2d\u0e07\u0e17\u0e35\u0e48 1 (First Filter)"],"part_notification_id":[3061],"product_part_id":[1],"remind_type":["early     "],"timely_date":["2020-08-13"],"CustID":"fe85dbba76112afd"},"5":{"token":"cb4b9e18-4d52-4800-b860-99a029374fb5","part_notification":["\u0e01\u0e23\u0e2d\u0e07\u0e17\u0e35\u0e48 1 (First Filter)"],"part_notification_id":[4717],"product_part_id":[6],"remind_type":["timely    "],"timely_date":["2020-08-13"],"CustID":"4dc6300a0312640e"},"6":{"token":"6e59e5f2-8f58-4175-ad30-3874a393fa33","part_notification":["\u0e01\u0e23\u0e2d\u0e07\u0e17\u0e35\u0e48 1 (First Filter)"],"part_notification_id":[4721],"product_part_id":[6],"remind_type":["timely    "],"timely_date":["2020-08-13"],"CustID":"8eba409a746be596"}}
2020-08-13 08:00:02 data : {"0":{"token":"1eebe851-cbaf-4ada-b1eb-ee29a7b2a94d","part_notification":["\u0e01\u0e23\u0e2d\u0e07\u0e17\u0e35\u0e48 2 (Double Filter)","\u0e01\u0e23\u0e2d\u0e07\u0e17\u0e35\u0e48 3 (Double Filter)","\u0e01\u0e23\u0e2d\u0e07\u0e17\u0e35\u0e48 4 (Extractor)","\u0e01\u0e23\u0e2d\u0e07\u0e17\u0e35\u0e48 5 (Purified Filter)"],"part_notification_id":[1832,1833,1834,1835],"product_part_id":[2,3,4,5],"remind_type":["early     ","early     ","early     ","early     "],"timely_date":["2020-08-16","2020-08-16","2020-08-16","2020-08-16"],"CustID":"dda5a3531dfcad43"},"4":{"token":null,"part_notification":["\u0e01\u0e23\u0e2d\u0e07\u0e17\u0e35\u0e48 1 (First Filter)"],"part_notification_id":[3061],"product_part_id":[1],"remind_type":["early     "],"timely_date":["2020-08-13"],"CustID":"fe85dbba76112afd"},"5":{"token":"cb4b9e18-4d52-4800-b860-99a029374fb5","part_notification":["\u0e01\u0e23\u0e2d\u0e07\u0e17\u0e35\u0e48 1 (First Filter)"],"part_notification_id":[4717],"product_part_id":[6],"remind_type":["timely    "],"timely_date":["2020-08-13"],"CustID":"4dc6300a0312640e"},"6":{"token":"6e59e5f2-8f58-4175-ad30-3874a393fa33","part_notification":["\u0e01\u0e23\u0e2d\u0e07\u0e17\u0e35\u0e48 1 (First Filter)"],"part_notification_id":[4721],"product_part_id":[6],"remind_type":["timely    "],"timely_date":["2020-08-13"],"CustID":"8eba409a746be596"}}
2020-08-13 08:00:02 data : {"0":{"token":"1eebe851-cbaf-4ada-b1eb-ee29a7b2a94d","part_notification":["\u0e01\u0e23\u0e2d\u0e07\u0e17\u0e35\u0e48 2 (Double Filter)","\u0e01\u0e23\u0e2d\u0e07\u0e17\u0e35\u0e48 3 (Double Filter)","\u0e01\u0e23\u0e2d\u0e07\u0e17\u0e35\u0e48 4 (Extractor)","\u0e01\u0e23\u0e2d\u0e07\u0e17\u0e35\u0e48 5 (Purified Filter)"],"part_notification_id":[1832,1833,1834,1835],"product_part_id":[2,3,4,5],"remind_type":["early     ","early     ","early     ","early     "],"timely_date":["2020-08-16","2020-08-16","2020-08-16","2020-08-16"],"CustID":"dda5a3531dfcad43"},"4":{"token":null,"part_notification":["\u0e01\u0e23\u0e2d\u0e07\u0e17\u0e35\u0e48 1 (First Filter)"],"part_notification_id":[3061],"product_part_id":[1],"remind_type":["early     "],"timely_date":["2020-08-13"],"CustID":"fe85dbba76112afd"},"5":{"token":"cb4b9e18-4d52-4800-b860-99a029374fb5","part_notification":["\u0e01\u0e23\u0e2d\u0e07\u0e17\u0e35\u0e48 1 (First Filter)"],"part_notification_id":[4717],"product_part_id":[6],"remind_type":["timely    "],"timely_date":["2020-08-13"],"CustID":"4dc6300a0312640e"},"6":{"token":"6e59e5f2-8f58-4175-ad30-3874a393fa33","part_notification":["\u0e01\u0e23\u0e2d\u0e07\u0e17\u0e35\u0e48 1 (First Filter)"],"part_notification_id":[4721],"product_part_id":[6],"remind_type":["timely    "],"timely_date":["2020-08-13"],"CustID":"8eba409a746be596"}}
2020-08-13 08:00:02 data : {"0":{"token":"1eebe851-cbaf-4ada-b1eb-ee29a7b2a94d","part_notification":["\u0e01\u0e23\u0e2d\u0e07\u0e17\u0e35\u0e48 2 (Double Filter)","\u0e01\u0e23\u0e2d\u0e07\u0e17\u0e35\u0e48 3 (Double Filter)","\u0e01\u0e23\u0e2d\u0e07\u0e17\u0e35\u0e48 4 (Extractor)","\u0e01\u0e23\u0e2d\u0e07\u0e17\u0e35\u0e48 5 (Purified Filter)"],"part_notification_id":[1832,1833,1834,1835],"product_part_id":[2,3,4,5],"remind_type":["early     ","early     ","early     ","early     "],"timely_date":["2020-08-16","2020-08-16","2020-08-16","2020-08-16"],"CustID":"dda5a3531dfcad43"},"4":{"token":null,"part_notification":["\u0e01\u0e23\u0e2d\u0e07\u0e17\u0e35\u0e48 1 (First Filter)"],"part_notification_id":[3061],"product_part_id":[1],"remind_type":["early     "],"timely_date":["2020-08-13"],"CustID":"fe85dbba76112afd"},"5":{"token":"cb4b9e18-4d52-4800-b860-99a029374fb5","part_notification":["\u0e01\u0e23\u0e2d\u0e07\u0e17\u0e35\u0e48 1 (First Filter)"],"part_notification_id":[4717],"product_part_id":[6],"remind_type":["timely    "],"timely_date":["2020-08-13"],"CustID":"4dc6300a0312640e"},"6":{"token":"6e59e5f2-8f58-4175-ad30-3874a393fa33","part_notification":["\u0e01\u0e23\u0e2d\u0e07\u0e17\u0e35\u0e48 1 (First Filter)"],"part_notification_id":[4721],"product_part_id":[6],"remind_type":["timely    "],"timely_date":["2020-08-13"],"CustID":"8eba409a746be596"}}
