2020-10-06 09:00:01 data : {"0":{"token":"bf4ffb94-ce0b-4554-b47a-33bd7998e3eb","part_notification":["\u0e01\u0e23\u0e2d\u0e07\u0e17\u0e35\u0e48 2 (Double Filter)","\u0e01\u0e23\u0e2d\u0e07\u0e17\u0e35\u0e48 3 (Double Filter)","\u0e01\u0e23\u0e2d\u0e07\u0e17\u0e35\u0e48 4 (Extractor)","\u0e01\u0e23\u0e2d\u0e07\u0e17\u0e35\u0e48 5 (Purified Filter)","\u0e01\u0e23\u0e2d\u0e07\u0e17\u0e35\u0e48 2 (Double Filter)","\u0e01\u0e23\u0e2d\u0e07\u0e17\u0e35\u0e48 3 (Double Filter)","\u0e01\u0e23\u0e2d\u0e07\u0e17\u0e35\u0e48 4 (Extractor)","\u0e01\u0e23\u0e2d\u0e07\u0e17\u0e35\u0e48 5 (Purified Filter)"],"part_notification_id":[2307,2308,2309,2310,2312,2313,2314,2315],"product_part_id":[2,3,4,5,2,3,4,5],"remind_type":["timely    ","timely    ","timely    ","timely    ","timely    ","timely    ","timely    ","timely    "],"timely_date":["2020-10-06","2020-10-06","2020-10-06","2020-10-06","2020-10-06","2020-10-06","2020-10-06","2020-10-06"],"CustID":"811fefa482ba3b34"},"8":{"token":"c4f95e5a-e78d-4992-ba6d-d264c8a01a66","part_notification":["\u0e01\u0e23\u0e2d\u0e07\u0e17\u0e35\u0e48 1 (First Filter)"],"part_notification_id":[2411],"product_part_id":[1],"remind_type":["timely    "],"timely_date":["2020-10-06"],"CustID":"81cc08a45ce40798"}}
2020-10-06 09:00:01 data : {"0":{"token":"bf4ffb94-ce0b-4554-b47a-33bd7998e3eb","part_notification":["\u0e01\u0e23\u0e2d\u0e07\u0e17\u0e35\u0e48 2 (Double Filter)","\u0e01\u0e23\u0e2d\u0e07\u0e17\u0e35\u0e48 3 (Double Filter)","\u0e01\u0e23\u0e2d\u0e07\u0e17\u0e35\u0e48 4 (Extractor)","\u0e01\u0e23\u0e2d\u0e07\u0e17\u0e35\u0e48 5 (Purified Filter)","\u0e01\u0e23\u0e2d\u0e07\u0e17\u0e35\u0e48 2 (Double Filter)","\u0e01\u0e23\u0e2d\u0e07\u0e17\u0e35\u0e48 3 (Double Filter)","\u0e01\u0e23\u0e2d\u0e07\u0e17\u0e35\u0e48 4 (Extractor)","\u0e01\u0e23\u0e2d\u0e07\u0e17\u0e35\u0e48 5 (Purified Filter)"],"part_notification_id":[2307,2308,2309,2310,2312,2313,2314,2315],"product_part_id":[2,3,4,5,2,3,4,5],"remind_type":["timely    ","timely    ","timely    ","timely    ","timely    ","timely    ","timely    ","timely    "],"timely_date":["2020-10-06","2020-10-06","2020-10-06","2020-10-06","2020-10-06","2020-10-06","2020-10-06","2020-10-06"],"CustID":"811fefa482ba3b34"},"8":{"token":"c4f95e5a-e78d-4992-ba6d-d264c8a01a66","part_notification":["\u0e01\u0e23\u0e2d\u0e07\u0e17\u0e35\u0e48 1 (First Filter)"],"part_notification_id":[2411],"product_part_id":[1],"remind_type":["timely    "],"timely_date":["2020-10-06"],"CustID":"81cc08a45ce40798"}}
2020-10-06 09:00:01 data : {"0":{"token":"bf4ffb94-ce0b-4554-b47a-33bd7998e3eb","part_notification":["\u0e01\u0e23\u0e2d\u0e07\u0e17\u0e35\u0e48 2 (Double Filter)","\u0e01\u0e23\u0e2d\u0e07\u0e17\u0e35\u0e48 3 (Double Filter)","\u0e01\u0e23\u0e2d\u0e07\u0e17\u0e35\u0e48 4 (Extractor)","\u0e01\u0e23\u0e2d\u0e07\u0e17\u0e35\u0e48 5 (Purified Filter)","\u0e01\u0e23\u0e2d\u0e07\u0e17\u0e35\u0e48 2 (Double Filter)","\u0e01\u0e23\u0e2d\u0e07\u0e17\u0e35\u0e48 3 (Double Filter)","\u0e01\u0e23\u0e2d\u0e07\u0e17\u0e35\u0e48 4 (Extractor)","\u0e01\u0e23\u0e2d\u0e07\u0e17\u0e35\u0e48 5 (Purified Filter)"],"part_notification_id":[2307,2308,2309,2310,2312,2313,2314,2315],"product_part_id":[2,3,4,5,2,3,4,5],"remind_type":["timely    ","timely    ","timely    ","timely    ","timely    ","timely    ","timely    ","timely    "],"timely_date":["2020-10-06","2020-10-06","2020-10-06","2020-10-06","2020-10-06","2020-10-06","2020-10-06","2020-10-06"],"CustID":"811fefa482ba3b34"},"8":{"token":"c4f95e5a-e78d-4992-ba6d-d264c8a01a66","part_notification":["\u0e01\u0e23\u0e2d\u0e07\u0e17\u0e35\u0e48 1 (First Filter)"],"part_notification_id":[2411],"product_part_id":[1],"remind_type":["timely    "],"timely_date":["2020-10-06"],"CustID":"81cc08a45ce40798"}}
2020-10-06 09:00:01 data : {"0":{"token":"bf4ffb94-ce0b-4554-b47a-33bd7998e3eb","part_notification":["\u0e01\u0e23\u0e2d\u0e07\u0e17\u0e35\u0e48 2 (Double Filter)","\u0e01\u0e23\u0e2d\u0e07\u0e17\u0e35\u0e48 3 (Double Filter)","\u0e01\u0e23\u0e2d\u0e07\u0e17\u0e35\u0e48 4 (Extractor)","\u0e01\u0e23\u0e2d\u0e07\u0e17\u0e35\u0e48 5 (Purified Filter)","\u0e01\u0e23\u0e2d\u0e07\u0e17\u0e35\u0e48 2 (Double Filter)","\u0e01\u0e23\u0e2d\u0e07\u0e17\u0e35\u0e48 3 (Double Filter)","\u0e01\u0e23\u0e2d\u0e07\u0e17\u0e35\u0e48 4 (Extractor)","\u0e01\u0e23\u0e2d\u0e07\u0e17\u0e35\u0e48 5 (Purified Filter)"],"part_notification_id":[2307,2308,2309,2310,2312,2313,2314,2315],"product_part_id":[2,3,4,5,2,3,4,5],"remind_type":["timely    ","timely    ","timely    ","timely    ","timely    ","timely    ","timely    ","timely    "],"timely_date":["2020-10-06","2020-10-06","2020-10-06","2020-10-06","2020-10-06","2020-10-06","2020-10-06","2020-10-06"],"CustID":"811fefa482ba3b34"},"8":{"token":"c4f95e5a-e78d-4992-ba6d-d264c8a01a66","part_notification":["\u0e01\u0e23\u0e2d\u0e07\u0e17\u0e35\u0e48 1 (First Filter)"],"part_notification_id":[2411],"product_part_id":[1],"remind_type":["timely    "],"timely_date":["2020-10-06"],"CustID":"81cc08a45ce40798"}}
2020-10-06 09:00:01 data : {"0":{"token":"bf4ffb94-ce0b-4554-b47a-33bd7998e3eb","part_notification":["\u0e01\u0e23\u0e2d\u0e07\u0e17\u0e35\u0e48 2 (Double Filter)","\u0e01\u0e23\u0e2d\u0e07\u0e17\u0e35\u0e48 3 (Double Filter)","\u0e01\u0e23\u0e2d\u0e07\u0e17\u0e35\u0e48 4 (Extractor)","\u0e01\u0e23\u0e2d\u0e07\u0e17\u0e35\u0e48 5 (Purified Filter)","\u0e01\u0e23\u0e2d\u0e07\u0e17\u0e35\u0e48 2 (Double Filter)","\u0e01\u0e23\u0e2d\u0e07\u0e17\u0e35\u0e48 3 (Double Filter)","\u0e01\u0e23\u0e2d\u0e07\u0e17\u0e35\u0e48 4 (Extractor)","\u0e01\u0e23\u0e2d\u0e07\u0e17\u0e35\u0e48 5 (Purified Filter)"],"part_notification_id":[2307,2308,2309,2310,2312,2313,2314,2315],"product_part_id":[2,3,4,5,2,3,4,5],"remind_type":["timely    ","timely    ","timely    ","timely    ","timely    ","timely    ","timely    ","timely    "],"timely_date":["2020-10-06","2020-10-06","2020-10-06","2020-10-06","2020-10-06","2020-10-06","2020-10-06","2020-10-06"],"CustID":"811fefa482ba3b34"},"8":{"token":"c4f95e5a-e78d-4992-ba6d-d264c8a01a66","part_notification":["\u0e01\u0e23\u0e2d\u0e07\u0e17\u0e35\u0e48 1 (First Filter)"],"part_notification_id":[2411],"product_part_id":[1],"remind_type":["timely    "],"timely_date":["2020-10-06"],"CustID":"81cc08a45ce40798"}}
2020-10-06 09:00:01 data : {"0":{"token":"bf4ffb94-ce0b-4554-b47a-33bd7998e3eb","part_notification":["\u0e01\u0e23\u0e2d\u0e07\u0e17\u0e35\u0e48 2 (Double Filter)","\u0e01\u0e23\u0e2d\u0e07\u0e17\u0e35\u0e48 3 (Double Filter)","\u0e01\u0e23\u0e2d\u0e07\u0e17\u0e35\u0e48 4 (Extractor)","\u0e01\u0e23\u0e2d\u0e07\u0e17\u0e35\u0e48 5 (Purified Filter)","\u0e01\u0e23\u0e2d\u0e07\u0e17\u0e35\u0e48 2 (Double Filter)","\u0e01\u0e23\u0e2d\u0e07\u0e17\u0e35\u0e48 3 (Double Filter)","\u0e01\u0e23\u0e2d\u0e07\u0e17\u0e35\u0e48 4 (Extractor)","\u0e01\u0e23\u0e2d\u0e07\u0e17\u0e35\u0e48 5 (Purified Filter)"],"part_notification_id":[2307,2308,2309,2310,2312,2313,2314,2315],"product_part_id":[2,3,4,5,2,3,4,5],"remind_type":["timely    ","timely    ","timely    ","timely    ","timely    ","timely    ","timely    ","timely    "],"timely_date":["2020-10-06","2020-10-06","2020-10-06","2020-10-06","2020-10-06","2020-10-06","2020-10-06","2020-10-06"],"CustID":"811fefa482ba3b34"},"8":{"token":"c4f95e5a-e78d-4992-ba6d-d264c8a01a66","part_notification":["\u0e01\u0e23\u0e2d\u0e07\u0e17\u0e35\u0e48 1 (First Filter)"],"part_notification_id":[2411],"product_part_id":[1],"remind_type":["timely    "],"timely_date":["2020-10-06"],"CustID":"81cc08a45ce40798"}}
2020-10-06 09:00:01 data : {"0":{"token":"bf4ffb94-ce0b-4554-b47a-33bd7998e3eb","part_notification":["\u0e01\u0e23\u0e2d\u0e07\u0e17\u0e35\u0e48 2 (Double Filter)","\u0e01\u0e23\u0e2d\u0e07\u0e17\u0e35\u0e48 3 (Double Filter)","\u0e01\u0e23\u0e2d\u0e07\u0e17\u0e35\u0e48 4 (Extractor)","\u0e01\u0e23\u0e2d\u0e07\u0e17\u0e35\u0e48 5 (Purified Filter)","\u0e01\u0e23\u0e2d\u0e07\u0e17\u0e35\u0e48 2 (Double Filter)","\u0e01\u0e23\u0e2d\u0e07\u0e17\u0e35\u0e48 3 (Double Filter)","\u0e01\u0e23\u0e2d\u0e07\u0e17\u0e35\u0e48 4 (Extractor)","\u0e01\u0e23\u0e2d\u0e07\u0e17\u0e35\u0e48 5 (Purified Filter)"],"part_notification_id":[2307,2308,2309,2310,2312,2313,2314,2315],"product_part_id":[2,3,4,5,2,3,4,5],"remind_type":["timely    ","timely    ","timely    ","timely    ","timely    ","timely    ","timely    ","timely    "],"timely_date":["2020-10-06","2020-10-06","2020-10-06","2020-10-06","2020-10-06","2020-10-06","2020-10-06","2020-10-06"],"CustID":"811fefa482ba3b34"},"8":{"token":"c4f95e5a-e78d-4992-ba6d-d264c8a01a66","part_notification":["\u0e01\u0e23\u0e2d\u0e07\u0e17\u0e35\u0e48 1 (First Filter)"],"part_notification_id":[2411],"product_part_id":[1],"remind_type":["timely    "],"timely_date":["2020-10-06"],"CustID":"81cc08a45ce40798"}}
2020-10-06 09:00:01 data : {"0":{"token":"bf4ffb94-ce0b-4554-b47a-33bd7998e3eb","part_notification":["\u0e01\u0e23\u0e2d\u0e07\u0e17\u0e35\u0e48 2 (Double Filter)","\u0e01\u0e23\u0e2d\u0e07\u0e17\u0e35\u0e48 3 (Double Filter)","\u0e01\u0e23\u0e2d\u0e07\u0e17\u0e35\u0e48 4 (Extractor)","\u0e01\u0e23\u0e2d\u0e07\u0e17\u0e35\u0e48 5 (Purified Filter)","\u0e01\u0e23\u0e2d\u0e07\u0e17\u0e35\u0e48 2 (Double Filter)","\u0e01\u0e23\u0e2d\u0e07\u0e17\u0e35\u0e48 3 (Double Filter)","\u0e01\u0e23\u0e2d\u0e07\u0e17\u0e35\u0e48 4 (Extractor)","\u0e01\u0e23\u0e2d\u0e07\u0e17\u0e35\u0e48 5 (Purified Filter)"],"part_notification_id":[2307,2308,2309,2310,2312,2313,2314,2315],"product_part_id":[2,3,4,5,2,3,4,5],"remind_type":["timely    ","timely    ","timely    ","timely    ","timely    ","timely    ","timely    ","timely    "],"timely_date":["2020-10-06","2020-10-06","2020-10-06","2020-10-06","2020-10-06","2020-10-06","2020-10-06","2020-10-06"],"CustID":"811fefa482ba3b34"},"8":{"token":"c4f95e5a-e78d-4992-ba6d-d264c8a01a66","part_notification":["\u0e01\u0e23\u0e2d\u0e07\u0e17\u0e35\u0e48 1 (First Filter)"],"part_notification_id":[2411],"product_part_id":[1],"remind_type":["timely    "],"timely_date":["2020-10-06"],"CustID":"81cc08a45ce40798"}}
