2020-04-09 11:00:03 data : {"0":{"token":"3b0c4ac6-5fd7-4682-adbc-2ae9ff4c9222","part_notification":["\u0e01\u0e23\u0e2d\u0e07\u0e17\u0e35\u0e48 2 (Double Filter)","\u0e01\u0e23\u0e2d\u0e07\u0e17\u0e35\u0e48 3 (Double Filter)","\u0e01\u0e23\u0e2d\u0e07\u0e17\u0e35\u0e48 4 (Extractor)","\u0e01\u0e23\u0e2d\u0e07\u0e17\u0e35\u0e48 5 (Purified Filter)"],"part_notification_id":[307,308,309,310],"product_part_id":[2,3,4,5],"remind_type":["timely    ","timely    ","timely    ","timely    "],"timely_date":["2020-04-09","2020-04-09","2020-04-09","2020-04-09"],"CustID":"1c0c73208b07b938"},"4":{"token":"4e6e8fe0-7b14-4983-b014-171bd7af4730","part_notification":["\u0e01\u0e23\u0e2d\u0e07\u0e17\u0e35\u0e48 2 (Double Filter)","\u0e01\u0e23\u0e2d\u0e07\u0e17\u0e35\u0e48 3 (Double Filter)","\u0e01\u0e23\u0e2d\u0e07\u0e17\u0e35\u0e48 4 (Extractor)","\u0e01\u0e23\u0e2d\u0e07\u0e17\u0e35\u0e48 5 (Purified Filter)"],"part_notification_id":[397,398,399,400],"product_part_id":[2,3,4,5],"remind_type":["early     ","early     ","early     ","early     "],"timely_date":["2020-04-12","2020-04-12","2020-04-12","2020-04-12"],"CustID":"8c7a82bea72c4031"},"8":{"token":"","part_notification":["\u0e01\u0e23\u0e2d\u0e07\u0e17\u0e35\u0e48 1 (First Filter)"],"part_notification_id":[4089],"product_part_id":[1],"remind_type":["early     "],"timely_date":["2020-04-12"],"CustID":"2a9775cca7999e4f"}}
2020-04-09 11:00:03 data : {"0":{"token":"3b0c4ac6-5fd7-4682-adbc-2ae9ff4c9222","part_notification":["\u0e01\u0e23\u0e2d\u0e07\u0e17\u0e35\u0e48 2 (Double Filter)","\u0e01\u0e23\u0e2d\u0e07\u0e17\u0e35\u0e48 3 (Double Filter)","\u0e01\u0e23\u0e2d\u0e07\u0e17\u0e35\u0e48 4 (Extractor)","\u0e01\u0e23\u0e2d\u0e07\u0e17\u0e35\u0e48 5 (Purified Filter)"],"part_notification_id":[307,308,309,310],"product_part_id":[2,3,4,5],"remind_type":["timely    ","timely    ","timely    ","timely    "],"timely_date":["2020-04-09","2020-04-09","2020-04-09","2020-04-09"],"CustID":"1c0c73208b07b938"},"4":{"token":"4e6e8fe0-7b14-4983-b014-171bd7af4730","part_notification":["\u0e01\u0e23\u0e2d\u0e07\u0e17\u0e35\u0e48 2 (Double Filter)","\u0e01\u0e23\u0e2d\u0e07\u0e17\u0e35\u0e48 3 (Double Filter)","\u0e01\u0e23\u0e2d\u0e07\u0e17\u0e35\u0e48 4 (Extractor)","\u0e01\u0e23\u0e2d\u0e07\u0e17\u0e35\u0e48 5 (Purified Filter)"],"part_notification_id":[397,398,399,400],"product_part_id":[2,3,4,5],"remind_type":["early     ","early     ","early     ","early     "],"timely_date":["2020-04-12","2020-04-12","2020-04-12","2020-04-12"],"CustID":"8c7a82bea72c4031"},"8":{"token":"","part_notification":["\u0e01\u0e23\u0e2d\u0e07\u0e17\u0e35\u0e48 1 (First Filter)"],"part_notification_id":[4089],"product_part_id":[1],"remind_type":["early     "],"timely_date":["2020-04-12"],"CustID":"2a9775cca7999e4f"}}
2020-04-09 11:00:03 data : {"0":{"token":"3b0c4ac6-5fd7-4682-adbc-2ae9ff4c9222","part_notification":["\u0e01\u0e23\u0e2d\u0e07\u0e17\u0e35\u0e48 2 (Double Filter)","\u0e01\u0e23\u0e2d\u0e07\u0e17\u0e35\u0e48 3 (Double Filter)","\u0e01\u0e23\u0e2d\u0e07\u0e17\u0e35\u0e48 4 (Extractor)","\u0e01\u0e23\u0e2d\u0e07\u0e17\u0e35\u0e48 5 (Purified Filter)"],"part_notification_id":[307,308,309,310],"product_part_id":[2,3,4,5],"remind_type":["timely    ","timely    ","timely    ","timely    "],"timely_date":["2020-04-09","2020-04-09","2020-04-09","2020-04-09"],"CustID":"1c0c73208b07b938"},"4":{"token":"4e6e8fe0-7b14-4983-b014-171bd7af4730","part_notification":["\u0e01\u0e23\u0e2d\u0e07\u0e17\u0e35\u0e48 2 (Double Filter)","\u0e01\u0e23\u0e2d\u0e07\u0e17\u0e35\u0e48 3 (Double Filter)","\u0e01\u0e23\u0e2d\u0e07\u0e17\u0e35\u0e48 4 (Extractor)","\u0e01\u0e23\u0e2d\u0e07\u0e17\u0e35\u0e48 5 (Purified Filter)"],"part_notification_id":[397,398,399,400],"product_part_id":[2,3,4,5],"remind_type":["early     ","early     ","early     ","early     "],"timely_date":["2020-04-12","2020-04-12","2020-04-12","2020-04-12"],"CustID":"8c7a82bea72c4031"},"8":{"token":"","part_notification":["\u0e01\u0e23\u0e2d\u0e07\u0e17\u0e35\u0e48 1 (First Filter)"],"part_notification_id":[4089],"product_part_id":[1],"remind_type":["early     "],"timely_date":["2020-04-12"],"CustID":"2a9775cca7999e4f"}}
2020-04-09 11:00:03 data : {"0":{"token":"3b0c4ac6-5fd7-4682-adbc-2ae9ff4c9222","part_notification":["\u0e01\u0e23\u0e2d\u0e07\u0e17\u0e35\u0e48 2 (Double Filter)","\u0e01\u0e23\u0e2d\u0e07\u0e17\u0e35\u0e48 3 (Double Filter)","\u0e01\u0e23\u0e2d\u0e07\u0e17\u0e35\u0e48 4 (Extractor)","\u0e01\u0e23\u0e2d\u0e07\u0e17\u0e35\u0e48 5 (Purified Filter)"],"part_notification_id":[307,308,309,310],"product_part_id":[2,3,4,5],"remind_type":["timely    ","timely    ","timely    ","timely    "],"timely_date":["2020-04-09","2020-04-09","2020-04-09","2020-04-09"],"CustID":"1c0c73208b07b938"},"4":{"token":"4e6e8fe0-7b14-4983-b014-171bd7af4730","part_notification":["\u0e01\u0e23\u0e2d\u0e07\u0e17\u0e35\u0e48 2 (Double Filter)","\u0e01\u0e23\u0e2d\u0e07\u0e17\u0e35\u0e48 3 (Double Filter)","\u0e01\u0e23\u0e2d\u0e07\u0e17\u0e35\u0e48 4 (Extractor)","\u0e01\u0e23\u0e2d\u0e07\u0e17\u0e35\u0e48 5 (Purified Filter)"],"part_notification_id":[397,398,399,400],"product_part_id":[2,3,4,5],"remind_type":["early     ","early     ","early     ","early     "],"timely_date":["2020-04-12","2020-04-12","2020-04-12","2020-04-12"],"CustID":"8c7a82bea72c4031"},"8":{"token":"","part_notification":["\u0e01\u0e23\u0e2d\u0e07\u0e17\u0e35\u0e48 1 (First Filter)"],"part_notification_id":[4089],"product_part_id":[1],"remind_type":["early     "],"timely_date":["2020-04-12"],"CustID":"2a9775cca7999e4f"}}
