2020-05-01 13:00:01 data : {"0":{"token":"47f204e1-1771-459c-8bbd-b9789cd51202","part_notification":["\u0e01\u0e23\u0e2d\u0e07\u0e17\u0e35\u0e48 2 (Double Filter)","\u0e01\u0e23\u0e2d\u0e07\u0e17\u0e35\u0e48 3 (Double Filter)","\u0e01\u0e23\u0e2d\u0e07\u0e17\u0e35\u0e48 4 (Extractor)","\u0e01\u0e23\u0e2d\u0e07\u0e17\u0e35\u0e48 5 (Purified Filter)"],"part_notification_id":[767,768,769,770],"product_part_id":[2,3,4,5],"remind_type":["early     ","early     ","early     ","early     "],"timely_date":["2020-05-04","2020-05-04","2020-05-04","2020-05-04"],"CustID":"ed92db62e46930fc"},"4":{"token":null,"part_notification":["\u0e01\u0e23\u0e2d\u0e07\u0e17\u0e35\u0e48 1 (First Filter)"],"part_notification_id":[4171],"product_part_id":[6],"remind_type":["early     "],"timely_date":["2020-05-04"],"CustID":"15da05a3d8adaae8"}}
2020-05-01 13:00:01 data : {"0":{"token":"47f204e1-1771-459c-8bbd-b9789cd51202","part_notification":["\u0e01\u0e23\u0e2d\u0e07\u0e17\u0e35\u0e48 2 (Double Filter)","\u0e01\u0e23\u0e2d\u0e07\u0e17\u0e35\u0e48 3 (Double Filter)","\u0e01\u0e23\u0e2d\u0e07\u0e17\u0e35\u0e48 4 (Extractor)","\u0e01\u0e23\u0e2d\u0e07\u0e17\u0e35\u0e48 5 (Purified Filter)"],"part_notification_id":[767,768,769,770],"product_part_id":[2,3,4,5],"remind_type":["early     ","early     ","early     ","early     "],"timely_date":["2020-05-04","2020-05-04","2020-05-04","2020-05-04"],"CustID":"ed92db62e46930fc"},"4":{"token":null,"part_notification":["\u0e01\u0e23\u0e2d\u0e07\u0e17\u0e35\u0e48 1 (First Filter)"],"part_notification_id":[4171],"product_part_id":[6],"remind_type":["early     "],"timely_date":["2020-05-04"],"CustID":"15da05a3d8adaae8"}}
2020-05-01 13:00:01 data : {"0":{"token":"47f204e1-1771-459c-8bbd-b9789cd51202","part_notification":["\u0e01\u0e23\u0e2d\u0e07\u0e17\u0e35\u0e48 2 (Double Filter)","\u0e01\u0e23\u0e2d\u0e07\u0e17\u0e35\u0e48 3 (Double Filter)","\u0e01\u0e23\u0e2d\u0e07\u0e17\u0e35\u0e48 4 (Extractor)","\u0e01\u0e23\u0e2d\u0e07\u0e17\u0e35\u0e48 5 (Purified Filter)"],"part_notification_id":[767,768,769,770],"product_part_id":[2,3,4,5],"remind_type":["early     ","early     ","early     ","early     "],"timely_date":["2020-05-04","2020-05-04","2020-05-04","2020-05-04"],"CustID":"ed92db62e46930fc"},"4":{"token":null,"part_notification":["\u0e01\u0e23\u0e2d\u0e07\u0e17\u0e35\u0e48 1 (First Filter)"],"part_notification_id":[4171],"product_part_id":[6],"remind_type":["early     "],"timely_date":["2020-05-04"],"CustID":"15da05a3d8adaae8"}}
2020-05-01 13:00:01 data : {"0":{"token":"47f204e1-1771-459c-8bbd-b9789cd51202","part_notification":["\u0e01\u0e23\u0e2d\u0e07\u0e17\u0e35\u0e48 2 (Double Filter)","\u0e01\u0e23\u0e2d\u0e07\u0e17\u0e35\u0e48 3 (Double Filter)","\u0e01\u0e23\u0e2d\u0e07\u0e17\u0e35\u0e48 4 (Extractor)","\u0e01\u0e23\u0e2d\u0e07\u0e17\u0e35\u0e48 5 (Purified Filter)"],"part_notification_id":[767,768,769,770],"product_part_id":[2,3,4,5],"remind_type":["early     ","early     ","early     ","early     "],"timely_date":["2020-05-04","2020-05-04","2020-05-04","2020-05-04"],"CustID":"ed92db62e46930fc"},"4":{"token":null,"part_notification":["\u0e01\u0e23\u0e2d\u0e07\u0e17\u0e35\u0e48 1 (First Filter)"],"part_notification_id":[4171],"product_part_id":[6],"remind_type":["early     "],"timely_date":["2020-05-04"],"CustID":"15da05a3d8adaae8"}}
2020-05-01 13:00:01 data : {"0":{"token":"47f204e1-1771-459c-8bbd-b9789cd51202","part_notification":["\u0e01\u0e23\u0e2d\u0e07\u0e17\u0e35\u0e48 2 (Double Filter)","\u0e01\u0e23\u0e2d\u0e07\u0e17\u0e35\u0e48 3 (Double Filter)","\u0e01\u0e23\u0e2d\u0e07\u0e17\u0e35\u0e48 4 (Extractor)","\u0e01\u0e23\u0e2d\u0e07\u0e17\u0e35\u0e48 5 (Purified Filter)"],"part_notification_id":[767,768,769,770],"product_part_id":[2,3,4,5],"remind_type":["early     ","early     ","early     ","early     "],"timely_date":["2020-05-04","2020-05-04","2020-05-04","2020-05-04"],"CustID":"ed92db62e46930fc"},"4":{"token":null,"part_notification":["\u0e01\u0e23\u0e2d\u0e07\u0e17\u0e35\u0e48 1 (First Filter)"],"part_notification_id":[4171],"product_part_id":[6],"remind_type":["early     "],"timely_date":["2020-05-04"],"CustID":"15da05a3d8adaae8"}}
