2020-11-14 14:00:02 data : {"0":{"token":"e94ea9d6-cf3b-4854-b67b-1a371432d100","part_notification":["\u0e01\u0e23\u0e2d\u0e07\u0e17\u0e35\u0e48 1 (First Filter)"],"part_notification_id":[1631],"product_part_id":[1],"remind_type":["early     "],"timely_date":["2020-11-14"],"CustID":"dea52427c2e7516c"},"1":{"token":"00c6fde6-07c0-444a-ad6d-763f3c1001ea","part_notification":["\u0e01\u0e23\u0e2d\u0e07\u0e17\u0e35\u0e48 2 (Double Filter)","\u0e01\u0e23\u0e2d\u0e07\u0e17\u0e35\u0e48 3 (Double Filter)","\u0e01\u0e23\u0e2d\u0e07\u0e17\u0e35\u0e48 4 (Extractor)","\u0e01\u0e23\u0e2d\u0e07\u0e17\u0e35\u0e48 5 (Purified Filter)"],"part_notification_id":[2587,2588,2589,2590],"product_part_id":[2,3,4,5],"remind_type":["timely    ","timely    ","timely    ","timely    "],"timely_date":["2020-11-14","2020-11-14","2020-11-14","2020-11-14"],"CustID":"9ebf43fa53a8d027"},"5":{"token":null,"part_notification":["\u0e01\u0e23\u0e2d\u0e07\u0e17\u0e35\u0e48 1 (First Filter)"],"part_notification_id":[5210],"product_part_id":[1],"remind_type":["early     "],"timely_date":["2020-11-17"],"CustID":"6e14b39966c9e4b1"}}
2020-11-14 14:00:02 data : {"0":{"token":"e94ea9d6-cf3b-4854-b67b-1a371432d100","part_notification":["\u0e01\u0e23\u0e2d\u0e07\u0e17\u0e35\u0e48 1 (First Filter)"],"part_notification_id":[1631],"product_part_id":[1],"remind_type":["early     "],"timely_date":["2020-11-14"],"CustID":"dea52427c2e7516c"},"1":{"token":"00c6fde6-07c0-444a-ad6d-763f3c1001ea","part_notification":["\u0e01\u0e23\u0e2d\u0e07\u0e17\u0e35\u0e48 2 (Double Filter)","\u0e01\u0e23\u0e2d\u0e07\u0e17\u0e35\u0e48 3 (Double Filter)","\u0e01\u0e23\u0e2d\u0e07\u0e17\u0e35\u0e48 4 (Extractor)","\u0e01\u0e23\u0e2d\u0e07\u0e17\u0e35\u0e48 5 (Purified Filter)"],"part_notification_id":[2587,2588,2589,2590],"product_part_id":[2,3,4,5],"remind_type":["timely    ","timely    ","timely    ","timely    "],"timely_date":["2020-11-14","2020-11-14","2020-11-14","2020-11-14"],"CustID":"9ebf43fa53a8d027"},"5":{"token":null,"part_notification":["\u0e01\u0e23\u0e2d\u0e07\u0e17\u0e35\u0e48 1 (First Filter)"],"part_notification_id":[5210],"product_part_id":[1],"remind_type":["early     "],"timely_date":["2020-11-17"],"CustID":"6e14b39966c9e4b1"}}
2020-11-14 14:00:02 data : {"0":{"token":"e94ea9d6-cf3b-4854-b67b-1a371432d100","part_notification":["\u0e01\u0e23\u0e2d\u0e07\u0e17\u0e35\u0e48 1 (First Filter)"],"part_notification_id":[1631],"product_part_id":[1],"remind_type":["early     "],"timely_date":["2020-11-14"],"CustID":"dea52427c2e7516c"},"1":{"token":"00c6fde6-07c0-444a-ad6d-763f3c1001ea","part_notification":["\u0e01\u0e23\u0e2d\u0e07\u0e17\u0e35\u0e48 2 (Double Filter)","\u0e01\u0e23\u0e2d\u0e07\u0e17\u0e35\u0e48 3 (Double Filter)","\u0e01\u0e23\u0e2d\u0e07\u0e17\u0e35\u0e48 4 (Extractor)","\u0e01\u0e23\u0e2d\u0e07\u0e17\u0e35\u0e48 5 (Purified Filter)"],"part_notification_id":[2587,2588,2589,2590],"product_part_id":[2,3,4,5],"remind_type":["timely    ","timely    ","timely    ","timely    "],"timely_date":["2020-11-14","2020-11-14","2020-11-14","2020-11-14"],"CustID":"9ebf43fa53a8d027"},"5":{"token":null,"part_notification":["\u0e01\u0e23\u0e2d\u0e07\u0e17\u0e35\u0e48 1 (First Filter)"],"part_notification_id":[5210],"product_part_id":[1],"remind_type":["early     "],"timely_date":["2020-11-17"],"CustID":"6e14b39966c9e4b1"}}
2020-11-14 14:00:02 data : {"0":{"token":"e94ea9d6-cf3b-4854-b67b-1a371432d100","part_notification":["\u0e01\u0e23\u0e2d\u0e07\u0e17\u0e35\u0e48 1 (First Filter)"],"part_notification_id":[1631],"product_part_id":[1],"remind_type":["early     "],"timely_date":["2020-11-14"],"CustID":"dea52427c2e7516c"},"1":{"token":"00c6fde6-07c0-444a-ad6d-763f3c1001ea","part_notification":["\u0e01\u0e23\u0e2d\u0e07\u0e17\u0e35\u0e48 2 (Double Filter)","\u0e01\u0e23\u0e2d\u0e07\u0e17\u0e35\u0e48 3 (Double Filter)","\u0e01\u0e23\u0e2d\u0e07\u0e17\u0e35\u0e48 4 (Extractor)","\u0e01\u0e23\u0e2d\u0e07\u0e17\u0e35\u0e48 5 (Purified Filter)"],"part_notification_id":[2587,2588,2589,2590],"product_part_id":[2,3,4,5],"remind_type":["timely    ","timely    ","timely    ","timely    "],"timely_date":["2020-11-14","2020-11-14","2020-11-14","2020-11-14"],"CustID":"9ebf43fa53a8d027"},"5":{"token":null,"part_notification":["\u0e01\u0e23\u0e2d\u0e07\u0e17\u0e35\u0e48 1 (First Filter)"],"part_notification_id":[5210],"product_part_id":[1],"remind_type":["early     "],"timely_date":["2020-11-17"],"CustID":"6e14b39966c9e4b1"}}
2020-11-14 14:00:02 data : {"0":{"token":"e94ea9d6-cf3b-4854-b67b-1a371432d100","part_notification":["\u0e01\u0e23\u0e2d\u0e07\u0e17\u0e35\u0e48 1 (First Filter)"],"part_notification_id":[1631],"product_part_id":[1],"remind_type":["early     "],"timely_date":["2020-11-14"],"CustID":"dea52427c2e7516c"},"1":{"token":"00c6fde6-07c0-444a-ad6d-763f3c1001ea","part_notification":["\u0e01\u0e23\u0e2d\u0e07\u0e17\u0e35\u0e48 2 (Double Filter)","\u0e01\u0e23\u0e2d\u0e07\u0e17\u0e35\u0e48 3 (Double Filter)","\u0e01\u0e23\u0e2d\u0e07\u0e17\u0e35\u0e48 4 (Extractor)","\u0e01\u0e23\u0e2d\u0e07\u0e17\u0e35\u0e48 5 (Purified Filter)"],"part_notification_id":[2587,2588,2589,2590],"product_part_id":[2,3,4,5],"remind_type":["timely    ","timely    ","timely    ","timely    "],"timely_date":["2020-11-14","2020-11-14","2020-11-14","2020-11-14"],"CustID":"9ebf43fa53a8d027"},"5":{"token":null,"part_notification":["\u0e01\u0e23\u0e2d\u0e07\u0e17\u0e35\u0e48 1 (First Filter)"],"part_notification_id":[5210],"product_part_id":[1],"remind_type":["early     "],"timely_date":["2020-11-17"],"CustID":"6e14b39966c9e4b1"}}
