2019-11-26 10:00:01 data : [{"token":"","part_notification":["\u0e01\u0e23\u0e2d\u0e07\u0e17\u0e35\u0e48 1 (First Filter)","\u0e01\u0e23\u0e2d\u0e07\u0e17\u0e35\u0e48 1 (First Filter)","\u0e01\u0e23\u0e2d\u0e07\u0e17\u0e35\u0e48 1 (First Filter)"],"part_notification_id":[3420,3425,3430],"product_part_id":[1,1,1],"remind_type":["early     ","early     ","early     "],"timely_date":["2019-11-29","2019-11-29","2019-11-29"],"CustID":"ca8ef3515b5784"}]
2019-11-26 10:00:01 data : [{"token":"","part_notification":["\u0e01\u0e23\u0e2d\u0e07\u0e17\u0e35\u0e48 1 (First Filter)","\u0e01\u0e23\u0e2d\u0e07\u0e17\u0e35\u0e48 1 (First Filter)","\u0e01\u0e23\u0e2d\u0e07\u0e17\u0e35\u0e48 1 (First Filter)"],"part_notification_id":[3420,3425,3430],"product_part_id":[1,1,1],"remind_type":["early     ","early     ","early     "],"timely_date":["2019-11-29","2019-11-29","2019-11-29"],"CustID":"ca8ef3515b5784"}]
2019-11-26 10:00:01 data : [{"token":"","part_notification":["\u0e01\u0e23\u0e2d\u0e07\u0e17\u0e35\u0e48 1 (First Filter)","\u0e01\u0e23\u0e2d\u0e07\u0e17\u0e35\u0e48 1 (First Filter)","\u0e01\u0e23\u0e2d\u0e07\u0e17\u0e35\u0e48 1 (First Filter)"],"part_notification_id":[3420,3425,3430],"product_part_id":[1,1,1],"remind_type":["early     ","early     ","early     "],"timely_date":["2019-11-29","2019-11-29","2019-11-29"],"CustID":"ca8ef3515b5784"}]
