2020-09-23 13:00:01 data : [{"token":"","part_notification":["\u0e01\u0e23\u0e2d\u0e07\u0e17\u0e35\u0e48 2 (Double Filter)","\u0e01\u0e23\u0e2d\u0e07\u0e17\u0e35\u0e48 3 (Double Filter)","\u0e01\u0e23\u0e2d\u0e07\u0e17\u0e35\u0e48 4 (Extractor)","\u0e01\u0e23\u0e2d\u0e07\u0e17\u0e35\u0e48 5 (Purified Filter)"],"part_notification_id":[2207,2208,2209,2210],"product_part_id":[2,3,4,5],"remind_type":["early     ","early     ","early     ","early     "],"timely_date":["2020-09-26","2020-09-26","2020-09-26","2020-09-26"],"CustID":"a332e1443a83ed2b"}]
2020-09-23 13:00:01 data : [{"token":"","part_notification":["\u0e01\u0e23\u0e2d\u0e07\u0e17\u0e35\u0e48 2 (Double Filter)","\u0e01\u0e23\u0e2d\u0e07\u0e17\u0e35\u0e48 3 (Double Filter)","\u0e01\u0e23\u0e2d\u0e07\u0e17\u0e35\u0e48 4 (Extractor)","\u0e01\u0e23\u0e2d\u0e07\u0e17\u0e35\u0e48 5 (Purified Filter)"],"part_notification_id":[2207,2208,2209,2210],"product_part_id":[2,3,4,5],"remind_type":["early     ","early     ","early     ","early     "],"timely_date":["2020-09-26","2020-09-26","2020-09-26","2020-09-26"],"CustID":"a332e1443a83ed2b"}]
2020-09-23 13:00:01 data : [{"token":"","part_notification":["\u0e01\u0e23\u0e2d\u0e07\u0e17\u0e35\u0e48 2 (Double Filter)","\u0e01\u0e23\u0e2d\u0e07\u0e17\u0e35\u0e48 3 (Double Filter)","\u0e01\u0e23\u0e2d\u0e07\u0e17\u0e35\u0e48 4 (Extractor)","\u0e01\u0e23\u0e2d\u0e07\u0e17\u0e35\u0e48 5 (Purified Filter)"],"part_notification_id":[2207,2208,2209,2210],"product_part_id":[2,3,4,5],"remind_type":["early     ","early     ","early     ","early     "],"timely_date":["2020-09-26","2020-09-26","2020-09-26","2020-09-26"],"CustID":"a332e1443a83ed2b"}]
2020-09-23 13:00:01 data : [{"token":"","part_notification":["\u0e01\u0e23\u0e2d\u0e07\u0e17\u0e35\u0e48 2 (Double Filter)","\u0e01\u0e23\u0e2d\u0e07\u0e17\u0e35\u0e48 3 (Double Filter)","\u0e01\u0e23\u0e2d\u0e07\u0e17\u0e35\u0e48 4 (Extractor)","\u0e01\u0e23\u0e2d\u0e07\u0e17\u0e35\u0e48 5 (Purified Filter)"],"part_notification_id":[2207,2208,2209,2210],"product_part_id":[2,3,4,5],"remind_type":["early     ","early     ","early     ","early     "],"timely_date":["2020-09-26","2020-09-26","2020-09-26","2020-09-26"],"CustID":"a332e1443a83ed2b"}]
