2020-06-13 14:00:02 data : {"0":{"token":"a1cb5438-9b1d-40cb-b94e-c697db581a5c","part_notification":["\u0e01\u0e23\u0e2d\u0e07\u0e17\u0e35\u0e48 2 (Double Filter)","\u0e01\u0e23\u0e2d\u0e07\u0e17\u0e35\u0e48 3 (Double Filter)","\u0e01\u0e23\u0e2d\u0e07\u0e17\u0e35\u0e48 4 (Extractor)","\u0e01\u0e23\u0e2d\u0e07\u0e17\u0e35\u0e48 5 (Purified Filter)"],"part_notification_id":[2697,2698,2699,2700],"product_part_id":[2,3,4,5],"remind_type":["lately    ","lately    ","lately    ","lately    "],"timely_date":["2020-05-29","2020-05-29","2020-05-29","2020-05-29"],"CustID":"d3fcdd9b031fbac2"},"4":{"token":"","part_notification":["\u0e01\u0e23\u0e2d\u0e07\u0e17\u0e35\u0e48 1 (First Filter)"],"part_notification_id":[4361],"product_part_id":[1],"remind_type":["early     "],"timely_date":["2020-06-16"],"CustID":"b252516cf47776f0"}}
2020-06-13 14:00:02 data : {"0":{"token":"a1cb5438-9b1d-40cb-b94e-c697db581a5c","part_notification":["\u0e01\u0e23\u0e2d\u0e07\u0e17\u0e35\u0e48 2 (Double Filter)","\u0e01\u0e23\u0e2d\u0e07\u0e17\u0e35\u0e48 3 (Double Filter)","\u0e01\u0e23\u0e2d\u0e07\u0e17\u0e35\u0e48 4 (Extractor)","\u0e01\u0e23\u0e2d\u0e07\u0e17\u0e35\u0e48 5 (Purified Filter)"],"part_notification_id":[2697,2698,2699,2700],"product_part_id":[2,3,4,5],"remind_type":["lately    ","lately    ","lately    ","lately    "],"timely_date":["2020-05-29","2020-05-29","2020-05-29","2020-05-29"],"CustID":"d3fcdd9b031fbac2"},"4":{"token":"","part_notification":["\u0e01\u0e23\u0e2d\u0e07\u0e17\u0e35\u0e48 1 (First Filter)"],"part_notification_id":[4361],"product_part_id":[1],"remind_type":["early     "],"timely_date":["2020-06-16"],"CustID":"b252516cf47776f0"}}
2020-06-13 14:00:02 data : {"0":{"token":"a1cb5438-9b1d-40cb-b94e-c697db581a5c","part_notification":["\u0e01\u0e23\u0e2d\u0e07\u0e17\u0e35\u0e48 2 (Double Filter)","\u0e01\u0e23\u0e2d\u0e07\u0e17\u0e35\u0e48 3 (Double Filter)","\u0e01\u0e23\u0e2d\u0e07\u0e17\u0e35\u0e48 4 (Extractor)","\u0e01\u0e23\u0e2d\u0e07\u0e17\u0e35\u0e48 5 (Purified Filter)"],"part_notification_id":[2697,2698,2699,2700],"product_part_id":[2,3,4,5],"remind_type":["lately    ","lately    ","lately    ","lately    "],"timely_date":["2020-05-29","2020-05-29","2020-05-29","2020-05-29"],"CustID":"d3fcdd9b031fbac2"},"4":{"token":"","part_notification":["\u0e01\u0e23\u0e2d\u0e07\u0e17\u0e35\u0e48 1 (First Filter)"],"part_notification_id":[4361],"product_part_id":[1],"remind_type":["early     "],"timely_date":["2020-06-16"],"CustID":"b252516cf47776f0"}}
2020-06-13 14:00:02 data : {"0":{"token":"a1cb5438-9b1d-40cb-b94e-c697db581a5c","part_notification":["\u0e01\u0e23\u0e2d\u0e07\u0e17\u0e35\u0e48 2 (Double Filter)","\u0e01\u0e23\u0e2d\u0e07\u0e17\u0e35\u0e48 3 (Double Filter)","\u0e01\u0e23\u0e2d\u0e07\u0e17\u0e35\u0e48 4 (Extractor)","\u0e01\u0e23\u0e2d\u0e07\u0e17\u0e35\u0e48 5 (Purified Filter)"],"part_notification_id":[2697,2698,2699,2700],"product_part_id":[2,3,4,5],"remind_type":["lately    ","lately    ","lately    ","lately    "],"timely_date":["2020-05-29","2020-05-29","2020-05-29","2020-05-29"],"CustID":"d3fcdd9b031fbac2"},"4":{"token":"","part_notification":["\u0e01\u0e23\u0e2d\u0e07\u0e17\u0e35\u0e48 1 (First Filter)"],"part_notification_id":[4361],"product_part_id":[1],"remind_type":["early     "],"timely_date":["2020-06-16"],"CustID":"b252516cf47776f0"}}
2020-06-13 14:00:02 data : {"0":{"token":"a1cb5438-9b1d-40cb-b94e-c697db581a5c","part_notification":["\u0e01\u0e23\u0e2d\u0e07\u0e17\u0e35\u0e48 2 (Double Filter)","\u0e01\u0e23\u0e2d\u0e07\u0e17\u0e35\u0e48 3 (Double Filter)","\u0e01\u0e23\u0e2d\u0e07\u0e17\u0e35\u0e48 4 (Extractor)","\u0e01\u0e23\u0e2d\u0e07\u0e17\u0e35\u0e48 5 (Purified Filter)"],"part_notification_id":[2697,2698,2699,2700],"product_part_id":[2,3,4,5],"remind_type":["lately    ","lately    ","lately    ","lately    "],"timely_date":["2020-05-29","2020-05-29","2020-05-29","2020-05-29"],"CustID":"d3fcdd9b031fbac2"},"4":{"token":"","part_notification":["\u0e01\u0e23\u0e2d\u0e07\u0e17\u0e35\u0e48 1 (First Filter)"],"part_notification_id":[4361],"product_part_id":[1],"remind_type":["early     "],"timely_date":["2020-06-16"],"CustID":"b252516cf47776f0"}}
