2018-11-18 08:00:01 data : [{"token":"a930a6d7-402a-4519-b0c1-6efa48d53c78","part_notification":["\u0e01\u0e23\u0e2d\u0e07\u0e17\u0e35\u0e48 1 (First Filter)"],"part_notification_id":[756],"product_part_id":[1],"remind_type":["lately    "],"timely_date":["2018-11-03"],"CustID":"8030fd24042a2476"},{"token":"ca204d1b-68c8-404c-90b1-305a2ee0843e","part_notification":["\u0e01\u0e23\u0e2d\u0e07\u0e17\u0e35\u0e48 1 (First Filter)"],"part_notification_id":[971],"product_part_id":[1],"remind_type":["timely    "],"timely_date":["2018-11-18"],"CustID":"a75bc22dcd93259e"},{"token":"e3a0fc14-d673-4003-91c2-77b3070ef055","part_notification":["\u0e01\u0e23\u0e2d\u0e07\u0e17\u0e35\u0e48 1 (First Filter)"],"part_notification_id":[976],"product_part_id":[1],"remind_type":["timely    "],"timely_date":["2018-11-18"],"CustID":"13a3615e227075dd"}]
2018-11-18 08:00:01 data : [{"token":"a930a6d7-402a-4519-b0c1-6efa48d53c78","part_notification":["\u0e01\u0e23\u0e2d\u0e07\u0e17\u0e35\u0e48 1 (First Filter)"],"part_notification_id":[756],"product_part_id":[1],"remind_type":["lately    "],"timely_date":["2018-11-03"],"CustID":"8030fd24042a2476"},{"token":"ca204d1b-68c8-404c-90b1-305a2ee0843e","part_notification":["\u0e01\u0e23\u0e2d\u0e07\u0e17\u0e35\u0e48 1 (First Filter)"],"part_notification_id":[971],"product_part_id":[1],"remind_type":["timely    "],"timely_date":["2018-11-18"],"CustID":"a75bc22dcd93259e"},{"token":"e3a0fc14-d673-4003-91c2-77b3070ef055","part_notification":["\u0e01\u0e23\u0e2d\u0e07\u0e17\u0e35\u0e48 1 (First Filter)"],"part_notification_id":[976],"product_part_id":[1],"remind_type":["timely    "],"timely_date":["2018-11-18"],"CustID":"13a3615e227075dd"}]
2018-11-18 08:00:01 data : [{"token":"a930a6d7-402a-4519-b0c1-6efa48d53c78","part_notification":["\u0e01\u0e23\u0e2d\u0e07\u0e17\u0e35\u0e48 1 (First Filter)"],"part_notification_id":[756],"product_part_id":[1],"remind_type":["lately    "],"timely_date":["2018-11-03"],"CustID":"8030fd24042a2476"},{"token":"ca204d1b-68c8-404c-90b1-305a2ee0843e","part_notification":["\u0e01\u0e23\u0e2d\u0e07\u0e17\u0e35\u0e48 1 (First Filter)"],"part_notification_id":[971],"product_part_id":[1],"remind_type":["timely    "],"timely_date":["2018-11-18"],"CustID":"a75bc22dcd93259e"},{"token":"e3a0fc14-d673-4003-91c2-77b3070ef055","part_notification":["\u0e01\u0e23\u0e2d\u0e07\u0e17\u0e35\u0e48 1 (First Filter)"],"part_notification_id":[976],"product_part_id":[1],"remind_type":["timely    "],"timely_date":["2018-11-18"],"CustID":"13a3615e227075dd"}]
