2019-09-27 08:00:01 data : [{"token":"20a4084c-dcee-4981-bdcf-7da2f6bd89a9","part_notification":["\u0e01\u0e23\u0e2d\u0e07\u0e17\u0e35\u0e48 1 (First Filter)"],"part_notification_id":[3106],"product_part_id":[1],"remind_type":["lately    "],"timely_date":["2019-09-12"],"CustID":"bad2040bcc92524"},{"token":"f2dbb531-d752-44a2-b7da-c7d4a79fceb7","part_notification":["\u0e01\u0e23\u0e2d\u0e07\u0e17\u0e35\u0e48 1 (First Filter)"],"part_notification_id":[3136],"product_part_id":[1],"remind_type":["timely    "],"timely_date":["2019-09-27"],"CustID":"d09227629074959c"},{"token":"5581f088-981d-4d96-a780-4b18c885550a","part_notification":["\u0e01\u0e23\u0e2d\u0e07\u0e17\u0e35\u0e48 1 (First Filter)"],"part_notification_id":[3151],"product_part_id":[1],"remind_type":["early     "],"timely_date":["2019-09-30"],"CustID":"3b4bfcf91f59f5e2"},{"token":"304a9303-ca3b-47bb-9049-a9cbdce8f306","part_notification":["\u0e01\u0e23\u0e2d\u0e07\u0e17\u0e35\u0e48 1 (First Filter)"],"part_notification_id":[3156],"product_part_id":[1],"remind_type":["early     "],"timely_date":["2019-09-30"],"CustID":"3a2b8f65425579d1"},{"token":"","part_notification":["\u0e01\u0e23\u0e2d\u0e07\u0e17\u0e35\u0e48 1 (First Filter)"],"part_notification_id":[3161],"product_part_id":[1],"remind_type":["early     "],"timely_date":["2019-09-30"],"CustID":"8fe5efcef6f26775"},{"token":"e571d987-8399-4f79-8f73-2b0d4b30d71a","part_notification":["\u0e01\u0e23\u0e2d\u0e07\u0e17\u0e35\u0e48 1 (First Filter)"],"part_notification_id":[3166],"product_part_id":[1],"remind_type":["early     "],"timely_date":["2019-09-30"],"CustID":"7de9247f1a6b53fa"}]
2019-09-27 08:00:01 data : [{"token":"20a4084c-dcee-4981-bdcf-7da2f6bd89a9","part_notification":["\u0e01\u0e23\u0e2d\u0e07\u0e17\u0e35\u0e48 1 (First Filter)"],"part_notification_id":[3106],"product_part_id":[1],"remind_type":["lately    "],"timely_date":["2019-09-12"],"CustID":"bad2040bcc92524"},{"token":"f2dbb531-d752-44a2-b7da-c7d4a79fceb7","part_notification":["\u0e01\u0e23\u0e2d\u0e07\u0e17\u0e35\u0e48 1 (First Filter)"],"part_notification_id":[3136],"product_part_id":[1],"remind_type":["timely    "],"timely_date":["2019-09-27"],"CustID":"d09227629074959c"},{"token":"5581f088-981d-4d96-a780-4b18c885550a","part_notification":["\u0e01\u0e23\u0e2d\u0e07\u0e17\u0e35\u0e48 1 (First Filter)"],"part_notification_id":[3151],"product_part_id":[1],"remind_type":["early     "],"timely_date":["2019-09-30"],"CustID":"3b4bfcf91f59f5e2"},{"token":"304a9303-ca3b-47bb-9049-a9cbdce8f306","part_notification":["\u0e01\u0e23\u0e2d\u0e07\u0e17\u0e35\u0e48 1 (First Filter)"],"part_notification_id":[3156],"product_part_id":[1],"remind_type":["early     "],"timely_date":["2019-09-30"],"CustID":"3a2b8f65425579d1"},{"token":"","part_notification":["\u0e01\u0e23\u0e2d\u0e07\u0e17\u0e35\u0e48 1 (First Filter)"],"part_notification_id":[3161],"product_part_id":[1],"remind_type":["early     "],"timely_date":["2019-09-30"],"CustID":"8fe5efcef6f26775"},{"token":"e571d987-8399-4f79-8f73-2b0d4b30d71a","part_notification":["\u0e01\u0e23\u0e2d\u0e07\u0e17\u0e35\u0e48 1 (First Filter)"],"part_notification_id":[3166],"product_part_id":[1],"remind_type":["early     "],"timely_date":["2019-09-30"],"CustID":"7de9247f1a6b53fa"}]
2019-09-27 08:00:01 data : [{"token":"20a4084c-dcee-4981-bdcf-7da2f6bd89a9","part_notification":["\u0e01\u0e23\u0e2d\u0e07\u0e17\u0e35\u0e48 1 (First Filter)"],"part_notification_id":[3106],"product_part_id":[1],"remind_type":["lately    "],"timely_date":["2019-09-12"],"CustID":"bad2040bcc92524"},{"token":"f2dbb531-d752-44a2-b7da-c7d4a79fceb7","part_notification":["\u0e01\u0e23\u0e2d\u0e07\u0e17\u0e35\u0e48 1 (First Filter)"],"part_notification_id":[3136],"product_part_id":[1],"remind_type":["timely    "],"timely_date":["2019-09-27"],"CustID":"d09227629074959c"},{"token":"5581f088-981d-4d96-a780-4b18c885550a","part_notification":["\u0e01\u0e23\u0e2d\u0e07\u0e17\u0e35\u0e48 1 (First Filter)"],"part_notification_id":[3151],"product_part_id":[1],"remind_type":["early     "],"timely_date":["2019-09-30"],"CustID":"3b4bfcf91f59f5e2"},{"token":"304a9303-ca3b-47bb-9049-a9cbdce8f306","part_notification":["\u0e01\u0e23\u0e2d\u0e07\u0e17\u0e35\u0e48 1 (First Filter)"],"part_notification_id":[3156],"product_part_id":[1],"remind_type":["early     "],"timely_date":["2019-09-30"],"CustID":"3a2b8f65425579d1"},{"token":"","part_notification":["\u0e01\u0e23\u0e2d\u0e07\u0e17\u0e35\u0e48 1 (First Filter)"],"part_notification_id":[3161],"product_part_id":[1],"remind_type":["early     "],"timely_date":["2019-09-30"],"CustID":"8fe5efcef6f26775"},{"token":"e571d987-8399-4f79-8f73-2b0d4b30d71a","part_notification":["\u0e01\u0e23\u0e2d\u0e07\u0e17\u0e35\u0e48 1 (First Filter)"],"part_notification_id":[3166],"product_part_id":[1],"remind_type":["early     "],"timely_date":["2019-09-30"],"CustID":"7de9247f1a6b53fa"}]
