2020-12-27 12:00:01 data : [{"token":"6dd1b3cb-6fae-4c8d-ab1b-5ef7b3312e7a","part_notification":["\u0e01\u0e23\u0e2d\u0e07\u0e17\u0e35\u0e48 2 (Double Filter)","\u0e01\u0e23\u0e2d\u0e07\u0e17\u0e35\u0e48 3 (Double Filter)","\u0e01\u0e23\u0e2d\u0e07\u0e17\u0e35\u0e48 4 (Extractor)","\u0e01\u0e23\u0e2d\u0e07\u0e17\u0e35\u0e48 5 (Purified Filter)"],"part_notification_id":[2832,2833,2834,2835],"product_part_id":[2,3,4,5],"remind_type":["timely    ","timely    ","timely    ","timely    "],"timely_date":["2020-12-27","2020-12-27","2020-12-27","2020-12-27"],"CustID":"35141bbe9a6f03b1"}]
2020-12-27 12:00:01 data : [{"token":"6dd1b3cb-6fae-4c8d-ab1b-5ef7b3312e7a","part_notification":["\u0e01\u0e23\u0e2d\u0e07\u0e17\u0e35\u0e48 2 (Double Filter)","\u0e01\u0e23\u0e2d\u0e07\u0e17\u0e35\u0e48 3 (Double Filter)","\u0e01\u0e23\u0e2d\u0e07\u0e17\u0e35\u0e48 4 (Extractor)","\u0e01\u0e23\u0e2d\u0e07\u0e17\u0e35\u0e48 5 (Purified Filter)"],"part_notification_id":[2832,2833,2834,2835],"product_part_id":[2,3,4,5],"remind_type":["timely    ","timely    ","timely    ","timely    "],"timely_date":["2020-12-27","2020-12-27","2020-12-27","2020-12-27"],"CustID":"35141bbe9a6f03b1"}]
2020-12-27 12:00:01 data : [{"token":"6dd1b3cb-6fae-4c8d-ab1b-5ef7b3312e7a","part_notification":["\u0e01\u0e23\u0e2d\u0e07\u0e17\u0e35\u0e48 2 (Double Filter)","\u0e01\u0e23\u0e2d\u0e07\u0e17\u0e35\u0e48 3 (Double Filter)","\u0e01\u0e23\u0e2d\u0e07\u0e17\u0e35\u0e48 4 (Extractor)","\u0e01\u0e23\u0e2d\u0e07\u0e17\u0e35\u0e48 5 (Purified Filter)"],"part_notification_id":[2832,2833,2834,2835],"product_part_id":[2,3,4,5],"remind_type":["timely    ","timely    ","timely    ","timely    "],"timely_date":["2020-12-27","2020-12-27","2020-12-27","2020-12-27"],"CustID":"35141bbe9a6f03b1"}]
2020-12-27 12:00:01 data : [{"token":"6dd1b3cb-6fae-4c8d-ab1b-5ef7b3312e7a","part_notification":["\u0e01\u0e23\u0e2d\u0e07\u0e17\u0e35\u0e48 2 (Double Filter)","\u0e01\u0e23\u0e2d\u0e07\u0e17\u0e35\u0e48 3 (Double Filter)","\u0e01\u0e23\u0e2d\u0e07\u0e17\u0e35\u0e48 4 (Extractor)","\u0e01\u0e23\u0e2d\u0e07\u0e17\u0e35\u0e48 5 (Purified Filter)"],"part_notification_id":[2832,2833,2834,2835],"product_part_id":[2,3,4,5],"remind_type":["timely    ","timely    ","timely    ","timely    "],"timely_date":["2020-12-27","2020-12-27","2020-12-27","2020-12-27"],"CustID":"35141bbe9a6f03b1"}]
