2020-08-04 11:00:01 data : {"0":{"token":"c79b5fa2-9d0f-4fe1-b3c6-c2b9bdef759f","part_notification":["\u0e01\u0e23\u0e2d\u0e07\u0e17\u0e35\u0e48 2 (Double Filter)","\u0e01\u0e23\u0e2d\u0e07\u0e17\u0e35\u0e48 3 (Double Filter)","\u0e01\u0e23\u0e2d\u0e07\u0e17\u0e35\u0e48 4 (Extractor)","\u0e01\u0e23\u0e2d\u0e07\u0e17\u0e35\u0e48 5 (Purified Filter)"],"part_notification_id":[1727,1728,1729,1730],"product_part_id":[2,3,4,5],"remind_type":["timely    ","timely    ","timely    ","timely    "],"timely_date":["2020-08-04","2020-08-04","2020-08-04","2020-08-04"],"CustID":"7659d02551559217"},"4":{"token":"3b513d34-7f30-4c4d-b6dc-f157a929e733","part_notification":["\u0e01\u0e23\u0e2d\u0e07\u0e17\u0e35\u0e48 1 (First Filter)"],"part_notification_id":[4584],"product_part_id":[6],"remind_type":["lately    "],"timely_date":["2020-07-20"],"CustID":"486e4d690e4a6ff2"}}
2020-08-04 11:00:01 data : {"0":{"token":"c79b5fa2-9d0f-4fe1-b3c6-c2b9bdef759f","part_notification":["\u0e01\u0e23\u0e2d\u0e07\u0e17\u0e35\u0e48 2 (Double Filter)","\u0e01\u0e23\u0e2d\u0e07\u0e17\u0e35\u0e48 3 (Double Filter)","\u0e01\u0e23\u0e2d\u0e07\u0e17\u0e35\u0e48 4 (Extractor)","\u0e01\u0e23\u0e2d\u0e07\u0e17\u0e35\u0e48 5 (Purified Filter)"],"part_notification_id":[1727,1728,1729,1730],"product_part_id":[2,3,4,5],"remind_type":["timely    ","timely    ","timely    ","timely    "],"timely_date":["2020-08-04","2020-08-04","2020-08-04","2020-08-04"],"CustID":"7659d02551559217"},"4":{"token":"3b513d34-7f30-4c4d-b6dc-f157a929e733","part_notification":["\u0e01\u0e23\u0e2d\u0e07\u0e17\u0e35\u0e48 1 (First Filter)"],"part_notification_id":[4584],"product_part_id":[6],"remind_type":["lately    "],"timely_date":["2020-07-20"],"CustID":"486e4d690e4a6ff2"}}
2020-08-04 11:00:01 data : {"0":{"token":"c79b5fa2-9d0f-4fe1-b3c6-c2b9bdef759f","part_notification":["\u0e01\u0e23\u0e2d\u0e07\u0e17\u0e35\u0e48 2 (Double Filter)","\u0e01\u0e23\u0e2d\u0e07\u0e17\u0e35\u0e48 3 (Double Filter)","\u0e01\u0e23\u0e2d\u0e07\u0e17\u0e35\u0e48 4 (Extractor)","\u0e01\u0e23\u0e2d\u0e07\u0e17\u0e35\u0e48 5 (Purified Filter)"],"part_notification_id":[1727,1728,1729,1730],"product_part_id":[2,3,4,5],"remind_type":["timely    ","timely    ","timely    ","timely    "],"timely_date":["2020-08-04","2020-08-04","2020-08-04","2020-08-04"],"CustID":"7659d02551559217"},"4":{"token":"3b513d34-7f30-4c4d-b6dc-f157a929e733","part_notification":["\u0e01\u0e23\u0e2d\u0e07\u0e17\u0e35\u0e48 1 (First Filter)"],"part_notification_id":[4584],"product_part_id":[6],"remind_type":["lately    "],"timely_date":["2020-07-20"],"CustID":"486e4d690e4a6ff2"}}
2020-08-04 11:00:01 data : {"0":{"token":"c79b5fa2-9d0f-4fe1-b3c6-c2b9bdef759f","part_notification":["\u0e01\u0e23\u0e2d\u0e07\u0e17\u0e35\u0e48 2 (Double Filter)","\u0e01\u0e23\u0e2d\u0e07\u0e17\u0e35\u0e48 3 (Double Filter)","\u0e01\u0e23\u0e2d\u0e07\u0e17\u0e35\u0e48 4 (Extractor)","\u0e01\u0e23\u0e2d\u0e07\u0e17\u0e35\u0e48 5 (Purified Filter)"],"part_notification_id":[1727,1728,1729,1730],"product_part_id":[2,3,4,5],"remind_type":["timely    ","timely    ","timely    ","timely    "],"timely_date":["2020-08-04","2020-08-04","2020-08-04","2020-08-04"],"CustID":"7659d02551559217"},"4":{"token":"3b513d34-7f30-4c4d-b6dc-f157a929e733","part_notification":["\u0e01\u0e23\u0e2d\u0e07\u0e17\u0e35\u0e48 1 (First Filter)"],"part_notification_id":[4584],"product_part_id":[6],"remind_type":["lately    "],"timely_date":["2020-07-20"],"CustID":"486e4d690e4a6ff2"}}
2020-08-04 11:00:01 data : {"0":{"token":"c79b5fa2-9d0f-4fe1-b3c6-c2b9bdef759f","part_notification":["\u0e01\u0e23\u0e2d\u0e07\u0e17\u0e35\u0e48 2 (Double Filter)","\u0e01\u0e23\u0e2d\u0e07\u0e17\u0e35\u0e48 3 (Double Filter)","\u0e01\u0e23\u0e2d\u0e07\u0e17\u0e35\u0e48 4 (Extractor)","\u0e01\u0e23\u0e2d\u0e07\u0e17\u0e35\u0e48 5 (Purified Filter)"],"part_notification_id":[1727,1728,1729,1730],"product_part_id":[2,3,4,5],"remind_type":["timely    ","timely    ","timely    ","timely    "],"timely_date":["2020-08-04","2020-08-04","2020-08-04","2020-08-04"],"CustID":"7659d02551559217"},"4":{"token":"3b513d34-7f30-4c4d-b6dc-f157a929e733","part_notification":["\u0e01\u0e23\u0e2d\u0e07\u0e17\u0e35\u0e48 1 (First Filter)"],"part_notification_id":[4584],"product_part_id":[6],"remind_type":["lately    "],"timely_date":["2020-07-20"],"CustID":"486e4d690e4a6ff2"}}
