2020-04-18 10:00:02 data : {"0":{"token":"e54329e2-1b4d-4365-867b-9ddca85c0bcb","part_notification":["\u0e01\u0e23\u0e2d\u0e07\u0e17\u0e35\u0e48 2 (Double Filter)","\u0e01\u0e23\u0e2d\u0e07\u0e17\u0e35\u0e48 3 (Double Filter)","\u0e01\u0e23\u0e2d\u0e07\u0e17\u0e35\u0e48 4 (Extractor)","\u0e01\u0e23\u0e2d\u0e07\u0e17\u0e35\u0e48 5 (Purified Filter)"],"part_notification_id":[462,463,464,465],"product_part_id":[2,3,4,5],"remind_type":["timely    ","timely    ","timely    ","timely    "],"timely_date":["2020-04-18","2020-04-18","2020-04-18","2020-04-18"],"CustID":"966f9353e245f55f"},"4":{"token":"f758b28e-62bb-4cd3-ae83-a1cbf5929530","part_notification":["\u0e01\u0e23\u0e2d\u0e07\u0e17\u0e35\u0e48 1 (First Filter)"],"part_notification_id":[1731],"product_part_id":[1],"remind_type":["timely    "],"timely_date":["2020-04-18"],"CustID":"d4eab2c6181f817b"},"5":{"token":null,"part_notification":["\u0e01\u0e23\u0e2d\u0e07\u0e17\u0e35\u0e48 1 (First Filter)","\u0e01\u0e23\u0e2d\u0e07\u0e17\u0e35\u0e48 1 (First Filter)"],"part_notification_id":[4131,4136],"product_part_id":[1,6],"remind_type":["early     ","early     "],"timely_date":["2020-04-21","2020-04-21"],"CustID":"d4dfd332168d5718"}}
2020-04-18 10:00:02 data : {"0":{"token":"e54329e2-1b4d-4365-867b-9ddca85c0bcb","part_notification":["\u0e01\u0e23\u0e2d\u0e07\u0e17\u0e35\u0e48 2 (Double Filter)","\u0e01\u0e23\u0e2d\u0e07\u0e17\u0e35\u0e48 3 (Double Filter)","\u0e01\u0e23\u0e2d\u0e07\u0e17\u0e35\u0e48 4 (Extractor)","\u0e01\u0e23\u0e2d\u0e07\u0e17\u0e35\u0e48 5 (Purified Filter)"],"part_notification_id":[462,463,464,465],"product_part_id":[2,3,4,5],"remind_type":["timely    ","timely    ","timely    ","timely    "],"timely_date":["2020-04-18","2020-04-18","2020-04-18","2020-04-18"],"CustID":"966f9353e245f55f"},"4":{"token":"f758b28e-62bb-4cd3-ae83-a1cbf5929530","part_notification":["\u0e01\u0e23\u0e2d\u0e07\u0e17\u0e35\u0e48 1 (First Filter)"],"part_notification_id":[1731],"product_part_id":[1],"remind_type":["timely    "],"timely_date":["2020-04-18"],"CustID":"d4eab2c6181f817b"},"5":{"token":null,"part_notification":["\u0e01\u0e23\u0e2d\u0e07\u0e17\u0e35\u0e48 1 (First Filter)","\u0e01\u0e23\u0e2d\u0e07\u0e17\u0e35\u0e48 1 (First Filter)"],"part_notification_id":[4131,4136],"product_part_id":[1,6],"remind_type":["early     ","early     "],"timely_date":["2020-04-21","2020-04-21"],"CustID":"d4dfd332168d5718"}}
2020-04-18 10:00:02 data : {"0":{"token":"e54329e2-1b4d-4365-867b-9ddca85c0bcb","part_notification":["\u0e01\u0e23\u0e2d\u0e07\u0e17\u0e35\u0e48 2 (Double Filter)","\u0e01\u0e23\u0e2d\u0e07\u0e17\u0e35\u0e48 3 (Double Filter)","\u0e01\u0e23\u0e2d\u0e07\u0e17\u0e35\u0e48 4 (Extractor)","\u0e01\u0e23\u0e2d\u0e07\u0e17\u0e35\u0e48 5 (Purified Filter)"],"part_notification_id":[462,463,464,465],"product_part_id":[2,3,4,5],"remind_type":["timely    ","timely    ","timely    ","timely    "],"timely_date":["2020-04-18","2020-04-18","2020-04-18","2020-04-18"],"CustID":"966f9353e245f55f"},"4":{"token":"f758b28e-62bb-4cd3-ae83-a1cbf5929530","part_notification":["\u0e01\u0e23\u0e2d\u0e07\u0e17\u0e35\u0e48 1 (First Filter)"],"part_notification_id":[1731],"product_part_id":[1],"remind_type":["timely    "],"timely_date":["2020-04-18"],"CustID":"d4eab2c6181f817b"},"5":{"token":null,"part_notification":["\u0e01\u0e23\u0e2d\u0e07\u0e17\u0e35\u0e48 1 (First Filter)","\u0e01\u0e23\u0e2d\u0e07\u0e17\u0e35\u0e48 1 (First Filter)"],"part_notification_id":[4131,4136],"product_part_id":[1,6],"remind_type":["early     ","early     "],"timely_date":["2020-04-21","2020-04-21"],"CustID":"d4dfd332168d5718"}}
2020-04-18 10:00:02 data : {"0":{"token":"e54329e2-1b4d-4365-867b-9ddca85c0bcb","part_notification":["\u0e01\u0e23\u0e2d\u0e07\u0e17\u0e35\u0e48 2 (Double Filter)","\u0e01\u0e23\u0e2d\u0e07\u0e17\u0e35\u0e48 3 (Double Filter)","\u0e01\u0e23\u0e2d\u0e07\u0e17\u0e35\u0e48 4 (Extractor)","\u0e01\u0e23\u0e2d\u0e07\u0e17\u0e35\u0e48 5 (Purified Filter)"],"part_notification_id":[462,463,464,465],"product_part_id":[2,3,4,5],"remind_type":["timely    ","timely    ","timely    ","timely    "],"timely_date":["2020-04-18","2020-04-18","2020-04-18","2020-04-18"],"CustID":"966f9353e245f55f"},"4":{"token":"f758b28e-62bb-4cd3-ae83-a1cbf5929530","part_notification":["\u0e01\u0e23\u0e2d\u0e07\u0e17\u0e35\u0e48 1 (First Filter)"],"part_notification_id":[1731],"product_part_id":[1],"remind_type":["timely    "],"timely_date":["2020-04-18"],"CustID":"d4eab2c6181f817b"},"5":{"token":null,"part_notification":["\u0e01\u0e23\u0e2d\u0e07\u0e17\u0e35\u0e48 1 (First Filter)","\u0e01\u0e23\u0e2d\u0e07\u0e17\u0e35\u0e48 1 (First Filter)"],"part_notification_id":[4131,4136],"product_part_id":[1,6],"remind_type":["early     ","early     "],"timely_date":["2020-04-21","2020-04-21"],"CustID":"d4dfd332168d5718"}}
