2019-11-28 08:00:02 data : {"0":{"token":"742dd44f-5f54-48d9-b4c5-a628ceb3e73e","part_notification":["\u0e01\u0e23\u0e2d\u0e07\u0e17\u0e35\u0e48 2 (Double Filter)","\u0e01\u0e23\u0e2d\u0e07\u0e17\u0e35\u0e48 3 (Double Filter)","\u0e01\u0e23\u0e2d\u0e07\u0e17\u0e35\u0e48 4 (Extractor)","\u0e01\u0e23\u0e2d\u0e07\u0e17\u0e35\u0e48 5 (Purified Filter)"],"part_notification_id":[1152,1153,1154,1155],"product_part_id":[2,3,4,5],"remind_type":["early     ","early     ","early     ","early     "],"timely_date":["2019-12-01","2019-12-01","2019-12-01","2019-12-01"],"CustID":"a06499f46c551331"},"4":{"token":"8720695b-b09b-4026-99ae-f36c4bc61478","part_notification":["\u0e01\u0e23\u0e2d\u0e07\u0e17\u0e35\u0e48 1 (First Filter)"],"part_notification_id":[3435],"product_part_id":[6],"remind_type":["early     "],"timely_date":["2019-12-01"],"CustID":"565852441fd7b011"}}
2019-11-28 08:00:02 data : {"0":{"token":"742dd44f-5f54-48d9-b4c5-a628ceb3e73e","part_notification":["\u0e01\u0e23\u0e2d\u0e07\u0e17\u0e35\u0e48 2 (Double Filter)","\u0e01\u0e23\u0e2d\u0e07\u0e17\u0e35\u0e48 3 (Double Filter)","\u0e01\u0e23\u0e2d\u0e07\u0e17\u0e35\u0e48 4 (Extractor)","\u0e01\u0e23\u0e2d\u0e07\u0e17\u0e35\u0e48 5 (Purified Filter)"],"part_notification_id":[1152,1153,1154,1155],"product_part_id":[2,3,4,5],"remind_type":["early     ","early     ","early     ","early     "],"timely_date":["2019-12-01","2019-12-01","2019-12-01","2019-12-01"],"CustID":"a06499f46c551331"},"4":{"token":"8720695b-b09b-4026-99ae-f36c4bc61478","part_notification":["\u0e01\u0e23\u0e2d\u0e07\u0e17\u0e35\u0e48 1 (First Filter)"],"part_notification_id":[3435],"product_part_id":[6],"remind_type":["early     "],"timely_date":["2019-12-01"],"CustID":"565852441fd7b011"}}
2019-11-28 08:00:02 data : {"0":{"token":"742dd44f-5f54-48d9-b4c5-a628ceb3e73e","part_notification":["\u0e01\u0e23\u0e2d\u0e07\u0e17\u0e35\u0e48 2 (Double Filter)","\u0e01\u0e23\u0e2d\u0e07\u0e17\u0e35\u0e48 3 (Double Filter)","\u0e01\u0e23\u0e2d\u0e07\u0e17\u0e35\u0e48 4 (Extractor)","\u0e01\u0e23\u0e2d\u0e07\u0e17\u0e35\u0e48 5 (Purified Filter)"],"part_notification_id":[1152,1153,1154,1155],"product_part_id":[2,3,4,5],"remind_type":["early     ","early     ","early     ","early     "],"timely_date":["2019-12-01","2019-12-01","2019-12-01","2019-12-01"],"CustID":"a06499f46c551331"},"4":{"token":"8720695b-b09b-4026-99ae-f36c4bc61478","part_notification":["\u0e01\u0e23\u0e2d\u0e07\u0e17\u0e35\u0e48 1 (First Filter)"],"part_notification_id":[3435],"product_part_id":[6],"remind_type":["early     "],"timely_date":["2019-12-01"],"CustID":"565852441fd7b011"}}
2019-11-28 08:00:02 data : {"0":{"token":"742dd44f-5f54-48d9-b4c5-a628ceb3e73e","part_notification":["\u0e01\u0e23\u0e2d\u0e07\u0e17\u0e35\u0e48 2 (Double Filter)","\u0e01\u0e23\u0e2d\u0e07\u0e17\u0e35\u0e48 3 (Double Filter)","\u0e01\u0e23\u0e2d\u0e07\u0e17\u0e35\u0e48 4 (Extractor)","\u0e01\u0e23\u0e2d\u0e07\u0e17\u0e35\u0e48 5 (Purified Filter)"],"part_notification_id":[1152,1153,1154,1155],"product_part_id":[2,3,4,5],"remind_type":["early     ","early     ","early     ","early     "],"timely_date":["2019-12-01","2019-12-01","2019-12-01","2019-12-01"],"CustID":"a06499f46c551331"},"4":{"token":"8720695b-b09b-4026-99ae-f36c4bc61478","part_notification":["\u0e01\u0e23\u0e2d\u0e07\u0e17\u0e35\u0e48 1 (First Filter)"],"part_notification_id":[3435],"product_part_id":[6],"remind_type":["early     "],"timely_date":["2019-12-01"],"CustID":"565852441fd7b011"}}
2019-11-28 08:00:02 data : {"0":{"token":"742dd44f-5f54-48d9-b4c5-a628ceb3e73e","part_notification":["\u0e01\u0e23\u0e2d\u0e07\u0e17\u0e35\u0e48 2 (Double Filter)","\u0e01\u0e23\u0e2d\u0e07\u0e17\u0e35\u0e48 3 (Double Filter)","\u0e01\u0e23\u0e2d\u0e07\u0e17\u0e35\u0e48 4 (Extractor)","\u0e01\u0e23\u0e2d\u0e07\u0e17\u0e35\u0e48 5 (Purified Filter)"],"part_notification_id":[1152,1153,1154,1155],"product_part_id":[2,3,4,5],"remind_type":["early     ","early     ","early     ","early     "],"timely_date":["2019-12-01","2019-12-01","2019-12-01","2019-12-01"],"CustID":"a06499f46c551331"},"4":{"token":"8720695b-b09b-4026-99ae-f36c4bc61478","part_notification":["\u0e01\u0e23\u0e2d\u0e07\u0e17\u0e35\u0e48 1 (First Filter)"],"part_notification_id":[3435],"product_part_id":[6],"remind_type":["early     "],"timely_date":["2019-12-01"],"CustID":"565852441fd7b011"}}
