2020-05-06 14:00:02 data : [{"token":"123411b6-9bb3-412c-9530-ffa94f33166c","part_notification":["\u0e01\u0e23\u0e2d\u0e07\u0e17\u0e35\u0e48 2 (Double Filter)","\u0e01\u0e23\u0e2d\u0e07\u0e17\u0e35\u0e48 3 (Double Filter)","\u0e01\u0e23\u0e2d\u0e07\u0e17\u0e35\u0e48 4 (Extractor)","\u0e01\u0e23\u0e2d\u0e07\u0e17\u0e35\u0e48 5 (Purified Filter)"],"part_notification_id":[1372,1373,1374,1375],"product_part_id":[2,3,4,5],"remind_type":["lately    ","lately    ","lately    ","lately    "],"timely_date":["2020-04-21","2020-04-21","2020-04-21","2020-04-21"],"CustID":"fac9476a88be7b2a"}]
2020-05-06 14:00:02 data : [{"token":"123411b6-9bb3-412c-9530-ffa94f33166c","part_notification":["\u0e01\u0e23\u0e2d\u0e07\u0e17\u0e35\u0e48 2 (Double Filter)","\u0e01\u0e23\u0e2d\u0e07\u0e17\u0e35\u0e48 3 (Double Filter)","\u0e01\u0e23\u0e2d\u0e07\u0e17\u0e35\u0e48 4 (Extractor)","\u0e01\u0e23\u0e2d\u0e07\u0e17\u0e35\u0e48 5 (Purified Filter)"],"part_notification_id":[1372,1373,1374,1375],"product_part_id":[2,3,4,5],"remind_type":["lately    ","lately    ","lately    ","lately    "],"timely_date":["2020-04-21","2020-04-21","2020-04-21","2020-04-21"],"CustID":"fac9476a88be7b2a"}]
2020-05-06 14:00:02 data : [{"token":"123411b6-9bb3-412c-9530-ffa94f33166c","part_notification":["\u0e01\u0e23\u0e2d\u0e07\u0e17\u0e35\u0e48 2 (Double Filter)","\u0e01\u0e23\u0e2d\u0e07\u0e17\u0e35\u0e48 3 (Double Filter)","\u0e01\u0e23\u0e2d\u0e07\u0e17\u0e35\u0e48 4 (Extractor)","\u0e01\u0e23\u0e2d\u0e07\u0e17\u0e35\u0e48 5 (Purified Filter)"],"part_notification_id":[1372,1373,1374,1375],"product_part_id":[2,3,4,5],"remind_type":["lately    ","lately    ","lately    ","lately    "],"timely_date":["2020-04-21","2020-04-21","2020-04-21","2020-04-21"],"CustID":"fac9476a88be7b2a"}]
2020-05-06 14:00:02 data : [{"token":"123411b6-9bb3-412c-9530-ffa94f33166c","part_notification":["\u0e01\u0e23\u0e2d\u0e07\u0e17\u0e35\u0e48 2 (Double Filter)","\u0e01\u0e23\u0e2d\u0e07\u0e17\u0e35\u0e48 3 (Double Filter)","\u0e01\u0e23\u0e2d\u0e07\u0e17\u0e35\u0e48 4 (Extractor)","\u0e01\u0e23\u0e2d\u0e07\u0e17\u0e35\u0e48 5 (Purified Filter)"],"part_notification_id":[1372,1373,1374,1375],"product_part_id":[2,3,4,5],"remind_type":["lately    ","lately    ","lately    ","lately    "],"timely_date":["2020-04-21","2020-04-21","2020-04-21","2020-04-21"],"CustID":"fac9476a88be7b2a"}]
