2020-10-15 08:00:01 data : [{"token":"f0315d21-5951-41fe-8adb-0045d1dcd289","part_notification":["\u0e01\u0e23\u0e2d\u0e07\u0e17\u0e35\u0e48 1 (First Filter)"],"part_notification_id":[3259],"product_part_id":[1],"remind_type":["early     "],"timely_date":["2020-10-15"],"CustID":"ee138ec85f8db7b8"},{"token":"1f2bd09f-8a17-44af-a7aa-bc902ec5d034","part_notification":["\u0e01\u0e23\u0e2d\u0e07\u0e17\u0e35\u0e48 1 (First Filter)"],"part_notification_id":[4864],"product_part_id":[6],"remind_type":["lately    "],"timely_date":["2020-09-30"],"CustID":"9936843684deb4b3"},{"token":"39bdc925-1f01-43a1-ab5c-fcba76d9414b","part_notification":["\u0e01\u0e23\u0e2d\u0e07\u0e17\u0e35\u0e48 1 (First Filter)"],"part_notification_id":[4868],"product_part_id":[1],"remind_type":["lately    "],"timely_date":["2020-09-30"],"CustID":"4183c0cfcbddc89f"}]
2020-10-15 08:00:01 data : [{"token":"f0315d21-5951-41fe-8adb-0045d1dcd289","part_notification":["\u0e01\u0e23\u0e2d\u0e07\u0e17\u0e35\u0e48 1 (First Filter)"],"part_notification_id":[3259],"product_part_id":[1],"remind_type":["early     "],"timely_date":["2020-10-15"],"CustID":"ee138ec85f8db7b8"},{"token":"1f2bd09f-8a17-44af-a7aa-bc902ec5d034","part_notification":["\u0e01\u0e23\u0e2d\u0e07\u0e17\u0e35\u0e48 1 (First Filter)"],"part_notification_id":[4864],"product_part_id":[6],"remind_type":["lately    "],"timely_date":["2020-09-30"],"CustID":"9936843684deb4b3"},{"token":"39bdc925-1f01-43a1-ab5c-fcba76d9414b","part_notification":["\u0e01\u0e23\u0e2d\u0e07\u0e17\u0e35\u0e48 1 (First Filter)"],"part_notification_id":[4868],"product_part_id":[1],"remind_type":["lately    "],"timely_date":["2020-09-30"],"CustID":"4183c0cfcbddc89f"}]
2020-10-15 08:00:01 data : [{"token":"f0315d21-5951-41fe-8adb-0045d1dcd289","part_notification":["\u0e01\u0e23\u0e2d\u0e07\u0e17\u0e35\u0e48 1 (First Filter)"],"part_notification_id":[3259],"product_part_id":[1],"remind_type":["early     "],"timely_date":["2020-10-15"],"CustID":"ee138ec85f8db7b8"},{"token":"1f2bd09f-8a17-44af-a7aa-bc902ec5d034","part_notification":["\u0e01\u0e23\u0e2d\u0e07\u0e17\u0e35\u0e48 1 (First Filter)"],"part_notification_id":[4864],"product_part_id":[6],"remind_type":["lately    "],"timely_date":["2020-09-30"],"CustID":"9936843684deb4b3"},{"token":"39bdc925-1f01-43a1-ab5c-fcba76d9414b","part_notification":["\u0e01\u0e23\u0e2d\u0e07\u0e17\u0e35\u0e48 1 (First Filter)"],"part_notification_id":[4868],"product_part_id":[1],"remind_type":["lately    "],"timely_date":["2020-09-30"],"CustID":"4183c0cfcbddc89f"}]
