2019-03-23 08:00:02 data : [{"token":"ded436fb-f8b5-476c-b25c-e1d402862e94","part_notification":["\u0e01\u0e23\u0e2d\u0e07\u0e17\u0e35\u0e48 1 (First Filter)"],"part_notification_id":[2026],"product_part_id":[1],"remind_type":["lately    "],"timely_date":["2019-03-08"],"CustID":"20de6a8a0fd55172"},{"token":"34c5c70e-77fe-4693-b51d-9bcde8324e6b","part_notification":["\u0e01\u0e23\u0e2d\u0e07\u0e17\u0e35\u0e48 1 (First Filter)"],"part_notification_id":[2201],"product_part_id":[1],"remind_type":["early     "],"timely_date":["2019-03-26"],"CustID":"3f2b63dc31c0a6c3"},{"token":"","part_notification":["\u0e01\u0e23\u0e2d\u0e07\u0e17\u0e35\u0e48 1 (First Filter)"],"part_notification_id":[2206],"product_part_id":[1],"remind_type":["early     "],"timely_date":["2019-03-26"],"CustID":"a332e1443a83ed2b"},{"token":"20985e58-9980-4624-b626-00e9721ea4ab","part_notification":["\u0e01\u0e23\u0e2d\u0e07\u0e17\u0e35\u0e48 1 (First Filter)"],"part_notification_id":[2211],"product_part_id":[1],"remind_type":["early     "],"timely_date":["2019-03-26"],"CustID":"5ece2bca26ed954"},{"token":"8771ce90-2893-42fa-b7bf-8d704ed4d4c9","part_notification":["\u0e01\u0e23\u0e2d\u0e07\u0e17\u0e35\u0e48 1 (First Filter)"],"part_notification_id":[2216],"product_part_id":[1],"remind_type":["early     "],"timely_date":["2019-03-26"],"CustID":"513a3d400ef597eb"},{"token":"f530d96e-183b-47fd-be67-b17f86ced034","part_notification":["\u0e01\u0e23\u0e2d\u0e07\u0e17\u0e35\u0e48 1 (First Filter)"],"part_notification_id":[2221],"product_part_id":[1],"remind_type":["early     "],"timely_date":["2019-03-26"],"CustID":"b85fcd98884233b2"}]
2019-03-23 08:00:02 data : [{"token":"ded436fb-f8b5-476c-b25c-e1d402862e94","part_notification":["\u0e01\u0e23\u0e2d\u0e07\u0e17\u0e35\u0e48 1 (First Filter)"],"part_notification_id":[2026],"product_part_id":[1],"remind_type":["lately    "],"timely_date":["2019-03-08"],"CustID":"20de6a8a0fd55172"},{"token":"34c5c70e-77fe-4693-b51d-9bcde8324e6b","part_notification":["\u0e01\u0e23\u0e2d\u0e07\u0e17\u0e35\u0e48 1 (First Filter)"],"part_notification_id":[2201],"product_part_id":[1],"remind_type":["early     "],"timely_date":["2019-03-26"],"CustID":"3f2b63dc31c0a6c3"},{"token":"","part_notification":["\u0e01\u0e23\u0e2d\u0e07\u0e17\u0e35\u0e48 1 (First Filter)"],"part_notification_id":[2206],"product_part_id":[1],"remind_type":["early     "],"timely_date":["2019-03-26"],"CustID":"a332e1443a83ed2b"},{"token":"20985e58-9980-4624-b626-00e9721ea4ab","part_notification":["\u0e01\u0e23\u0e2d\u0e07\u0e17\u0e35\u0e48 1 (First Filter)"],"part_notification_id":[2211],"product_part_id":[1],"remind_type":["early     "],"timely_date":["2019-03-26"],"CustID":"5ece2bca26ed954"},{"token":"8771ce90-2893-42fa-b7bf-8d704ed4d4c9","part_notification":["\u0e01\u0e23\u0e2d\u0e07\u0e17\u0e35\u0e48 1 (First Filter)"],"part_notification_id":[2216],"product_part_id":[1],"remind_type":["early     "],"timely_date":["2019-03-26"],"CustID":"513a3d400ef597eb"},{"token":"f530d96e-183b-47fd-be67-b17f86ced034","part_notification":["\u0e01\u0e23\u0e2d\u0e07\u0e17\u0e35\u0e48 1 (First Filter)"],"part_notification_id":[2221],"product_part_id":[1],"remind_type":["early     "],"timely_date":["2019-03-26"],"CustID":"b85fcd98884233b2"}]
2019-03-23 08:00:02 data : [{"token":"ded436fb-f8b5-476c-b25c-e1d402862e94","part_notification":["\u0e01\u0e23\u0e2d\u0e07\u0e17\u0e35\u0e48 1 (First Filter)"],"part_notification_id":[2026],"product_part_id":[1],"remind_type":["lately    "],"timely_date":["2019-03-08"],"CustID":"20de6a8a0fd55172"},{"token":"34c5c70e-77fe-4693-b51d-9bcde8324e6b","part_notification":["\u0e01\u0e23\u0e2d\u0e07\u0e17\u0e35\u0e48 1 (First Filter)"],"part_notification_id":[2201],"product_part_id":[1],"remind_type":["early     "],"timely_date":["2019-03-26"],"CustID":"3f2b63dc31c0a6c3"},{"token":"","part_notification":["\u0e01\u0e23\u0e2d\u0e07\u0e17\u0e35\u0e48 1 (First Filter)"],"part_notification_id":[2206],"product_part_id":[1],"remind_type":["early     "],"timely_date":["2019-03-26"],"CustID":"a332e1443a83ed2b"},{"token":"20985e58-9980-4624-b626-00e9721ea4ab","part_notification":["\u0e01\u0e23\u0e2d\u0e07\u0e17\u0e35\u0e48 1 (First Filter)"],"part_notification_id":[2211],"product_part_id":[1],"remind_type":["early     "],"timely_date":["2019-03-26"],"CustID":"5ece2bca26ed954"},{"token":"8771ce90-2893-42fa-b7bf-8d704ed4d4c9","part_notification":["\u0e01\u0e23\u0e2d\u0e07\u0e17\u0e35\u0e48 1 (First Filter)"],"part_notification_id":[2216],"product_part_id":[1],"remind_type":["early     "],"timely_date":["2019-03-26"],"CustID":"513a3d400ef597eb"},{"token":"f530d96e-183b-47fd-be67-b17f86ced034","part_notification":["\u0e01\u0e23\u0e2d\u0e07\u0e17\u0e35\u0e48 1 (First Filter)"],"part_notification_id":[2221],"product_part_id":[1],"remind_type":["early     "],"timely_date":["2019-03-26"],"CustID":"b85fcd98884233b2"}]
2019-03-23 08:00:02 data : [{"token":"ded436fb-f8b5-476c-b25c-e1d402862e94","part_notification":["\u0e01\u0e23\u0e2d\u0e07\u0e17\u0e35\u0e48 1 (First Filter)"],"part_notification_id":[2026],"product_part_id":[1],"remind_type":["lately    "],"timely_date":["2019-03-08"],"CustID":"20de6a8a0fd55172"},{"token":"34c5c70e-77fe-4693-b51d-9bcde8324e6b","part_notification":["\u0e01\u0e23\u0e2d\u0e07\u0e17\u0e35\u0e48 1 (First Filter)"],"part_notification_id":[2201],"product_part_id":[1],"remind_type":["early     "],"timely_date":["2019-03-26"],"CustID":"3f2b63dc31c0a6c3"},{"token":"","part_notification":["\u0e01\u0e23\u0e2d\u0e07\u0e17\u0e35\u0e48 1 (First Filter)"],"part_notification_id":[2206],"product_part_id":[1],"remind_type":["early     "],"timely_date":["2019-03-26"],"CustID":"a332e1443a83ed2b"},{"token":"20985e58-9980-4624-b626-00e9721ea4ab","part_notification":["\u0e01\u0e23\u0e2d\u0e07\u0e17\u0e35\u0e48 1 (First Filter)"],"part_notification_id":[2211],"product_part_id":[1],"remind_type":["early     "],"timely_date":["2019-03-26"],"CustID":"5ece2bca26ed954"},{"token":"8771ce90-2893-42fa-b7bf-8d704ed4d4c9","part_notification":["\u0e01\u0e23\u0e2d\u0e07\u0e17\u0e35\u0e48 1 (First Filter)"],"part_notification_id":[2216],"product_part_id":[1],"remind_type":["early     "],"timely_date":["2019-03-26"],"CustID":"513a3d400ef597eb"},{"token":"f530d96e-183b-47fd-be67-b17f86ced034","part_notification":["\u0e01\u0e23\u0e2d\u0e07\u0e17\u0e35\u0e48 1 (First Filter)"],"part_notification_id":[2221],"product_part_id":[1],"remind_type":["early     "],"timely_date":["2019-03-26"],"CustID":"b85fcd98884233b2"}]
