2020-12-30 09:00:01 data : {"0":{"token":"","part_notification":["\u0e01\u0e23\u0e2d\u0e07\u0e17\u0e35\u0e48 2 (Double Filter)","\u0e01\u0e23\u0e2d\u0e07\u0e17\u0e35\u0e48 3 (Double Filter)","\u0e01\u0e23\u0e2d\u0e07\u0e17\u0e35\u0e48 4 (Extractor)","\u0e01\u0e23\u0e2d\u0e07\u0e17\u0e35\u0e48 5 (Purified Filter)","\u0e01\u0e23\u0e2d\u0e07\u0e17\u0e35\u0e48 1 (First Filter)"],"part_notification_id":[2842,2843,2844,2845,5691],"product_part_id":[2,3,4,5,1],"remind_type":["early     ","early     ","early     ","early     ","early     "],"timely_date":["2021-01-02","2021-01-02","2021-01-02","2021-01-02","2021-01-02"],"CustID":"68cf1f6aba6275d1"},"4":{"token":"44f43ff8-07eb-4064-a74a-401c9c4e21b1","part_notification":["\u0e01\u0e23\u0e2d\u0e07\u0e17\u0e35\u0e48 1 (First Filter)"],"part_notification_id":[3478],"product_part_id":[1],"remind_type":["timely    "],"timely_date":["2020-12-30"],"CustID":"dc95ac86bd841f36"},"5":{"token":"254939de-83e4-4e43-9d77-d4024ec148f5","part_notification":["\u0e01\u0e23\u0e2d\u0e07\u0e17\u0e35\u0e48 1 (First Filter)"],"part_notification_id":[5539],"product_part_id":[1],"remind_type":["lately    "],"timely_date":["2020-12-15"],"CustID":"6fc737adb699103f"}}
2020-12-30 09:00:01 data : {"0":{"token":"","part_notification":["\u0e01\u0e23\u0e2d\u0e07\u0e17\u0e35\u0e48 2 (Double Filter)","\u0e01\u0e23\u0e2d\u0e07\u0e17\u0e35\u0e48 3 (Double Filter)","\u0e01\u0e23\u0e2d\u0e07\u0e17\u0e35\u0e48 4 (Extractor)","\u0e01\u0e23\u0e2d\u0e07\u0e17\u0e35\u0e48 5 (Purified Filter)","\u0e01\u0e23\u0e2d\u0e07\u0e17\u0e35\u0e48 1 (First Filter)"],"part_notification_id":[2842,2843,2844,2845,5691],"product_part_id":[2,3,4,5,1],"remind_type":["early     ","early     ","early     ","early     ","early     "],"timely_date":["2021-01-02","2021-01-02","2021-01-02","2021-01-02","2021-01-02"],"CustID":"68cf1f6aba6275d1"},"4":{"token":"44f43ff8-07eb-4064-a74a-401c9c4e21b1","part_notification":["\u0e01\u0e23\u0e2d\u0e07\u0e17\u0e35\u0e48 1 (First Filter)"],"part_notification_id":[3478],"product_part_id":[1],"remind_type":["timely    "],"timely_date":["2020-12-30"],"CustID":"dc95ac86bd841f36"},"5":{"token":"254939de-83e4-4e43-9d77-d4024ec148f5","part_notification":["\u0e01\u0e23\u0e2d\u0e07\u0e17\u0e35\u0e48 1 (First Filter)"],"part_notification_id":[5539],"product_part_id":[1],"remind_type":["lately    "],"timely_date":["2020-12-15"],"CustID":"6fc737adb699103f"}}
2020-12-30 09:00:01 data : {"0":{"token":"","part_notification":["\u0e01\u0e23\u0e2d\u0e07\u0e17\u0e35\u0e48 2 (Double Filter)","\u0e01\u0e23\u0e2d\u0e07\u0e17\u0e35\u0e48 3 (Double Filter)","\u0e01\u0e23\u0e2d\u0e07\u0e17\u0e35\u0e48 4 (Extractor)","\u0e01\u0e23\u0e2d\u0e07\u0e17\u0e35\u0e48 5 (Purified Filter)","\u0e01\u0e23\u0e2d\u0e07\u0e17\u0e35\u0e48 1 (First Filter)"],"part_notification_id":[2842,2843,2844,2845,5691],"product_part_id":[2,3,4,5,1],"remind_type":["early     ","early     ","early     ","early     ","early     "],"timely_date":["2021-01-02","2021-01-02","2021-01-02","2021-01-02","2021-01-02"],"CustID":"68cf1f6aba6275d1"},"4":{"token":"44f43ff8-07eb-4064-a74a-401c9c4e21b1","part_notification":["\u0e01\u0e23\u0e2d\u0e07\u0e17\u0e35\u0e48 1 (First Filter)"],"part_notification_id":[3478],"product_part_id":[1],"remind_type":["timely    "],"timely_date":["2020-12-30"],"CustID":"dc95ac86bd841f36"},"5":{"token":"254939de-83e4-4e43-9d77-d4024ec148f5","part_notification":["\u0e01\u0e23\u0e2d\u0e07\u0e17\u0e35\u0e48 1 (First Filter)"],"part_notification_id":[5539],"product_part_id":[1],"remind_type":["lately    "],"timely_date":["2020-12-15"],"CustID":"6fc737adb699103f"}}
2020-12-30 09:00:01 data : {"0":{"token":"","part_notification":["\u0e01\u0e23\u0e2d\u0e07\u0e17\u0e35\u0e48 2 (Double Filter)","\u0e01\u0e23\u0e2d\u0e07\u0e17\u0e35\u0e48 3 (Double Filter)","\u0e01\u0e23\u0e2d\u0e07\u0e17\u0e35\u0e48 4 (Extractor)","\u0e01\u0e23\u0e2d\u0e07\u0e17\u0e35\u0e48 5 (Purified Filter)","\u0e01\u0e23\u0e2d\u0e07\u0e17\u0e35\u0e48 1 (First Filter)"],"part_notification_id":[2842,2843,2844,2845,5691],"product_part_id":[2,3,4,5,1],"remind_type":["early     ","early     ","early     ","early     ","early     "],"timely_date":["2021-01-02","2021-01-02","2021-01-02","2021-01-02","2021-01-02"],"CustID":"68cf1f6aba6275d1"},"4":{"token":"44f43ff8-07eb-4064-a74a-401c9c4e21b1","part_notification":["\u0e01\u0e23\u0e2d\u0e07\u0e17\u0e35\u0e48 1 (First Filter)"],"part_notification_id":[3478],"product_part_id":[1],"remind_type":["timely    "],"timely_date":["2020-12-30"],"CustID":"dc95ac86bd841f36"},"5":{"token":"254939de-83e4-4e43-9d77-d4024ec148f5","part_notification":["\u0e01\u0e23\u0e2d\u0e07\u0e17\u0e35\u0e48 1 (First Filter)"],"part_notification_id":[5539],"product_part_id":[1],"remind_type":["lately    "],"timely_date":["2020-12-15"],"CustID":"6fc737adb699103f"}}
2020-12-30 09:00:01 data : {"0":{"token":"","part_notification":["\u0e01\u0e23\u0e2d\u0e07\u0e17\u0e35\u0e48 2 (Double Filter)","\u0e01\u0e23\u0e2d\u0e07\u0e17\u0e35\u0e48 3 (Double Filter)","\u0e01\u0e23\u0e2d\u0e07\u0e17\u0e35\u0e48 4 (Extractor)","\u0e01\u0e23\u0e2d\u0e07\u0e17\u0e35\u0e48 5 (Purified Filter)","\u0e01\u0e23\u0e2d\u0e07\u0e17\u0e35\u0e48 1 (First Filter)"],"part_notification_id":[2842,2843,2844,2845,5691],"product_part_id":[2,3,4,5,1],"remind_type":["early     ","early     ","early     ","early     ","early     "],"timely_date":["2021-01-02","2021-01-02","2021-01-02","2021-01-02","2021-01-02"],"CustID":"68cf1f6aba6275d1"},"4":{"token":"44f43ff8-07eb-4064-a74a-401c9c4e21b1","part_notification":["\u0e01\u0e23\u0e2d\u0e07\u0e17\u0e35\u0e48 1 (First Filter)"],"part_notification_id":[3478],"product_part_id":[1],"remind_type":["timely    "],"timely_date":["2020-12-30"],"CustID":"dc95ac86bd841f36"},"5":{"token":"254939de-83e4-4e43-9d77-d4024ec148f5","part_notification":["\u0e01\u0e23\u0e2d\u0e07\u0e17\u0e35\u0e48 1 (First Filter)"],"part_notification_id":[5539],"product_part_id":[1],"remind_type":["lately    "],"timely_date":["2020-12-15"],"CustID":"6fc737adb699103f"}}
2020-12-30 09:00:01 data : {"0":{"token":"","part_notification":["\u0e01\u0e23\u0e2d\u0e07\u0e17\u0e35\u0e48 2 (Double Filter)","\u0e01\u0e23\u0e2d\u0e07\u0e17\u0e35\u0e48 3 (Double Filter)","\u0e01\u0e23\u0e2d\u0e07\u0e17\u0e35\u0e48 4 (Extractor)","\u0e01\u0e23\u0e2d\u0e07\u0e17\u0e35\u0e48 5 (Purified Filter)","\u0e01\u0e23\u0e2d\u0e07\u0e17\u0e35\u0e48 1 (First Filter)"],"part_notification_id":[2842,2843,2844,2845,5691],"product_part_id":[2,3,4,5,1],"remind_type":["early     ","early     ","early     ","early     ","early     "],"timely_date":["2021-01-02","2021-01-02","2021-01-02","2021-01-02","2021-01-02"],"CustID":"68cf1f6aba6275d1"},"4":{"token":"44f43ff8-07eb-4064-a74a-401c9c4e21b1","part_notification":["\u0e01\u0e23\u0e2d\u0e07\u0e17\u0e35\u0e48 1 (First Filter)"],"part_notification_id":[3478],"product_part_id":[1],"remind_type":["timely    "],"timely_date":["2020-12-30"],"CustID":"dc95ac86bd841f36"},"5":{"token":"254939de-83e4-4e43-9d77-d4024ec148f5","part_notification":["\u0e01\u0e23\u0e2d\u0e07\u0e17\u0e35\u0e48 1 (First Filter)"],"part_notification_id":[5539],"product_part_id":[1],"remind_type":["lately    "],"timely_date":["2020-12-15"],"CustID":"6fc737adb699103f"}}
