2019-03-19 08:00:01 data : [{"token":"d8e5c78a-3005-4091-9aea-041b414a3ea2","part_notification":["\u0e01\u0e23\u0e2d\u0e07\u0e17\u0e35\u0e48 1 (First Filter)"],"part_notification_id":[1981],"product_part_id":[1],"remind_type":["lately    "],"timely_date":["2019-03-04"],"CustID":"796da5b222d60544"},{"token":"2e7b630c-0447-45a4-833b-d49fa79fbc9e","part_notification":["\u0e01\u0e23\u0e2d\u0e07\u0e17\u0e35\u0e48 1 (First Filter)"],"part_notification_id":[1986],"product_part_id":[1],"remind_type":["lately    "],"timely_date":["2019-03-04"],"CustID":"340fc9ea351238e7"},{"token":"fe6df4d0-5b68-4829-b679-1d3b0f773323","part_notification":["\u0e01\u0e23\u0e2d\u0e07\u0e17\u0e35\u0e48 1 (First Filter)"],"part_notification_id":[1991],"product_part_id":[1],"remind_type":["lately    "],"timely_date":["2019-03-04"],"CustID":"7601c7eb0a4e6a33"}]
2019-03-19 08:00:01 data : [{"token":"d8e5c78a-3005-4091-9aea-041b414a3ea2","part_notification":["\u0e01\u0e23\u0e2d\u0e07\u0e17\u0e35\u0e48 1 (First Filter)"],"part_notification_id":[1981],"product_part_id":[1],"remind_type":["lately    "],"timely_date":["2019-03-04"],"CustID":"796da5b222d60544"},{"token":"2e7b630c-0447-45a4-833b-d49fa79fbc9e","part_notification":["\u0e01\u0e23\u0e2d\u0e07\u0e17\u0e35\u0e48 1 (First Filter)"],"part_notification_id":[1986],"product_part_id":[1],"remind_type":["lately    "],"timely_date":["2019-03-04"],"CustID":"340fc9ea351238e7"},{"token":"fe6df4d0-5b68-4829-b679-1d3b0f773323","part_notification":["\u0e01\u0e23\u0e2d\u0e07\u0e17\u0e35\u0e48 1 (First Filter)"],"part_notification_id":[1991],"product_part_id":[1],"remind_type":["lately    "],"timely_date":["2019-03-04"],"CustID":"7601c7eb0a4e6a33"}]
2019-03-19 08:00:01 data : [{"token":"d8e5c78a-3005-4091-9aea-041b414a3ea2","part_notification":["\u0e01\u0e23\u0e2d\u0e07\u0e17\u0e35\u0e48 1 (First Filter)"],"part_notification_id":[1981],"product_part_id":[1],"remind_type":["lately    "],"timely_date":["2019-03-04"],"CustID":"796da5b222d60544"},{"token":"2e7b630c-0447-45a4-833b-d49fa79fbc9e","part_notification":["\u0e01\u0e23\u0e2d\u0e07\u0e17\u0e35\u0e48 1 (First Filter)"],"part_notification_id":[1986],"product_part_id":[1],"remind_type":["lately    "],"timely_date":["2019-03-04"],"CustID":"340fc9ea351238e7"},{"token":"fe6df4d0-5b68-4829-b679-1d3b0f773323","part_notification":["\u0e01\u0e23\u0e2d\u0e07\u0e17\u0e35\u0e48 1 (First Filter)"],"part_notification_id":[1991],"product_part_id":[1],"remind_type":["lately    "],"timely_date":["2019-03-04"],"CustID":"7601c7eb0a4e6a33"}]
