2020-03-29 08:00:01 data : [{"token":"275a2f9a-c298-449b-9e9d-962b0d96ffd8","part_notification":["\u0e01\u0e23\u0e2d\u0e07\u0e17\u0e35\u0e48 1 (First Filter)"],"part_notification_id":[3086],"product_part_id":[1],"remind_type":["lately    "],"timely_date":["2020-03-14"],"CustID":"5e3c148e41750d2f"},{"token":"","part_notification":["\u0e01\u0e23\u0e2d\u0e07\u0e17\u0e35\u0e48 1 (First Filter)","\u0e01\u0e23\u0e2d\u0e07\u0e17\u0e35\u0e48 1 (First Filter)"],"part_notification_id":[3166,4010],"product_part_id":[1,1],"remind_type":["early     ","early     "],"timely_date":["2020-03-29","2020-04-01"],"CustID":"5abb393270e7dbfc"},{"token":"d9f4b54e-b49d-4e94-98fa-f28635684ae8","part_notification":["\u0e01\u0e23\u0e2d\u0e07\u0e17\u0e35\u0e48 1 (First Filter)"],"part_notification_id":[3898],"product_part_id":[6],"remind_type":["lately    "],"timely_date":["2020-03-14"],"CustID":"621924593dcdf0f2"}]
2020-03-29 08:00:01 data : [{"token":"275a2f9a-c298-449b-9e9d-962b0d96ffd8","part_notification":["\u0e01\u0e23\u0e2d\u0e07\u0e17\u0e35\u0e48 1 (First Filter)"],"part_notification_id":[3086],"product_part_id":[1],"remind_type":["lately    "],"timely_date":["2020-03-14"],"CustID":"5e3c148e41750d2f"},{"token":"","part_notification":["\u0e01\u0e23\u0e2d\u0e07\u0e17\u0e35\u0e48 1 (First Filter)","\u0e01\u0e23\u0e2d\u0e07\u0e17\u0e35\u0e48 1 (First Filter)"],"part_notification_id":[3166,4010],"product_part_id":[1,1],"remind_type":["early     ","early     "],"timely_date":["2020-03-29","2020-04-01"],"CustID":"5abb393270e7dbfc"},{"token":"d9f4b54e-b49d-4e94-98fa-f28635684ae8","part_notification":["\u0e01\u0e23\u0e2d\u0e07\u0e17\u0e35\u0e48 1 (First Filter)"],"part_notification_id":[3898],"product_part_id":[6],"remind_type":["lately    "],"timely_date":["2020-03-14"],"CustID":"621924593dcdf0f2"}]
2020-03-29 08:00:01 data : [{"token":"275a2f9a-c298-449b-9e9d-962b0d96ffd8","part_notification":["\u0e01\u0e23\u0e2d\u0e07\u0e17\u0e35\u0e48 1 (First Filter)"],"part_notification_id":[3086],"product_part_id":[1],"remind_type":["lately    "],"timely_date":["2020-03-14"],"CustID":"5e3c148e41750d2f"},{"token":"","part_notification":["\u0e01\u0e23\u0e2d\u0e07\u0e17\u0e35\u0e48 1 (First Filter)","\u0e01\u0e23\u0e2d\u0e07\u0e17\u0e35\u0e48 1 (First Filter)"],"part_notification_id":[3166,4010],"product_part_id":[1,1],"remind_type":["early     ","early     "],"timely_date":["2020-03-29","2020-04-01"],"CustID":"5abb393270e7dbfc"},{"token":"d9f4b54e-b49d-4e94-98fa-f28635684ae8","part_notification":["\u0e01\u0e23\u0e2d\u0e07\u0e17\u0e35\u0e48 1 (First Filter)"],"part_notification_id":[3898],"product_part_id":[6],"remind_type":["lately    "],"timely_date":["2020-03-14"],"CustID":"621924593dcdf0f2"}]
