2020-02-26 14:00:01 data : [{"token":null,"part_notification":["\u0e01\u0e23\u0e2d\u0e07\u0e17\u0e35\u0e48 2 (Double Filter)","\u0e01\u0e23\u0e2d\u0e07\u0e17\u0e35\u0e48 3 (Double Filter)","\u0e01\u0e23\u0e2d\u0e07\u0e17\u0e35\u0e48 4 (Extractor)","\u0e01\u0e23\u0e2d\u0e07\u0e17\u0e35\u0e48 5 (Purified Filter)"],"part_notification_id":[677,678,679,680],"product_part_id":[2,3,4,5],"remind_type":["early     ","early     ","early     ","early     "],"timely_date":["2020-02-29","2020-02-29","2020-02-29","2020-02-29"],"CustID":"a146f4f203e6bce7"}]
2020-02-26 14:00:01 data : [{"token":null,"part_notification":["\u0e01\u0e23\u0e2d\u0e07\u0e17\u0e35\u0e48 2 (Double Filter)","\u0e01\u0e23\u0e2d\u0e07\u0e17\u0e35\u0e48 3 (Double Filter)","\u0e01\u0e23\u0e2d\u0e07\u0e17\u0e35\u0e48 4 (Extractor)","\u0e01\u0e23\u0e2d\u0e07\u0e17\u0e35\u0e48 5 (Purified Filter)"],"part_notification_id":[677,678,679,680],"product_part_id":[2,3,4,5],"remind_type":["early     ","early     ","early     ","early     "],"timely_date":["2020-02-29","2020-02-29","2020-02-29","2020-02-29"],"CustID":"a146f4f203e6bce7"}]
2020-02-26 14:00:01 data : [{"token":null,"part_notification":["\u0e01\u0e23\u0e2d\u0e07\u0e17\u0e35\u0e48 2 (Double Filter)","\u0e01\u0e23\u0e2d\u0e07\u0e17\u0e35\u0e48 3 (Double Filter)","\u0e01\u0e23\u0e2d\u0e07\u0e17\u0e35\u0e48 4 (Extractor)","\u0e01\u0e23\u0e2d\u0e07\u0e17\u0e35\u0e48 5 (Purified Filter)"],"part_notification_id":[677,678,679,680],"product_part_id":[2,3,4,5],"remind_type":["early     ","early     ","early     ","early     "],"timely_date":["2020-02-29","2020-02-29","2020-02-29","2020-02-29"],"CustID":"a146f4f203e6bce7"}]
2020-02-26 14:00:01 data : [{"token":null,"part_notification":["\u0e01\u0e23\u0e2d\u0e07\u0e17\u0e35\u0e48 2 (Double Filter)","\u0e01\u0e23\u0e2d\u0e07\u0e17\u0e35\u0e48 3 (Double Filter)","\u0e01\u0e23\u0e2d\u0e07\u0e17\u0e35\u0e48 4 (Extractor)","\u0e01\u0e23\u0e2d\u0e07\u0e17\u0e35\u0e48 5 (Purified Filter)"],"part_notification_id":[677,678,679,680],"product_part_id":[2,3,4,5],"remind_type":["early     ","early     ","early     ","early     "],"timely_date":["2020-02-29","2020-02-29","2020-02-29","2020-02-29"],"CustID":"a146f4f203e6bce7"}]
