2020-08-18 08:00:03 data : [{"token":null,"part_notification":["\u0e01\u0e23\u0e2d\u0e07\u0e17\u0e35\u0e48 5 (Purified Filter)","\u0e01\u0e23\u0e2d\u0e07\u0e17\u0e35\u0e48 1 (First Filter)"],"part_notification_id":[1860,4759],"product_part_id":[5,1],"remind_type":["early     ","early     "],"timely_date":["2020-08-21","2020-08-21"],"CustID":"ec41f62a4b368d3"},{"token":"95ba9db4-d28f-495e-9005-cb1db530e902","part_notification":["\u0e01\u0e23\u0e2d\u0e07\u0e17\u0e35\u0e48 1 (First Filter)"],"part_notification_id":[2851],"product_part_id":[1],"remind_type":["early     "],"timely_date":["2020-08-18"],"CustID":"1ba81b48de48f5e8"},{"token":"4ca21c53-71fb-4520-92d8-a119b52002ba","part_notification":["\u0e01\u0e23\u0e2d\u0e07\u0e17\u0e35\u0e48 1 (First Filter)"],"part_notification_id":[4667],"product_part_id":[1],"remind_type":["lately    "],"timely_date":["2020-08-03"],"CustID":"5ba15f57fcfdfcc"},{"token":"bbee20e8-2f69-4e23-b209-1265db7b8b0a","part_notification":["\u0e01\u0e23\u0e2d\u0e07\u0e17\u0e35\u0e48 1 (First Filter)"],"part_notification_id":[4755],"product_part_id":[6],"remind_type":["early     "],"timely_date":["2020-08-21"],"CustID":"222f99a84b4c6325"}]
2020-08-18 08:00:03 data : [{"token":null,"part_notification":["\u0e01\u0e23\u0e2d\u0e07\u0e17\u0e35\u0e48 5 (Purified Filter)","\u0e01\u0e23\u0e2d\u0e07\u0e17\u0e35\u0e48 1 (First Filter)"],"part_notification_id":[1860,4759],"product_part_id":[5,1],"remind_type":["early     ","early     "],"timely_date":["2020-08-21","2020-08-21"],"CustID":"ec41f62a4b368d3"},{"token":"95ba9db4-d28f-495e-9005-cb1db530e902","part_notification":["\u0e01\u0e23\u0e2d\u0e07\u0e17\u0e35\u0e48 1 (First Filter)"],"part_notification_id":[2851],"product_part_id":[1],"remind_type":["early     "],"timely_date":["2020-08-18"],"CustID":"1ba81b48de48f5e8"},{"token":"4ca21c53-71fb-4520-92d8-a119b52002ba","part_notification":["\u0e01\u0e23\u0e2d\u0e07\u0e17\u0e35\u0e48 1 (First Filter)"],"part_notification_id":[4667],"product_part_id":[1],"remind_type":["lately    "],"timely_date":["2020-08-03"],"CustID":"5ba15f57fcfdfcc"},{"token":"bbee20e8-2f69-4e23-b209-1265db7b8b0a","part_notification":["\u0e01\u0e23\u0e2d\u0e07\u0e17\u0e35\u0e48 1 (First Filter)"],"part_notification_id":[4755],"product_part_id":[6],"remind_type":["early     "],"timely_date":["2020-08-21"],"CustID":"222f99a84b4c6325"}]
2020-08-18 08:00:03 data : [{"token":null,"part_notification":["\u0e01\u0e23\u0e2d\u0e07\u0e17\u0e35\u0e48 5 (Purified Filter)","\u0e01\u0e23\u0e2d\u0e07\u0e17\u0e35\u0e48 1 (First Filter)"],"part_notification_id":[1860,4759],"product_part_id":[5,1],"remind_type":["early     ","early     "],"timely_date":["2020-08-21","2020-08-21"],"CustID":"ec41f62a4b368d3"},{"token":"95ba9db4-d28f-495e-9005-cb1db530e902","part_notification":["\u0e01\u0e23\u0e2d\u0e07\u0e17\u0e35\u0e48 1 (First Filter)"],"part_notification_id":[2851],"product_part_id":[1],"remind_type":["early     "],"timely_date":["2020-08-18"],"CustID":"1ba81b48de48f5e8"},{"token":"4ca21c53-71fb-4520-92d8-a119b52002ba","part_notification":["\u0e01\u0e23\u0e2d\u0e07\u0e17\u0e35\u0e48 1 (First Filter)"],"part_notification_id":[4667],"product_part_id":[1],"remind_type":["lately    "],"timely_date":["2020-08-03"],"CustID":"5ba15f57fcfdfcc"},{"token":"bbee20e8-2f69-4e23-b209-1265db7b8b0a","part_notification":["\u0e01\u0e23\u0e2d\u0e07\u0e17\u0e35\u0e48 1 (First Filter)"],"part_notification_id":[4755],"product_part_id":[6],"remind_type":["early     "],"timely_date":["2020-08-21"],"CustID":"222f99a84b4c6325"}]
