2018-12-22 13:00:01 data : [{"token":"be785c87-3b69-4f49-a6a6-5bb61b87af3e","part_notification":["\u0e01\u0e23\u0e2d\u0e07\u0e17\u0e35\u0e48 1 (First Filter)"],"part_notification_id":[1396],"product_part_id":[1],"remind_type":["timely    "],"timely_date":["2018-12-22"],"CustID":"77b093fc9ad6c9c4"},{"token":"1ea3d11b-a8da-4fab-96fc-48a408401f05","part_notification":["\u0e01\u0e23\u0e2d\u0e07\u0e17\u0e35\u0e48 1 (First Filter)"],"part_notification_id":[1431],"product_part_id":[1],"remind_type":["early     "],"timely_date":["2018-12-25"],"CustID":"7a8cc5fc3794a855"},{"token":"","part_notification":["\u0e01\u0e23\u0e2d\u0e07\u0e17\u0e35\u0e48 1 (First Filter)","\u0e01\u0e23\u0e2d\u0e07\u0e17\u0e35\u0e48 1 (First Filter)"],"part_notification_id":[1436,1446],"product_part_id":[1,1],"remind_type":["early     ","early     "],"timely_date":["2018-12-25","2018-12-25"],"CustID":"d63e17014abfec5b"}]
2018-12-22 13:00:01 data : [{"token":"be785c87-3b69-4f49-a6a6-5bb61b87af3e","part_notification":["\u0e01\u0e23\u0e2d\u0e07\u0e17\u0e35\u0e48 1 (First Filter)"],"part_notification_id":[1396],"product_part_id":[1],"remind_type":["timely    "],"timely_date":["2018-12-22"],"CustID":"77b093fc9ad6c9c4"},{"token":"1ea3d11b-a8da-4fab-96fc-48a408401f05","part_notification":["\u0e01\u0e23\u0e2d\u0e07\u0e17\u0e35\u0e48 1 (First Filter)"],"part_notification_id":[1431],"product_part_id":[1],"remind_type":["early     "],"timely_date":["2018-12-25"],"CustID":"7a8cc5fc3794a855"},{"token":"","part_notification":["\u0e01\u0e23\u0e2d\u0e07\u0e17\u0e35\u0e48 1 (First Filter)","\u0e01\u0e23\u0e2d\u0e07\u0e17\u0e35\u0e48 1 (First Filter)"],"part_notification_id":[1436,1446],"product_part_id":[1,1],"remind_type":["early     ","early     "],"timely_date":["2018-12-25","2018-12-25"],"CustID":"d63e17014abfec5b"}]
2018-12-22 13:00:01 data : [{"token":"be785c87-3b69-4f49-a6a6-5bb61b87af3e","part_notification":["\u0e01\u0e23\u0e2d\u0e07\u0e17\u0e35\u0e48 1 (First Filter)"],"part_notification_id":[1396],"product_part_id":[1],"remind_type":["timely    "],"timely_date":["2018-12-22"],"CustID":"77b093fc9ad6c9c4"},{"token":"1ea3d11b-a8da-4fab-96fc-48a408401f05","part_notification":["\u0e01\u0e23\u0e2d\u0e07\u0e17\u0e35\u0e48 1 (First Filter)"],"part_notification_id":[1431],"product_part_id":[1],"remind_type":["early     "],"timely_date":["2018-12-25"],"CustID":"7a8cc5fc3794a855"},{"token":"","part_notification":["\u0e01\u0e23\u0e2d\u0e07\u0e17\u0e35\u0e48 1 (First Filter)","\u0e01\u0e23\u0e2d\u0e07\u0e17\u0e35\u0e48 1 (First Filter)"],"part_notification_id":[1436,1446],"product_part_id":[1,1],"remind_type":["early     ","early     "],"timely_date":["2018-12-25","2018-12-25"],"CustID":"d63e17014abfec5b"}]
