2019-03-18 13:00:01 data : [{"token":"","part_notification":["\u0e01\u0e23\u0e2d\u0e07\u0e17\u0e35\u0e48 1 (First Filter)","\u0e01\u0e23\u0e2d\u0e07\u0e17\u0e35\u0e48 1 (First Filter)","\u0e01\u0e23\u0e2d\u0e07\u0e17\u0e35\u0e48 1 (First Filter)","\u0e01\u0e23\u0e2d\u0e07\u0e17\u0e35\u0e48 1 (First Filter)"],"part_notification_id":[2161,2166,2171,2176],"product_part_id":[1,1,1,1],"remind_type":["early     ","early     ","early     ","early     "],"timely_date":["2019-03-21","2019-03-21","2019-03-21","2019-03-21"],"CustID":"e36498218ac30e90"}]
2019-03-18 13:00:01 data : [{"token":"","part_notification":["\u0e01\u0e23\u0e2d\u0e07\u0e17\u0e35\u0e48 1 (First Filter)","\u0e01\u0e23\u0e2d\u0e07\u0e17\u0e35\u0e48 1 (First Filter)","\u0e01\u0e23\u0e2d\u0e07\u0e17\u0e35\u0e48 1 (First Filter)","\u0e01\u0e23\u0e2d\u0e07\u0e17\u0e35\u0e48 1 (First Filter)"],"part_notification_id":[2161,2166,2171,2176],"product_part_id":[1,1,1,1],"remind_type":["early     ","early     ","early     ","early     "],"timely_date":["2019-03-21","2019-03-21","2019-03-21","2019-03-21"],"CustID":"e36498218ac30e90"}]
2019-03-18 13:00:01 data : [{"token":"","part_notification":["\u0e01\u0e23\u0e2d\u0e07\u0e17\u0e35\u0e48 1 (First Filter)","\u0e01\u0e23\u0e2d\u0e07\u0e17\u0e35\u0e48 1 (First Filter)","\u0e01\u0e23\u0e2d\u0e07\u0e17\u0e35\u0e48 1 (First Filter)","\u0e01\u0e23\u0e2d\u0e07\u0e17\u0e35\u0e48 1 (First Filter)"],"part_notification_id":[2161,2166,2171,2176],"product_part_id":[1,1,1,1],"remind_type":["early     ","early     ","early     ","early     "],"timely_date":["2019-03-21","2019-03-21","2019-03-21","2019-03-21"],"CustID":"e36498218ac30e90"}]
2019-03-18 13:00:01 data : [{"token":"","part_notification":["\u0e01\u0e23\u0e2d\u0e07\u0e17\u0e35\u0e48 1 (First Filter)","\u0e01\u0e23\u0e2d\u0e07\u0e17\u0e35\u0e48 1 (First Filter)","\u0e01\u0e23\u0e2d\u0e07\u0e17\u0e35\u0e48 1 (First Filter)","\u0e01\u0e23\u0e2d\u0e07\u0e17\u0e35\u0e48 1 (First Filter)"],"part_notification_id":[2161,2166,2171,2176],"product_part_id":[1,1,1,1],"remind_type":["early     ","early     ","early     ","early     "],"timely_date":["2019-03-21","2019-03-21","2019-03-21","2019-03-21"],"CustID":"e36498218ac30e90"}]
