2018-12-19 08:00:02 data : [{"token":"d00fda9f-6ee4-4882-917e-cd4ce9546631","part_notification":["\u0e01\u0e23\u0e2d\u0e07\u0e17\u0e35\u0e48 1 (First Filter)"],"part_notification_id":[1191],"product_part_id":[1],"remind_type":["lately    "],"timely_date":["2018-12-04"],"CustID":"a370da70aa12d467"},{"token":"f66031d5-8ac9-4e17-8490-6df2071e4f95","part_notification":["\u0e01\u0e23\u0e2d\u0e07\u0e17\u0e35\u0e48 1 (First Filter)"],"part_notification_id":[1381],"product_part_id":[1],"remind_type":["early     "],"timely_date":["2018-12-22"],"CustID":"bc2f1822dc9c7568"},{"token":"218ae9ab-e9c0-475f-a318-4d777e73ea68","part_notification":["\u0e01\u0e23\u0e2d\u0e07\u0e17\u0e35\u0e48 1 (First Filter)"],"part_notification_id":[1391],"product_part_id":[1],"remind_type":["early     "],"timely_date":["2018-12-22"],"CustID":"a72a1f30a691fa73"},{"token":"be785c87-3b69-4f49-a6a6-5bb61b87af3e","part_notification":["\u0e01\u0e23\u0e2d\u0e07\u0e17\u0e35\u0e48 1 (First Filter)"],"part_notification_id":[1396],"product_part_id":[1],"remind_type":["early     "],"timely_date":["2018-12-22"],"CustID":"77b093fc9ad6c9c4"},{"token":"367d2436-3e16-496a-841d-79f388bde37c","part_notification":["\u0e01\u0e23\u0e2d\u0e07\u0e17\u0e35\u0e48 1 (First Filter)"],"part_notification_id":[1401],"product_part_id":[1],"remind_type":["early     "],"timely_date":["2018-12-22"],"CustID":"e9a019d77a9211b8"}]
2018-12-19 08:00:02 data : [{"token":"d00fda9f-6ee4-4882-917e-cd4ce9546631","part_notification":["\u0e01\u0e23\u0e2d\u0e07\u0e17\u0e35\u0e48 1 (First Filter)"],"part_notification_id":[1191],"product_part_id":[1],"remind_type":["lately    "],"timely_date":["2018-12-04"],"CustID":"a370da70aa12d467"},{"token":"f66031d5-8ac9-4e17-8490-6df2071e4f95","part_notification":["\u0e01\u0e23\u0e2d\u0e07\u0e17\u0e35\u0e48 1 (First Filter)"],"part_notification_id":[1381],"product_part_id":[1],"remind_type":["early     "],"timely_date":["2018-12-22"],"CustID":"bc2f1822dc9c7568"},{"token":"218ae9ab-e9c0-475f-a318-4d777e73ea68","part_notification":["\u0e01\u0e23\u0e2d\u0e07\u0e17\u0e35\u0e48 1 (First Filter)"],"part_notification_id":[1391],"product_part_id":[1],"remind_type":["early     "],"timely_date":["2018-12-22"],"CustID":"a72a1f30a691fa73"},{"token":"be785c87-3b69-4f49-a6a6-5bb61b87af3e","part_notification":["\u0e01\u0e23\u0e2d\u0e07\u0e17\u0e35\u0e48 1 (First Filter)"],"part_notification_id":[1396],"product_part_id":[1],"remind_type":["early     "],"timely_date":["2018-12-22"],"CustID":"77b093fc9ad6c9c4"},{"token":"367d2436-3e16-496a-841d-79f388bde37c","part_notification":["\u0e01\u0e23\u0e2d\u0e07\u0e17\u0e35\u0e48 1 (First Filter)"],"part_notification_id":[1401],"product_part_id":[1],"remind_type":["early     "],"timely_date":["2018-12-22"],"CustID":"e9a019d77a9211b8"}]
2018-12-19 08:00:02 data : [{"token":"d00fda9f-6ee4-4882-917e-cd4ce9546631","part_notification":["\u0e01\u0e23\u0e2d\u0e07\u0e17\u0e35\u0e48 1 (First Filter)"],"part_notification_id":[1191],"product_part_id":[1],"remind_type":["lately    "],"timely_date":["2018-12-04"],"CustID":"a370da70aa12d467"},{"token":"f66031d5-8ac9-4e17-8490-6df2071e4f95","part_notification":["\u0e01\u0e23\u0e2d\u0e07\u0e17\u0e35\u0e48 1 (First Filter)"],"part_notification_id":[1381],"product_part_id":[1],"remind_type":["early     "],"timely_date":["2018-12-22"],"CustID":"bc2f1822dc9c7568"},{"token":"218ae9ab-e9c0-475f-a318-4d777e73ea68","part_notification":["\u0e01\u0e23\u0e2d\u0e07\u0e17\u0e35\u0e48 1 (First Filter)"],"part_notification_id":[1391],"product_part_id":[1],"remind_type":["early     "],"timely_date":["2018-12-22"],"CustID":"a72a1f30a691fa73"},{"token":"be785c87-3b69-4f49-a6a6-5bb61b87af3e","part_notification":["\u0e01\u0e23\u0e2d\u0e07\u0e17\u0e35\u0e48 1 (First Filter)"],"part_notification_id":[1396],"product_part_id":[1],"remind_type":["early     "],"timely_date":["2018-12-22"],"CustID":"77b093fc9ad6c9c4"},{"token":"367d2436-3e16-496a-841d-79f388bde37c","part_notification":["\u0e01\u0e23\u0e2d\u0e07\u0e17\u0e35\u0e48 1 (First Filter)"],"part_notification_id":[1401],"product_part_id":[1],"remind_type":["early     "],"timely_date":["2018-12-22"],"CustID":"e9a019d77a9211b8"}]
2018-12-19 08:00:02 data : [{"token":"d00fda9f-6ee4-4882-917e-cd4ce9546631","part_notification":["\u0e01\u0e23\u0e2d\u0e07\u0e17\u0e35\u0e48 1 (First Filter)"],"part_notification_id":[1191],"product_part_id":[1],"remind_type":["lately    "],"timely_date":["2018-12-04"],"CustID":"a370da70aa12d467"},{"token":"f66031d5-8ac9-4e17-8490-6df2071e4f95","part_notification":["\u0e01\u0e23\u0e2d\u0e07\u0e17\u0e35\u0e48 1 (First Filter)"],"part_notification_id":[1381],"product_part_id":[1],"remind_type":["early     "],"timely_date":["2018-12-22"],"CustID":"bc2f1822dc9c7568"},{"token":"218ae9ab-e9c0-475f-a318-4d777e73ea68","part_notification":["\u0e01\u0e23\u0e2d\u0e07\u0e17\u0e35\u0e48 1 (First Filter)"],"part_notification_id":[1391],"product_part_id":[1],"remind_type":["early     "],"timely_date":["2018-12-22"],"CustID":"a72a1f30a691fa73"},{"token":"be785c87-3b69-4f49-a6a6-5bb61b87af3e","part_notification":["\u0e01\u0e23\u0e2d\u0e07\u0e17\u0e35\u0e48 1 (First Filter)"],"part_notification_id":[1396],"product_part_id":[1],"remind_type":["early     "],"timely_date":["2018-12-22"],"CustID":"77b093fc9ad6c9c4"},{"token":"367d2436-3e16-496a-841d-79f388bde37c","part_notification":["\u0e01\u0e23\u0e2d\u0e07\u0e17\u0e35\u0e48 1 (First Filter)"],"part_notification_id":[1401],"product_part_id":[1],"remind_type":["early     "],"timely_date":["2018-12-22"],"CustID":"e9a019d77a9211b8"}]
