2020-12-16 08:00:07 data : {"0":{"token":"dd869852-56a2-4410-912b-0d4c76361f49","part_notification":["\u0e01\u0e23\u0e2d\u0e07\u0e17\u0e35\u0e48 2 (Double Filter)","\u0e01\u0e23\u0e2d\u0e07\u0e17\u0e35\u0e48 3 (Double Filter)","\u0e01\u0e23\u0e2d\u0e07\u0e17\u0e35\u0e48 4 (Extractor)","\u0e01\u0e23\u0e2d\u0e07\u0e17\u0e35\u0e48 5 (Purified Filter)"],"part_notification_id":[2722,2723,2724,2725],"product_part_id":[2,3,4,5],"remind_type":["lately    ","lately    ","lately    ","lately    "],"timely_date":["2020-12-01","2020-12-01","2020-12-01","2020-12-01"],"CustID":"36407504d9a7af5"},"4":{"token":"a01219e3-0c21-4aa2-b8d4-17cb37d21012","part_notification":["\u0e01\u0e23\u0e2d\u0e07\u0e17\u0e35\u0e48 1 (First Filter)"],"part_notification_id":[5341],"product_part_id":[1],"remind_type":["lately    "],"timely_date":["2020-12-01"],"CustID":"ea90922ea701c77"},"5":{"token":"5464e741-b3ff-4a86-a00e-88c1da26f0bf","part_notification":["\u0e01\u0e23\u0e2d\u0e07\u0e17\u0e35\u0e48 1 (First Filter)"],"part_notification_id":[5549],"product_part_id":[1],"remind_type":["timely    "],"timely_date":["2020-12-16"],"CustID":"d8b34ab5620b7cb8"},"6":{"token":"d05a8daa-a8a5-4e99-ab26-d7ce26f635ef","part_notification":["\u0e01\u0e23\u0e2d\u0e07\u0e17\u0e35\u0e48 1 (First Filter)"],"part_notification_id":[5569],"product_part_id":[6],"remind_type":["early     "],"timely_date":["2020-12-19"],"CustID":"9bcdde2b04784bcd"}}
2020-12-16 08:00:07 data : {"0":{"token":"dd869852-56a2-4410-912b-0d4c76361f49","part_notification":["\u0e01\u0e23\u0e2d\u0e07\u0e17\u0e35\u0e48 2 (Double Filter)","\u0e01\u0e23\u0e2d\u0e07\u0e17\u0e35\u0e48 3 (Double Filter)","\u0e01\u0e23\u0e2d\u0e07\u0e17\u0e35\u0e48 4 (Extractor)","\u0e01\u0e23\u0e2d\u0e07\u0e17\u0e35\u0e48 5 (Purified Filter)"],"part_notification_id":[2722,2723,2724,2725],"product_part_id":[2,3,4,5],"remind_type":["lately    ","lately    ","lately    ","lately    "],"timely_date":["2020-12-01","2020-12-01","2020-12-01","2020-12-01"],"CustID":"36407504d9a7af5"},"4":{"token":"a01219e3-0c21-4aa2-b8d4-17cb37d21012","part_notification":["\u0e01\u0e23\u0e2d\u0e07\u0e17\u0e35\u0e48 1 (First Filter)"],"part_notification_id":[5341],"product_part_id":[1],"remind_type":["lately    "],"timely_date":["2020-12-01"],"CustID":"ea90922ea701c77"},"5":{"token":"5464e741-b3ff-4a86-a00e-88c1da26f0bf","part_notification":["\u0e01\u0e23\u0e2d\u0e07\u0e17\u0e35\u0e48 1 (First Filter)"],"part_notification_id":[5549],"product_part_id":[1],"remind_type":["timely    "],"timely_date":["2020-12-16"],"CustID":"d8b34ab5620b7cb8"},"6":{"token":"d05a8daa-a8a5-4e99-ab26-d7ce26f635ef","part_notification":["\u0e01\u0e23\u0e2d\u0e07\u0e17\u0e35\u0e48 1 (First Filter)"],"part_notification_id":[5569],"product_part_id":[6],"remind_type":["early     "],"timely_date":["2020-12-19"],"CustID":"9bcdde2b04784bcd"}}
2020-12-16 08:00:07 data : {"0":{"token":"dd869852-56a2-4410-912b-0d4c76361f49","part_notification":["\u0e01\u0e23\u0e2d\u0e07\u0e17\u0e35\u0e48 2 (Double Filter)","\u0e01\u0e23\u0e2d\u0e07\u0e17\u0e35\u0e48 3 (Double Filter)","\u0e01\u0e23\u0e2d\u0e07\u0e17\u0e35\u0e48 4 (Extractor)","\u0e01\u0e23\u0e2d\u0e07\u0e17\u0e35\u0e48 5 (Purified Filter)"],"part_notification_id":[2722,2723,2724,2725],"product_part_id":[2,3,4,5],"remind_type":["lately    ","lately    ","lately    ","lately    "],"timely_date":["2020-12-01","2020-12-01","2020-12-01","2020-12-01"],"CustID":"36407504d9a7af5"},"4":{"token":"a01219e3-0c21-4aa2-b8d4-17cb37d21012","part_notification":["\u0e01\u0e23\u0e2d\u0e07\u0e17\u0e35\u0e48 1 (First Filter)"],"part_notification_id":[5341],"product_part_id":[1],"remind_type":["lately    "],"timely_date":["2020-12-01"],"CustID":"ea90922ea701c77"},"5":{"token":"5464e741-b3ff-4a86-a00e-88c1da26f0bf","part_notification":["\u0e01\u0e23\u0e2d\u0e07\u0e17\u0e35\u0e48 1 (First Filter)"],"part_notification_id":[5549],"product_part_id":[1],"remind_type":["timely    "],"timely_date":["2020-12-16"],"CustID":"d8b34ab5620b7cb8"},"6":{"token":"d05a8daa-a8a5-4e99-ab26-d7ce26f635ef","part_notification":["\u0e01\u0e23\u0e2d\u0e07\u0e17\u0e35\u0e48 1 (First Filter)"],"part_notification_id":[5569],"product_part_id":[6],"remind_type":["early     "],"timely_date":["2020-12-19"],"CustID":"9bcdde2b04784bcd"}}
2020-12-16 08:00:07 data : {"0":{"token":"dd869852-56a2-4410-912b-0d4c76361f49","part_notification":["\u0e01\u0e23\u0e2d\u0e07\u0e17\u0e35\u0e48 2 (Double Filter)","\u0e01\u0e23\u0e2d\u0e07\u0e17\u0e35\u0e48 3 (Double Filter)","\u0e01\u0e23\u0e2d\u0e07\u0e17\u0e35\u0e48 4 (Extractor)","\u0e01\u0e23\u0e2d\u0e07\u0e17\u0e35\u0e48 5 (Purified Filter)"],"part_notification_id":[2722,2723,2724,2725],"product_part_id":[2,3,4,5],"remind_type":["lately    ","lately    ","lately    ","lately    "],"timely_date":["2020-12-01","2020-12-01","2020-12-01","2020-12-01"],"CustID":"36407504d9a7af5"},"4":{"token":"a01219e3-0c21-4aa2-b8d4-17cb37d21012","part_notification":["\u0e01\u0e23\u0e2d\u0e07\u0e17\u0e35\u0e48 1 (First Filter)"],"part_notification_id":[5341],"product_part_id":[1],"remind_type":["lately    "],"timely_date":["2020-12-01"],"CustID":"ea90922ea701c77"},"5":{"token":"5464e741-b3ff-4a86-a00e-88c1da26f0bf","part_notification":["\u0e01\u0e23\u0e2d\u0e07\u0e17\u0e35\u0e48 1 (First Filter)"],"part_notification_id":[5549],"product_part_id":[1],"remind_type":["timely    "],"timely_date":["2020-12-16"],"CustID":"d8b34ab5620b7cb8"},"6":{"token":"d05a8daa-a8a5-4e99-ab26-d7ce26f635ef","part_notification":["\u0e01\u0e23\u0e2d\u0e07\u0e17\u0e35\u0e48 1 (First Filter)"],"part_notification_id":[5569],"product_part_id":[6],"remind_type":["early     "],"timely_date":["2020-12-19"],"CustID":"9bcdde2b04784bcd"}}
2020-12-16 08:00:07 data : {"0":{"token":"dd869852-56a2-4410-912b-0d4c76361f49","part_notification":["\u0e01\u0e23\u0e2d\u0e07\u0e17\u0e35\u0e48 2 (Double Filter)","\u0e01\u0e23\u0e2d\u0e07\u0e17\u0e35\u0e48 3 (Double Filter)","\u0e01\u0e23\u0e2d\u0e07\u0e17\u0e35\u0e48 4 (Extractor)","\u0e01\u0e23\u0e2d\u0e07\u0e17\u0e35\u0e48 5 (Purified Filter)"],"part_notification_id":[2722,2723,2724,2725],"product_part_id":[2,3,4,5],"remind_type":["lately    ","lately    ","lately    ","lately    "],"timely_date":["2020-12-01","2020-12-01","2020-12-01","2020-12-01"],"CustID":"36407504d9a7af5"},"4":{"token":"a01219e3-0c21-4aa2-b8d4-17cb37d21012","part_notification":["\u0e01\u0e23\u0e2d\u0e07\u0e17\u0e35\u0e48 1 (First Filter)"],"part_notification_id":[5341],"product_part_id":[1],"remind_type":["lately    "],"timely_date":["2020-12-01"],"CustID":"ea90922ea701c77"},"5":{"token":"5464e741-b3ff-4a86-a00e-88c1da26f0bf","part_notification":["\u0e01\u0e23\u0e2d\u0e07\u0e17\u0e35\u0e48 1 (First Filter)"],"part_notification_id":[5549],"product_part_id":[1],"remind_type":["timely    "],"timely_date":["2020-12-16"],"CustID":"d8b34ab5620b7cb8"},"6":{"token":"d05a8daa-a8a5-4e99-ab26-d7ce26f635ef","part_notification":["\u0e01\u0e23\u0e2d\u0e07\u0e17\u0e35\u0e48 1 (First Filter)"],"part_notification_id":[5569],"product_part_id":[6],"remind_type":["early     "],"timely_date":["2020-12-19"],"CustID":"9bcdde2b04784bcd"}}
2020-12-16 08:00:07 data : {"0":{"token":"dd869852-56a2-4410-912b-0d4c76361f49","part_notification":["\u0e01\u0e23\u0e2d\u0e07\u0e17\u0e35\u0e48 2 (Double Filter)","\u0e01\u0e23\u0e2d\u0e07\u0e17\u0e35\u0e48 3 (Double Filter)","\u0e01\u0e23\u0e2d\u0e07\u0e17\u0e35\u0e48 4 (Extractor)","\u0e01\u0e23\u0e2d\u0e07\u0e17\u0e35\u0e48 5 (Purified Filter)"],"part_notification_id":[2722,2723,2724,2725],"product_part_id":[2,3,4,5],"remind_type":["lately    ","lately    ","lately    ","lately    "],"timely_date":["2020-12-01","2020-12-01","2020-12-01","2020-12-01"],"CustID":"36407504d9a7af5"},"4":{"token":"a01219e3-0c21-4aa2-b8d4-17cb37d21012","part_notification":["\u0e01\u0e23\u0e2d\u0e07\u0e17\u0e35\u0e48 1 (First Filter)"],"part_notification_id":[5341],"product_part_id":[1],"remind_type":["lately    "],"timely_date":["2020-12-01"],"CustID":"ea90922ea701c77"},"5":{"token":"5464e741-b3ff-4a86-a00e-88c1da26f0bf","part_notification":["\u0e01\u0e23\u0e2d\u0e07\u0e17\u0e35\u0e48 1 (First Filter)"],"part_notification_id":[5549],"product_part_id":[1],"remind_type":["timely    "],"timely_date":["2020-12-16"],"CustID":"d8b34ab5620b7cb8"},"6":{"token":"d05a8daa-a8a5-4e99-ab26-d7ce26f635ef","part_notification":["\u0e01\u0e23\u0e2d\u0e07\u0e17\u0e35\u0e48 1 (First Filter)"],"part_notification_id":[5569],"product_part_id":[6],"remind_type":["early     "],"timely_date":["2020-12-19"],"CustID":"9bcdde2b04784bcd"}}
2020-12-16 08:00:07 data : {"0":{"token":"dd869852-56a2-4410-912b-0d4c76361f49","part_notification":["\u0e01\u0e23\u0e2d\u0e07\u0e17\u0e35\u0e48 2 (Double Filter)","\u0e01\u0e23\u0e2d\u0e07\u0e17\u0e35\u0e48 3 (Double Filter)","\u0e01\u0e23\u0e2d\u0e07\u0e17\u0e35\u0e48 4 (Extractor)","\u0e01\u0e23\u0e2d\u0e07\u0e17\u0e35\u0e48 5 (Purified Filter)"],"part_notification_id":[2722,2723,2724,2725],"product_part_id":[2,3,4,5],"remind_type":["lately    ","lately    ","lately    ","lately    "],"timely_date":["2020-12-01","2020-12-01","2020-12-01","2020-12-01"],"CustID":"36407504d9a7af5"},"4":{"token":"a01219e3-0c21-4aa2-b8d4-17cb37d21012","part_notification":["\u0e01\u0e23\u0e2d\u0e07\u0e17\u0e35\u0e48 1 (First Filter)"],"part_notification_id":[5341],"product_part_id":[1],"remind_type":["lately    "],"timely_date":["2020-12-01"],"CustID":"ea90922ea701c77"},"5":{"token":"5464e741-b3ff-4a86-a00e-88c1da26f0bf","part_notification":["\u0e01\u0e23\u0e2d\u0e07\u0e17\u0e35\u0e48 1 (First Filter)"],"part_notification_id":[5549],"product_part_id":[1],"remind_type":["timely    "],"timely_date":["2020-12-16"],"CustID":"d8b34ab5620b7cb8"},"6":{"token":"d05a8daa-a8a5-4e99-ab26-d7ce26f635ef","part_notification":["\u0e01\u0e23\u0e2d\u0e07\u0e17\u0e35\u0e48 1 (First Filter)"],"part_notification_id":[5569],"product_part_id":[6],"remind_type":["early     "],"timely_date":["2020-12-19"],"CustID":"9bcdde2b04784bcd"}}
