2018-12-27 08:00:02 data : {"0":{"token":"14776b60-dee1-4d13-84df-24931dbf5d96","part_notification":["\u0e01\u0e23\u0e2d\u0e07\u0e17\u0e35\u0e48 1 (First Filter)"],"part_notification_id":[1311],"product_part_id":[1],"remind_type":["lately    "],"timely_date":["2018-12-12"],"CustID":"d8cb9baa96cfeab8"},"1":{"token":"05d80cbd-6c31-4403-8ec2-5192f0d773d4","part_notification":["\u0e01\u0e23\u0e2d\u0e07\u0e17\u0e35\u0e48 1 (First Filter)","\u0e01\u0e23\u0e2d\u0e07\u0e17\u0e35\u0e48 1 (First Filter)","\u0e01\u0e23\u0e2d\u0e07\u0e17\u0e35\u0e48 1 (First Filter)"],"part_notification_id":[1471,1476,1481],"product_part_id":[1,1,1],"remind_type":["timely    ","timely    ","timely    "],"timely_date":["2018-12-27","2018-12-27","2018-12-27"],"CustID":"595b429272bbf8a4"},"4":{"token":"75c2fa1b-eac3-4d11-9ec5-d8777e34e6cf","part_notification":["\u0e01\u0e23\u0e2d\u0e07\u0e17\u0e35\u0e48 1 (First Filter)"],"part_notification_id":[1496],"product_part_id":[1],"remind_type":["early     "],"timely_date":["2018-12-30"],"CustID":"c7437dee3aaf6db5"},"5":{"token":"108c45dd-883e-462c-a122-dae486ea4539","part_notification":["\u0e01\u0e23\u0e2d\u0e07\u0e17\u0e35\u0e48 1 (First Filter)"],"part_notification_id":[1501],"product_part_id":[1],"remind_type":["early     "],"timely_date":["2018-12-30"],"CustID":"427f2320bfd2394"}}
2018-12-27 08:00:02 data : {"0":{"token":"14776b60-dee1-4d13-84df-24931dbf5d96","part_notification":["\u0e01\u0e23\u0e2d\u0e07\u0e17\u0e35\u0e48 1 (First Filter)"],"part_notification_id":[1311],"product_part_id":[1],"remind_type":["lately    "],"timely_date":["2018-12-12"],"CustID":"d8cb9baa96cfeab8"},"1":{"token":"05d80cbd-6c31-4403-8ec2-5192f0d773d4","part_notification":["\u0e01\u0e23\u0e2d\u0e07\u0e17\u0e35\u0e48 1 (First Filter)","\u0e01\u0e23\u0e2d\u0e07\u0e17\u0e35\u0e48 1 (First Filter)","\u0e01\u0e23\u0e2d\u0e07\u0e17\u0e35\u0e48 1 (First Filter)"],"part_notification_id":[1471,1476,1481],"product_part_id":[1,1,1],"remind_type":["timely    ","timely    ","timely    "],"timely_date":["2018-12-27","2018-12-27","2018-12-27"],"CustID":"595b429272bbf8a4"},"4":{"token":"75c2fa1b-eac3-4d11-9ec5-d8777e34e6cf","part_notification":["\u0e01\u0e23\u0e2d\u0e07\u0e17\u0e35\u0e48 1 (First Filter)"],"part_notification_id":[1496],"product_part_id":[1],"remind_type":["early     "],"timely_date":["2018-12-30"],"CustID":"c7437dee3aaf6db5"},"5":{"token":"108c45dd-883e-462c-a122-dae486ea4539","part_notification":["\u0e01\u0e23\u0e2d\u0e07\u0e17\u0e35\u0e48 1 (First Filter)"],"part_notification_id":[1501],"product_part_id":[1],"remind_type":["early     "],"timely_date":["2018-12-30"],"CustID":"427f2320bfd2394"}}
2018-12-27 08:00:02 data : {"0":{"token":"14776b60-dee1-4d13-84df-24931dbf5d96","part_notification":["\u0e01\u0e23\u0e2d\u0e07\u0e17\u0e35\u0e48 1 (First Filter)"],"part_notification_id":[1311],"product_part_id":[1],"remind_type":["lately    "],"timely_date":["2018-12-12"],"CustID":"d8cb9baa96cfeab8"},"1":{"token":"05d80cbd-6c31-4403-8ec2-5192f0d773d4","part_notification":["\u0e01\u0e23\u0e2d\u0e07\u0e17\u0e35\u0e48 1 (First Filter)","\u0e01\u0e23\u0e2d\u0e07\u0e17\u0e35\u0e48 1 (First Filter)","\u0e01\u0e23\u0e2d\u0e07\u0e17\u0e35\u0e48 1 (First Filter)"],"part_notification_id":[1471,1476,1481],"product_part_id":[1,1,1],"remind_type":["timely    ","timely    ","timely    "],"timely_date":["2018-12-27","2018-12-27","2018-12-27"],"CustID":"595b429272bbf8a4"},"4":{"token":"75c2fa1b-eac3-4d11-9ec5-d8777e34e6cf","part_notification":["\u0e01\u0e23\u0e2d\u0e07\u0e17\u0e35\u0e48 1 (First Filter)"],"part_notification_id":[1496],"product_part_id":[1],"remind_type":["early     "],"timely_date":["2018-12-30"],"CustID":"c7437dee3aaf6db5"},"5":{"token":"108c45dd-883e-462c-a122-dae486ea4539","part_notification":["\u0e01\u0e23\u0e2d\u0e07\u0e17\u0e35\u0e48 1 (First Filter)"],"part_notification_id":[1501],"product_part_id":[1],"remind_type":["early     "],"timely_date":["2018-12-30"],"CustID":"427f2320bfd2394"}}
2018-12-27 08:00:02 data : {"0":{"token":"14776b60-dee1-4d13-84df-24931dbf5d96","part_notification":["\u0e01\u0e23\u0e2d\u0e07\u0e17\u0e35\u0e48 1 (First Filter)"],"part_notification_id":[1311],"product_part_id":[1],"remind_type":["lately    "],"timely_date":["2018-12-12"],"CustID":"d8cb9baa96cfeab8"},"1":{"token":"05d80cbd-6c31-4403-8ec2-5192f0d773d4","part_notification":["\u0e01\u0e23\u0e2d\u0e07\u0e17\u0e35\u0e48 1 (First Filter)","\u0e01\u0e23\u0e2d\u0e07\u0e17\u0e35\u0e48 1 (First Filter)","\u0e01\u0e23\u0e2d\u0e07\u0e17\u0e35\u0e48 1 (First Filter)"],"part_notification_id":[1471,1476,1481],"product_part_id":[1,1,1],"remind_type":["timely    ","timely    ","timely    "],"timely_date":["2018-12-27","2018-12-27","2018-12-27"],"CustID":"595b429272bbf8a4"},"4":{"token":"75c2fa1b-eac3-4d11-9ec5-d8777e34e6cf","part_notification":["\u0e01\u0e23\u0e2d\u0e07\u0e17\u0e35\u0e48 1 (First Filter)"],"part_notification_id":[1496],"product_part_id":[1],"remind_type":["early     "],"timely_date":["2018-12-30"],"CustID":"c7437dee3aaf6db5"},"5":{"token":"108c45dd-883e-462c-a122-dae486ea4539","part_notification":["\u0e01\u0e23\u0e2d\u0e07\u0e17\u0e35\u0e48 1 (First Filter)"],"part_notification_id":[1501],"product_part_id":[1],"remind_type":["early     "],"timely_date":["2018-12-30"],"CustID":"427f2320bfd2394"}}
