2019-06-07 08:00:01 data : [{"token":"8499d4c3-50bc-4796-b24e-cec60f384a27","part_notification":["\u0e01\u0e23\u0e2d\u0e07\u0e17\u0e35\u0e48 1 (First Filter)"],"part_notification_id":[2631],"product_part_id":[1],"remind_type":["lately    "],"timely_date":["2019-05-23"],"CustID":"5a97fb1504d087e7"},{"token":"4127e7a7-efb9-4ac3-92e0-7f44b163a411","part_notification":["\u0e01\u0e23\u0e2d\u0e07\u0e17\u0e35\u0e48 1 (First Filter)"],"part_notification_id":[2636],"product_part_id":[1],"remind_type":["lately    "],"timely_date":["2019-05-23"],"CustID":"190f2e4c4df65fe8"},{"token":"152e22b7-c6cf-4d19-badb-ca5552a5b114","part_notification":["\u0e01\u0e23\u0e2d\u0e07\u0e17\u0e35\u0e48 1 (First Filter)"],"part_notification_id":[2756],"product_part_id":[1],"remind_type":["timely    "],"timely_date":["2019-06-07"],"CustID":"e978fd482173ddf6"},{"token":"804a78e6-5da7-4e8b-a167-5a04d6e93972","part_notification":["\u0e01\u0e23\u0e2d\u0e07\u0e17\u0e35\u0e48 1 (First Filter)"],"part_notification_id":[2761],"product_part_id":[1],"remind_type":["timely    "],"timely_date":["2019-06-07"],"CustID":"959c3931018a1964"}]
2019-06-07 08:00:01 data : [{"token":"8499d4c3-50bc-4796-b24e-cec60f384a27","part_notification":["\u0e01\u0e23\u0e2d\u0e07\u0e17\u0e35\u0e48 1 (First Filter)"],"part_notification_id":[2631],"product_part_id":[1],"remind_type":["lately    "],"timely_date":["2019-05-23"],"CustID":"5a97fb1504d087e7"},{"token":"4127e7a7-efb9-4ac3-92e0-7f44b163a411","part_notification":["\u0e01\u0e23\u0e2d\u0e07\u0e17\u0e35\u0e48 1 (First Filter)"],"part_notification_id":[2636],"product_part_id":[1],"remind_type":["lately    "],"timely_date":["2019-05-23"],"CustID":"190f2e4c4df65fe8"},{"token":"152e22b7-c6cf-4d19-badb-ca5552a5b114","part_notification":["\u0e01\u0e23\u0e2d\u0e07\u0e17\u0e35\u0e48 1 (First Filter)"],"part_notification_id":[2756],"product_part_id":[1],"remind_type":["timely    "],"timely_date":["2019-06-07"],"CustID":"e978fd482173ddf6"},{"token":"804a78e6-5da7-4e8b-a167-5a04d6e93972","part_notification":["\u0e01\u0e23\u0e2d\u0e07\u0e17\u0e35\u0e48 1 (First Filter)"],"part_notification_id":[2761],"product_part_id":[1],"remind_type":["timely    "],"timely_date":["2019-06-07"],"CustID":"959c3931018a1964"}]
2019-06-07 08:00:01 data : [{"token":"8499d4c3-50bc-4796-b24e-cec60f384a27","part_notification":["\u0e01\u0e23\u0e2d\u0e07\u0e17\u0e35\u0e48 1 (First Filter)"],"part_notification_id":[2631],"product_part_id":[1],"remind_type":["lately    "],"timely_date":["2019-05-23"],"CustID":"5a97fb1504d087e7"},{"token":"4127e7a7-efb9-4ac3-92e0-7f44b163a411","part_notification":["\u0e01\u0e23\u0e2d\u0e07\u0e17\u0e35\u0e48 1 (First Filter)"],"part_notification_id":[2636],"product_part_id":[1],"remind_type":["lately    "],"timely_date":["2019-05-23"],"CustID":"190f2e4c4df65fe8"},{"token":"152e22b7-c6cf-4d19-badb-ca5552a5b114","part_notification":["\u0e01\u0e23\u0e2d\u0e07\u0e17\u0e35\u0e48 1 (First Filter)"],"part_notification_id":[2756],"product_part_id":[1],"remind_type":["timely    "],"timely_date":["2019-06-07"],"CustID":"e978fd482173ddf6"},{"token":"804a78e6-5da7-4e8b-a167-5a04d6e93972","part_notification":["\u0e01\u0e23\u0e2d\u0e07\u0e17\u0e35\u0e48 1 (First Filter)"],"part_notification_id":[2761],"product_part_id":[1],"remind_type":["timely    "],"timely_date":["2019-06-07"],"CustID":"959c3931018a1964"}]
2019-06-07 08:00:01 data : [{"token":"8499d4c3-50bc-4796-b24e-cec60f384a27","part_notification":["\u0e01\u0e23\u0e2d\u0e07\u0e17\u0e35\u0e48 1 (First Filter)"],"part_notification_id":[2631],"product_part_id":[1],"remind_type":["lately    "],"timely_date":["2019-05-23"],"CustID":"5a97fb1504d087e7"},{"token":"4127e7a7-efb9-4ac3-92e0-7f44b163a411","part_notification":["\u0e01\u0e23\u0e2d\u0e07\u0e17\u0e35\u0e48 1 (First Filter)"],"part_notification_id":[2636],"product_part_id":[1],"remind_type":["lately    "],"timely_date":["2019-05-23"],"CustID":"190f2e4c4df65fe8"},{"token":"152e22b7-c6cf-4d19-badb-ca5552a5b114","part_notification":["\u0e01\u0e23\u0e2d\u0e07\u0e17\u0e35\u0e48 1 (First Filter)"],"part_notification_id":[2756],"product_part_id":[1],"remind_type":["timely    "],"timely_date":["2019-06-07"],"CustID":"e978fd482173ddf6"},{"token":"804a78e6-5da7-4e8b-a167-5a04d6e93972","part_notification":["\u0e01\u0e23\u0e2d\u0e07\u0e17\u0e35\u0e48 1 (First Filter)"],"part_notification_id":[2761],"product_part_id":[1],"remind_type":["timely    "],"timely_date":["2019-06-07"],"CustID":"959c3931018a1964"}]
