2020-10-09 13:00:02 data : [{"token":"","part_notification":["\u0e01\u0e23\u0e2d\u0e07\u0e17\u0e35\u0e48 2 (Double Filter)","\u0e01\u0e23\u0e2d\u0e07\u0e17\u0e35\u0e48 3 (Double Filter)","\u0e01\u0e23\u0e2d\u0e07\u0e17\u0e35\u0e48 4 (Extractor)","\u0e01\u0e23\u0e2d\u0e07\u0e17\u0e35\u0e48 5 (Purified Filter)","\u0e01\u0e23\u0e2d\u0e07\u0e17\u0e35\u0e48 2 (Double Filter)","\u0e01\u0e23\u0e2d\u0e07\u0e17\u0e35\u0e48 3 (Double Filter)","\u0e01\u0e23\u0e2d\u0e07\u0e17\u0e35\u0e48 4 (Extractor)","\u0e01\u0e23\u0e2d\u0e07\u0e17\u0e35\u0e48 5 (Purified Filter)"],"part_notification_id":[2387,2388,2389,2390,4627,4628,4629,4630],"product_part_id":[2,3,4,5,2,3,4,5],"remind_type":["early     ","early     ","early     ","early     ","early     ","early     ","early     ","early     "],"timely_date":["2020-10-12","2020-10-12","2020-10-12","2020-10-12","2020-10-12","2020-10-12","2020-10-12","2020-10-12"],"CustID":"e00f83e96abd05b2"}]
2020-10-09 13:00:02 data : [{"token":"","part_notification":["\u0e01\u0e23\u0e2d\u0e07\u0e17\u0e35\u0e48 2 (Double Filter)","\u0e01\u0e23\u0e2d\u0e07\u0e17\u0e35\u0e48 3 (Double Filter)","\u0e01\u0e23\u0e2d\u0e07\u0e17\u0e35\u0e48 4 (Extractor)","\u0e01\u0e23\u0e2d\u0e07\u0e17\u0e35\u0e48 5 (Purified Filter)","\u0e01\u0e23\u0e2d\u0e07\u0e17\u0e35\u0e48 2 (Double Filter)","\u0e01\u0e23\u0e2d\u0e07\u0e17\u0e35\u0e48 3 (Double Filter)","\u0e01\u0e23\u0e2d\u0e07\u0e17\u0e35\u0e48 4 (Extractor)","\u0e01\u0e23\u0e2d\u0e07\u0e17\u0e35\u0e48 5 (Purified Filter)"],"part_notification_id":[2387,2388,2389,2390,4627,4628,4629,4630],"product_part_id":[2,3,4,5,2,3,4,5],"remind_type":["early     ","early     ","early     ","early     ","early     ","early     ","early     ","early     "],"timely_date":["2020-10-12","2020-10-12","2020-10-12","2020-10-12","2020-10-12","2020-10-12","2020-10-12","2020-10-12"],"CustID":"e00f83e96abd05b2"}]
2020-10-09 13:00:02 data : [{"token":"","part_notification":["\u0e01\u0e23\u0e2d\u0e07\u0e17\u0e35\u0e48 2 (Double Filter)","\u0e01\u0e23\u0e2d\u0e07\u0e17\u0e35\u0e48 3 (Double Filter)","\u0e01\u0e23\u0e2d\u0e07\u0e17\u0e35\u0e48 4 (Extractor)","\u0e01\u0e23\u0e2d\u0e07\u0e17\u0e35\u0e48 5 (Purified Filter)","\u0e01\u0e23\u0e2d\u0e07\u0e17\u0e35\u0e48 2 (Double Filter)","\u0e01\u0e23\u0e2d\u0e07\u0e17\u0e35\u0e48 3 (Double Filter)","\u0e01\u0e23\u0e2d\u0e07\u0e17\u0e35\u0e48 4 (Extractor)","\u0e01\u0e23\u0e2d\u0e07\u0e17\u0e35\u0e48 5 (Purified Filter)"],"part_notification_id":[2387,2388,2389,2390,4627,4628,4629,4630],"product_part_id":[2,3,4,5,2,3,4,5],"remind_type":["early     ","early     ","early     ","early     ","early     ","early     ","early     ","early     "],"timely_date":["2020-10-12","2020-10-12","2020-10-12","2020-10-12","2020-10-12","2020-10-12","2020-10-12","2020-10-12"],"CustID":"e00f83e96abd05b2"}]
2020-10-09 13:00:02 data : [{"token":"","part_notification":["\u0e01\u0e23\u0e2d\u0e07\u0e17\u0e35\u0e48 2 (Double Filter)","\u0e01\u0e23\u0e2d\u0e07\u0e17\u0e35\u0e48 3 (Double Filter)","\u0e01\u0e23\u0e2d\u0e07\u0e17\u0e35\u0e48 4 (Extractor)","\u0e01\u0e23\u0e2d\u0e07\u0e17\u0e35\u0e48 5 (Purified Filter)","\u0e01\u0e23\u0e2d\u0e07\u0e17\u0e35\u0e48 2 (Double Filter)","\u0e01\u0e23\u0e2d\u0e07\u0e17\u0e35\u0e48 3 (Double Filter)","\u0e01\u0e23\u0e2d\u0e07\u0e17\u0e35\u0e48 4 (Extractor)","\u0e01\u0e23\u0e2d\u0e07\u0e17\u0e35\u0e48 5 (Purified Filter)"],"part_notification_id":[2387,2388,2389,2390,4627,4628,4629,4630],"product_part_id":[2,3,4,5,2,3,4,5],"remind_type":["early     ","early     ","early     ","early     ","early     ","early     ","early     ","early     "],"timely_date":["2020-10-12","2020-10-12","2020-10-12","2020-10-12","2020-10-12","2020-10-12","2020-10-12","2020-10-12"],"CustID":"e00f83e96abd05b2"}]
