2020-05-18 11:00:02 data : {"0":{"token":null,"part_notification":["\u0e01\u0e23\u0e2d\u0e07\u0e17\u0e35\u0e48 2 (Double Filter)","\u0e01\u0e23\u0e2d\u0e07\u0e17\u0e35\u0e48 3 (Double Filter)","\u0e01\u0e23\u0e2d\u0e07\u0e17\u0e35\u0e48 4 (Extractor)","\u0e01\u0e23\u0e2d\u0e07\u0e17\u0e35\u0e48 5 (Purified Filter)"],"part_notification_id":[3062,3063,3064,3065],"product_part_id":[2,3,4,5],"remind_type":["early     ","early     ","early     ","early     "],"timely_date":["2020-05-21","2020-05-21","2020-05-21","2020-05-21"],"CustID":"fe85dbba76112afd"},"4":{"token":"eced623e-fdaf-4b55-b644-5b8691750620","part_notification":["\u0e01\u0e23\u0e2d\u0e07\u0e17\u0e35\u0e48 1 (First Filter)"],"part_notification_id":[4251],"product_part_id":[6],"remind_type":["early     "],"timely_date":["2020-05-21"],"CustID":"2f134e2538a6ac7b"}}
2020-05-18 11:00:02 data : {"0":{"token":null,"part_notification":["\u0e01\u0e23\u0e2d\u0e07\u0e17\u0e35\u0e48 2 (Double Filter)","\u0e01\u0e23\u0e2d\u0e07\u0e17\u0e35\u0e48 3 (Double Filter)","\u0e01\u0e23\u0e2d\u0e07\u0e17\u0e35\u0e48 4 (Extractor)","\u0e01\u0e23\u0e2d\u0e07\u0e17\u0e35\u0e48 5 (Purified Filter)"],"part_notification_id":[3062,3063,3064,3065],"product_part_id":[2,3,4,5],"remind_type":["early     ","early     ","early     ","early     "],"timely_date":["2020-05-21","2020-05-21","2020-05-21","2020-05-21"],"CustID":"fe85dbba76112afd"},"4":{"token":"eced623e-fdaf-4b55-b644-5b8691750620","part_notification":["\u0e01\u0e23\u0e2d\u0e07\u0e17\u0e35\u0e48 1 (First Filter)"],"part_notification_id":[4251],"product_part_id":[6],"remind_type":["early     "],"timely_date":["2020-05-21"],"CustID":"2f134e2538a6ac7b"}}
2020-05-18 11:00:02 data : {"0":{"token":null,"part_notification":["\u0e01\u0e23\u0e2d\u0e07\u0e17\u0e35\u0e48 2 (Double Filter)","\u0e01\u0e23\u0e2d\u0e07\u0e17\u0e35\u0e48 3 (Double Filter)","\u0e01\u0e23\u0e2d\u0e07\u0e17\u0e35\u0e48 4 (Extractor)","\u0e01\u0e23\u0e2d\u0e07\u0e17\u0e35\u0e48 5 (Purified Filter)"],"part_notification_id":[3062,3063,3064,3065],"product_part_id":[2,3,4,5],"remind_type":["early     ","early     ","early     ","early     "],"timely_date":["2020-05-21","2020-05-21","2020-05-21","2020-05-21"],"CustID":"fe85dbba76112afd"},"4":{"token":"eced623e-fdaf-4b55-b644-5b8691750620","part_notification":["\u0e01\u0e23\u0e2d\u0e07\u0e17\u0e35\u0e48 1 (First Filter)"],"part_notification_id":[4251],"product_part_id":[6],"remind_type":["early     "],"timely_date":["2020-05-21"],"CustID":"2f134e2538a6ac7b"}}
2020-05-18 11:00:02 data : {"0":{"token":null,"part_notification":["\u0e01\u0e23\u0e2d\u0e07\u0e17\u0e35\u0e48 2 (Double Filter)","\u0e01\u0e23\u0e2d\u0e07\u0e17\u0e35\u0e48 3 (Double Filter)","\u0e01\u0e23\u0e2d\u0e07\u0e17\u0e35\u0e48 4 (Extractor)","\u0e01\u0e23\u0e2d\u0e07\u0e17\u0e35\u0e48 5 (Purified Filter)"],"part_notification_id":[3062,3063,3064,3065],"product_part_id":[2,3,4,5],"remind_type":["early     ","early     ","early     ","early     "],"timely_date":["2020-05-21","2020-05-21","2020-05-21","2020-05-21"],"CustID":"fe85dbba76112afd"},"4":{"token":"eced623e-fdaf-4b55-b644-5b8691750620","part_notification":["\u0e01\u0e23\u0e2d\u0e07\u0e17\u0e35\u0e48 1 (First Filter)"],"part_notification_id":[4251],"product_part_id":[6],"remind_type":["early     "],"timely_date":["2020-05-21"],"CustID":"2f134e2538a6ac7b"}}
2020-05-18 11:00:02 data : {"0":{"token":null,"part_notification":["\u0e01\u0e23\u0e2d\u0e07\u0e17\u0e35\u0e48 2 (Double Filter)","\u0e01\u0e23\u0e2d\u0e07\u0e17\u0e35\u0e48 3 (Double Filter)","\u0e01\u0e23\u0e2d\u0e07\u0e17\u0e35\u0e48 4 (Extractor)","\u0e01\u0e23\u0e2d\u0e07\u0e17\u0e35\u0e48 5 (Purified Filter)"],"part_notification_id":[3062,3063,3064,3065],"product_part_id":[2,3,4,5],"remind_type":["early     ","early     ","early     ","early     "],"timely_date":["2020-05-21","2020-05-21","2020-05-21","2020-05-21"],"CustID":"fe85dbba76112afd"},"4":{"token":"eced623e-fdaf-4b55-b644-5b8691750620","part_notification":["\u0e01\u0e23\u0e2d\u0e07\u0e17\u0e35\u0e48 1 (First Filter)"],"part_notification_id":[4251],"product_part_id":[6],"remind_type":["early     "],"timely_date":["2020-05-21"],"CustID":"2f134e2538a6ac7b"}}
