2019-07-18 08:00:01 data : {"0":{"token":"ca534c4a-2090-46e7-8011-f2eefd55541c","part_notification":["\u0e01\u0e23\u0e2d\u0e07\u0e17\u0e35\u0e48 2 (Double Filter)","\u0e01\u0e23\u0e2d\u0e07\u0e17\u0e35\u0e48 3 (Double Filter)","\u0e01\u0e23\u0e2d\u0e07\u0e17\u0e35\u0e48 4 (Extractor)","\u0e01\u0e23\u0e2d\u0e07\u0e17\u0e35\u0e48 5 (Purified Filter)"],"part_notification_id":[502,503,504,505],"product_part_id":[2,3,4,5],"remind_type":["early     ","early     ","early     ","early     "],"timely_date":["2019-07-21","2019-07-21","2019-07-21","2019-07-21"],"CustID":"ec2e67bb766a7c95"},"4":{"token":"3ad1cca9-dce0-4697-bc55-8f9c0dbe29ad","part_notification":["\u0e01\u0e23\u0e2d\u0e07\u0e17\u0e35\u0e48 1 (First Filter)"],"part_notification_id":[541],"product_part_id":[1],"remind_type":["early     "],"timely_date":["2019-07-18"],"CustID":"553e4c8a36c3f03f"},"5":{"token":"6026bcce-73f7-4afc-be5b-291ddc60f1df","part_notification":["\u0e01\u0e23\u0e2d\u0e07\u0e17\u0e35\u0e48 1 (First Filter)"],"part_notification_id":[2921],"product_part_id":[1],"remind_type":["timely    "],"timely_date":["2019-07-18"],"CustID":"8582558f07ba92a7"},"6":{"token":"781f93e2-054f-4e1f-a672-339f2ec17314","part_notification":["\u0e01\u0e23\u0e2d\u0e07\u0e17\u0e35\u0e48 1 (First Filter)"],"part_notification_id":[2926],"product_part_id":[1],"remind_type":["timely    "],"timely_date":["2019-07-18"],"CustID":"d3f0d2292f8452c2"}}
2019-07-18 08:00:01 data : {"0":{"token":"ca534c4a-2090-46e7-8011-f2eefd55541c","part_notification":["\u0e01\u0e23\u0e2d\u0e07\u0e17\u0e35\u0e48 2 (Double Filter)","\u0e01\u0e23\u0e2d\u0e07\u0e17\u0e35\u0e48 3 (Double Filter)","\u0e01\u0e23\u0e2d\u0e07\u0e17\u0e35\u0e48 4 (Extractor)","\u0e01\u0e23\u0e2d\u0e07\u0e17\u0e35\u0e48 5 (Purified Filter)"],"part_notification_id":[502,503,504,505],"product_part_id":[2,3,4,5],"remind_type":["early     ","early     ","early     ","early     "],"timely_date":["2019-07-21","2019-07-21","2019-07-21","2019-07-21"],"CustID":"ec2e67bb766a7c95"},"4":{"token":"3ad1cca9-dce0-4697-bc55-8f9c0dbe29ad","part_notification":["\u0e01\u0e23\u0e2d\u0e07\u0e17\u0e35\u0e48 1 (First Filter)"],"part_notification_id":[541],"product_part_id":[1],"remind_type":["early     "],"timely_date":["2019-07-18"],"CustID":"553e4c8a36c3f03f"},"5":{"token":"6026bcce-73f7-4afc-be5b-291ddc60f1df","part_notification":["\u0e01\u0e23\u0e2d\u0e07\u0e17\u0e35\u0e48 1 (First Filter)"],"part_notification_id":[2921],"product_part_id":[1],"remind_type":["timely    "],"timely_date":["2019-07-18"],"CustID":"8582558f07ba92a7"},"6":{"token":"781f93e2-054f-4e1f-a672-339f2ec17314","part_notification":["\u0e01\u0e23\u0e2d\u0e07\u0e17\u0e35\u0e48 1 (First Filter)"],"part_notification_id":[2926],"product_part_id":[1],"remind_type":["timely    "],"timely_date":["2019-07-18"],"CustID":"d3f0d2292f8452c2"}}
2019-07-18 08:00:01 data : {"0":{"token":"ca534c4a-2090-46e7-8011-f2eefd55541c","part_notification":["\u0e01\u0e23\u0e2d\u0e07\u0e17\u0e35\u0e48 2 (Double Filter)","\u0e01\u0e23\u0e2d\u0e07\u0e17\u0e35\u0e48 3 (Double Filter)","\u0e01\u0e23\u0e2d\u0e07\u0e17\u0e35\u0e48 4 (Extractor)","\u0e01\u0e23\u0e2d\u0e07\u0e17\u0e35\u0e48 5 (Purified Filter)"],"part_notification_id":[502,503,504,505],"product_part_id":[2,3,4,5],"remind_type":["early     ","early     ","early     ","early     "],"timely_date":["2019-07-21","2019-07-21","2019-07-21","2019-07-21"],"CustID":"ec2e67bb766a7c95"},"4":{"token":"3ad1cca9-dce0-4697-bc55-8f9c0dbe29ad","part_notification":["\u0e01\u0e23\u0e2d\u0e07\u0e17\u0e35\u0e48 1 (First Filter)"],"part_notification_id":[541],"product_part_id":[1],"remind_type":["early     "],"timely_date":["2019-07-18"],"CustID":"553e4c8a36c3f03f"},"5":{"token":"6026bcce-73f7-4afc-be5b-291ddc60f1df","part_notification":["\u0e01\u0e23\u0e2d\u0e07\u0e17\u0e35\u0e48 1 (First Filter)"],"part_notification_id":[2921],"product_part_id":[1],"remind_type":["timely    "],"timely_date":["2019-07-18"],"CustID":"8582558f07ba92a7"},"6":{"token":"781f93e2-054f-4e1f-a672-339f2ec17314","part_notification":["\u0e01\u0e23\u0e2d\u0e07\u0e17\u0e35\u0e48 1 (First Filter)"],"part_notification_id":[2926],"product_part_id":[1],"remind_type":["timely    "],"timely_date":["2019-07-18"],"CustID":"d3f0d2292f8452c2"}}
2019-07-18 08:00:01 data : {"0":{"token":"ca534c4a-2090-46e7-8011-f2eefd55541c","part_notification":["\u0e01\u0e23\u0e2d\u0e07\u0e17\u0e35\u0e48 2 (Double Filter)","\u0e01\u0e23\u0e2d\u0e07\u0e17\u0e35\u0e48 3 (Double Filter)","\u0e01\u0e23\u0e2d\u0e07\u0e17\u0e35\u0e48 4 (Extractor)","\u0e01\u0e23\u0e2d\u0e07\u0e17\u0e35\u0e48 5 (Purified Filter)"],"part_notification_id":[502,503,504,505],"product_part_id":[2,3,4,5],"remind_type":["early     ","early     ","early     ","early     "],"timely_date":["2019-07-21","2019-07-21","2019-07-21","2019-07-21"],"CustID":"ec2e67bb766a7c95"},"4":{"token":"3ad1cca9-dce0-4697-bc55-8f9c0dbe29ad","part_notification":["\u0e01\u0e23\u0e2d\u0e07\u0e17\u0e35\u0e48 1 (First Filter)"],"part_notification_id":[541],"product_part_id":[1],"remind_type":["early     "],"timely_date":["2019-07-18"],"CustID":"553e4c8a36c3f03f"},"5":{"token":"6026bcce-73f7-4afc-be5b-291ddc60f1df","part_notification":["\u0e01\u0e23\u0e2d\u0e07\u0e17\u0e35\u0e48 1 (First Filter)"],"part_notification_id":[2921],"product_part_id":[1],"remind_type":["timely    "],"timely_date":["2019-07-18"],"CustID":"8582558f07ba92a7"},"6":{"token":"781f93e2-054f-4e1f-a672-339f2ec17314","part_notification":["\u0e01\u0e23\u0e2d\u0e07\u0e17\u0e35\u0e48 1 (First Filter)"],"part_notification_id":[2926],"product_part_id":[1],"remind_type":["timely    "],"timely_date":["2019-07-18"],"CustID":"d3f0d2292f8452c2"}}
