2020-07-24 09:00:01 data : [{"token":"","part_notification":["\u0e01\u0e23\u0e2d\u0e07\u0e17\u0e35\u0e48 2 (Double Filter)","\u0e01\u0e23\u0e2d\u0e07\u0e17\u0e35\u0e48 3 (Double Filter)","\u0e01\u0e23\u0e2d\u0e07\u0e17\u0e35\u0e48 4 (Extractor)","\u0e01\u0e23\u0e2d\u0e07\u0e17\u0e35\u0e48 5 (Purified Filter)","\u0e01\u0e23\u0e2d\u0e07\u0e17\u0e35\u0e48 1 (First Filter)","\u0e01\u0e23\u0e2d\u0e07\u0e17\u0e35\u0e48 1 (First Filter)"],"part_notification_id":[1687,1688,1689,1690,3578,4626],"product_part_id":[2,3,4,5,1,1],"remind_type":["early     ","early     ","early     ","early     ","early     ","early     "],"timely_date":["2020-07-27","2020-07-27","2020-07-27","2020-07-27","2020-07-24","2020-07-24"],"CustID":"e00f83e96abd05b2"}]
2020-07-24 09:00:01 data : [{"token":"","part_notification":["\u0e01\u0e23\u0e2d\u0e07\u0e17\u0e35\u0e48 2 (Double Filter)","\u0e01\u0e23\u0e2d\u0e07\u0e17\u0e35\u0e48 3 (Double Filter)","\u0e01\u0e23\u0e2d\u0e07\u0e17\u0e35\u0e48 4 (Extractor)","\u0e01\u0e23\u0e2d\u0e07\u0e17\u0e35\u0e48 5 (Purified Filter)","\u0e01\u0e23\u0e2d\u0e07\u0e17\u0e35\u0e48 1 (First Filter)","\u0e01\u0e23\u0e2d\u0e07\u0e17\u0e35\u0e48 1 (First Filter)"],"part_notification_id":[1687,1688,1689,1690,3578,4626],"product_part_id":[2,3,4,5,1,1],"remind_type":["early     ","early     ","early     ","early     ","early     ","early     "],"timely_date":["2020-07-27","2020-07-27","2020-07-27","2020-07-27","2020-07-24","2020-07-24"],"CustID":"e00f83e96abd05b2"}]
2020-07-24 09:00:01 data : [{"token":"","part_notification":["\u0e01\u0e23\u0e2d\u0e07\u0e17\u0e35\u0e48 2 (Double Filter)","\u0e01\u0e23\u0e2d\u0e07\u0e17\u0e35\u0e48 3 (Double Filter)","\u0e01\u0e23\u0e2d\u0e07\u0e17\u0e35\u0e48 4 (Extractor)","\u0e01\u0e23\u0e2d\u0e07\u0e17\u0e35\u0e48 5 (Purified Filter)","\u0e01\u0e23\u0e2d\u0e07\u0e17\u0e35\u0e48 1 (First Filter)","\u0e01\u0e23\u0e2d\u0e07\u0e17\u0e35\u0e48 1 (First Filter)"],"part_notification_id":[1687,1688,1689,1690,3578,4626],"product_part_id":[2,3,4,5,1,1],"remind_type":["early     ","early     ","early     ","early     ","early     ","early     "],"timely_date":["2020-07-27","2020-07-27","2020-07-27","2020-07-27","2020-07-24","2020-07-24"],"CustID":"e00f83e96abd05b2"}]
2020-07-24 09:00:01 data : [{"token":"","part_notification":["\u0e01\u0e23\u0e2d\u0e07\u0e17\u0e35\u0e48 2 (Double Filter)","\u0e01\u0e23\u0e2d\u0e07\u0e17\u0e35\u0e48 3 (Double Filter)","\u0e01\u0e23\u0e2d\u0e07\u0e17\u0e35\u0e48 4 (Extractor)","\u0e01\u0e23\u0e2d\u0e07\u0e17\u0e35\u0e48 5 (Purified Filter)","\u0e01\u0e23\u0e2d\u0e07\u0e17\u0e35\u0e48 1 (First Filter)","\u0e01\u0e23\u0e2d\u0e07\u0e17\u0e35\u0e48 1 (First Filter)"],"part_notification_id":[1687,1688,1689,1690,3578,4626],"product_part_id":[2,3,4,5,1,1],"remind_type":["early     ","early     ","early     ","early     ","early     ","early     "],"timely_date":["2020-07-27","2020-07-27","2020-07-27","2020-07-27","2020-07-24","2020-07-24"],"CustID":"e00f83e96abd05b2"}]
