2019-05-16 08:00:02 data : [{"token":"ad119a32-2496-4095-835c-3af17bb64b00","part_notification":["\u0e01\u0e23\u0e2d\u0e07\u0e17\u0e35\u0e48 1 (First Filter)"],"part_notification_id":[401],"product_part_id":[1],"remind_type":["lately    "],"timely_date":["2019-05-01"],"CustID":"537f02c56662ba9c"},{"token":"a916ca7d-805a-4833-992c-896061cceea4","part_notification":["\u0e01\u0e23\u0e2d\u0e07\u0e17\u0e35\u0e48 1 (First Filter)"],"part_notification_id":[2511],"product_part_id":[1],"remind_type":["lately    "],"timely_date":["2019-05-01"],"CustID":"1a2e63b8bfa5e858"},{"token":"e02abaed-7899-4ce4-ba3f-950eb2caa316","part_notification":["\u0e01\u0e23\u0e2d\u0e07\u0e17\u0e35\u0e48 1 (First Filter)"],"part_notification_id":[2521],"product_part_id":[1],"remind_type":["lately    "],"timely_date":["2019-05-01"],"CustID":"8b9913ffd5a8b4e8"},{"token":"dc42e77b-1c40-43bc-b88c-21bc500570a0","part_notification":["\u0e01\u0e23\u0e2d\u0e07\u0e17\u0e35\u0e48 1 (First Filter)"],"part_notification_id":[2526],"product_part_id":[1],"remind_type":["lately    "],"timely_date":["2019-05-01"],"CustID":"290844ea547812c1"},{"token":"ba623353-f18e-4dd0-9ec4-3498f9c62241","part_notification":["\u0e01\u0e23\u0e2d\u0e07\u0e17\u0e35\u0e48 1 (First Filter)"],"part_notification_id":[2596],"product_part_id":[1],"remind_type":["timely    "],"timely_date":["2019-05-16"],"CustID":"43e5b9cbb103d357"},{"token":"8aaf33ff-0f17-4bd8-ac14-a33f4ccc6121","part_notification":["\u0e01\u0e23\u0e2d\u0e07\u0e17\u0e35\u0e48 1 (First Filter)"],"part_notification_id":[2606],"product_part_id":[1],"remind_type":["early     "],"timely_date":["2019-05-19"],"CustID":"25958b2b929c1bcc"}]
2019-05-16 08:00:02 data : [{"token":"ad119a32-2496-4095-835c-3af17bb64b00","part_notification":["\u0e01\u0e23\u0e2d\u0e07\u0e17\u0e35\u0e48 1 (First Filter)"],"part_notification_id":[401],"product_part_id":[1],"remind_type":["lately    "],"timely_date":["2019-05-01"],"CustID":"537f02c56662ba9c"},{"token":"a916ca7d-805a-4833-992c-896061cceea4","part_notification":["\u0e01\u0e23\u0e2d\u0e07\u0e17\u0e35\u0e48 1 (First Filter)"],"part_notification_id":[2511],"product_part_id":[1],"remind_type":["lately    "],"timely_date":["2019-05-01"],"CustID":"1a2e63b8bfa5e858"},{"token":"e02abaed-7899-4ce4-ba3f-950eb2caa316","part_notification":["\u0e01\u0e23\u0e2d\u0e07\u0e17\u0e35\u0e48 1 (First Filter)"],"part_notification_id":[2521],"product_part_id":[1],"remind_type":["lately    "],"timely_date":["2019-05-01"],"CustID":"8b9913ffd5a8b4e8"},{"token":"dc42e77b-1c40-43bc-b88c-21bc500570a0","part_notification":["\u0e01\u0e23\u0e2d\u0e07\u0e17\u0e35\u0e48 1 (First Filter)"],"part_notification_id":[2526],"product_part_id":[1],"remind_type":["lately    "],"timely_date":["2019-05-01"],"CustID":"290844ea547812c1"},{"token":"ba623353-f18e-4dd0-9ec4-3498f9c62241","part_notification":["\u0e01\u0e23\u0e2d\u0e07\u0e17\u0e35\u0e48 1 (First Filter)"],"part_notification_id":[2596],"product_part_id":[1],"remind_type":["timely    "],"timely_date":["2019-05-16"],"CustID":"43e5b9cbb103d357"},{"token":"8aaf33ff-0f17-4bd8-ac14-a33f4ccc6121","part_notification":["\u0e01\u0e23\u0e2d\u0e07\u0e17\u0e35\u0e48 1 (First Filter)"],"part_notification_id":[2606],"product_part_id":[1],"remind_type":["early     "],"timely_date":["2019-05-19"],"CustID":"25958b2b929c1bcc"}]
2019-05-16 08:00:02 data : [{"token":"ad119a32-2496-4095-835c-3af17bb64b00","part_notification":["\u0e01\u0e23\u0e2d\u0e07\u0e17\u0e35\u0e48 1 (First Filter)"],"part_notification_id":[401],"product_part_id":[1],"remind_type":["lately    "],"timely_date":["2019-05-01"],"CustID":"537f02c56662ba9c"},{"token":"a916ca7d-805a-4833-992c-896061cceea4","part_notification":["\u0e01\u0e23\u0e2d\u0e07\u0e17\u0e35\u0e48 1 (First Filter)"],"part_notification_id":[2511],"product_part_id":[1],"remind_type":["lately    "],"timely_date":["2019-05-01"],"CustID":"1a2e63b8bfa5e858"},{"token":"e02abaed-7899-4ce4-ba3f-950eb2caa316","part_notification":["\u0e01\u0e23\u0e2d\u0e07\u0e17\u0e35\u0e48 1 (First Filter)"],"part_notification_id":[2521],"product_part_id":[1],"remind_type":["lately    "],"timely_date":["2019-05-01"],"CustID":"8b9913ffd5a8b4e8"},{"token":"dc42e77b-1c40-43bc-b88c-21bc500570a0","part_notification":["\u0e01\u0e23\u0e2d\u0e07\u0e17\u0e35\u0e48 1 (First Filter)"],"part_notification_id":[2526],"product_part_id":[1],"remind_type":["lately    "],"timely_date":["2019-05-01"],"CustID":"290844ea547812c1"},{"token":"ba623353-f18e-4dd0-9ec4-3498f9c62241","part_notification":["\u0e01\u0e23\u0e2d\u0e07\u0e17\u0e35\u0e48 1 (First Filter)"],"part_notification_id":[2596],"product_part_id":[1],"remind_type":["timely    "],"timely_date":["2019-05-16"],"CustID":"43e5b9cbb103d357"},{"token":"8aaf33ff-0f17-4bd8-ac14-a33f4ccc6121","part_notification":["\u0e01\u0e23\u0e2d\u0e07\u0e17\u0e35\u0e48 1 (First Filter)"],"part_notification_id":[2606],"product_part_id":[1],"remind_type":["early     "],"timely_date":["2019-05-19"],"CustID":"25958b2b929c1bcc"}]
