2020-02-22 09:00:01 data : [{"token":"941180a4-06c2-4b48-abb3-07bfc8d1d6de","part_notification":["\u0e01\u0e23\u0e2d\u0e07\u0e17\u0e35\u0e48 1 (First Filter)","\u0e01\u0e23\u0e2d\u0e07\u0e17\u0e35\u0e48 1 (First Filter)","\u0e01\u0e23\u0e2d\u0e07\u0e17\u0e35\u0e48 1 (First Filter)"],"part_notification_id":[2011,2016,2021],"product_part_id":[1,1,1],"remind_type":["timely    ","timely    ","timely    "],"timely_date":["2020-02-22","2020-02-22","2020-02-22"],"CustID":"c859e44d101d129d"}]
2020-02-22 09:00:01 data : [{"token":"941180a4-06c2-4b48-abb3-07bfc8d1d6de","part_notification":["\u0e01\u0e23\u0e2d\u0e07\u0e17\u0e35\u0e48 1 (First Filter)","\u0e01\u0e23\u0e2d\u0e07\u0e17\u0e35\u0e48 1 (First Filter)","\u0e01\u0e23\u0e2d\u0e07\u0e17\u0e35\u0e48 1 (First Filter)"],"part_notification_id":[2011,2016,2021],"product_part_id":[1,1,1],"remind_type":["timely    ","timely    ","timely    "],"timely_date":["2020-02-22","2020-02-22","2020-02-22"],"CustID":"c859e44d101d129d"}]
2020-02-22 09:00:01 data : [{"token":"941180a4-06c2-4b48-abb3-07bfc8d1d6de","part_notification":["\u0e01\u0e23\u0e2d\u0e07\u0e17\u0e35\u0e48 1 (First Filter)","\u0e01\u0e23\u0e2d\u0e07\u0e17\u0e35\u0e48 1 (First Filter)","\u0e01\u0e23\u0e2d\u0e07\u0e17\u0e35\u0e48 1 (First Filter)"],"part_notification_id":[2011,2016,2021],"product_part_id":[1,1,1],"remind_type":["timely    ","timely    ","timely    "],"timely_date":["2020-02-22","2020-02-22","2020-02-22"],"CustID":"c859e44d101d129d"}]
