2019-05-11 08:00:01 data : {"0":{"token":"b6429038-a075-40a2-a287-893b6e5e052c","part_notification":["\u0e01\u0e23\u0e2d\u0e07\u0e17\u0e35\u0e48 2 (Double Filter)","\u0e01\u0e23\u0e2d\u0e07\u0e17\u0e35\u0e48 3 (Double Filter)","\u0e01\u0e23\u0e2d\u0e07\u0e17\u0e35\u0e48 4 (Extractor)","\u0e01\u0e23\u0e2d\u0e07\u0e17\u0e35\u0e48 5 (Purified Filter)"],"part_notification_id":[877,878,879,880],"product_part_id":[2,3,4,5],"remind_type":["early     ","early     ","early     ","early     "],"timely_date":["2019-05-14","2019-05-14","2019-05-14","2019-05-14"],"CustID":"282a4f649d9c0ef2"},"4":{"token":"ccbc4eeb-7595-4d05-9ce9-f0059b4b11a9","part_notification":["\u0e01\u0e23\u0e2d\u0e07\u0e17\u0e35\u0e48 2 (Double Filter)","\u0e01\u0e23\u0e2d\u0e07\u0e17\u0e35\u0e48 3 (Double Filter)","\u0e01\u0e23\u0e2d\u0e07\u0e17\u0e35\u0e48 4 (Extractor)","\u0e01\u0e23\u0e2d\u0e07\u0e17\u0e35\u0e48 5 (Purified Filter)"],"part_notification_id":[897,898,899,900],"product_part_id":[2,3,4,5],"remind_type":["early     ","early     ","early     ","early     "],"timely_date":["2019-05-14","2019-05-14","2019-05-14","2019-05-14"],"CustID":"787f6e65d8a4b4c8"},"8":{"token":"00c6fde6-07c0-444a-ad6d-763f3c1001ea","part_notification":["\u0e01\u0e23\u0e2d\u0e07\u0e17\u0e35\u0e48 1 (First Filter)"],"part_notification_id":[2586],"product_part_id":[1],"remind_type":["early     "],"timely_date":["2019-05-14"],"CustID":"9ebf43fa53a8d027"}}
2019-05-11 08:00:01 data : {"0":{"token":"b6429038-a075-40a2-a287-893b6e5e052c","part_notification":["\u0e01\u0e23\u0e2d\u0e07\u0e17\u0e35\u0e48 2 (Double Filter)","\u0e01\u0e23\u0e2d\u0e07\u0e17\u0e35\u0e48 3 (Double Filter)","\u0e01\u0e23\u0e2d\u0e07\u0e17\u0e35\u0e48 4 (Extractor)","\u0e01\u0e23\u0e2d\u0e07\u0e17\u0e35\u0e48 5 (Purified Filter)"],"part_notification_id":[877,878,879,880],"product_part_id":[2,3,4,5],"remind_type":["early     ","early     ","early     ","early     "],"timely_date":["2019-05-14","2019-05-14","2019-05-14","2019-05-14"],"CustID":"282a4f649d9c0ef2"},"4":{"token":"ccbc4eeb-7595-4d05-9ce9-f0059b4b11a9","part_notification":["\u0e01\u0e23\u0e2d\u0e07\u0e17\u0e35\u0e48 2 (Double Filter)","\u0e01\u0e23\u0e2d\u0e07\u0e17\u0e35\u0e48 3 (Double Filter)","\u0e01\u0e23\u0e2d\u0e07\u0e17\u0e35\u0e48 4 (Extractor)","\u0e01\u0e23\u0e2d\u0e07\u0e17\u0e35\u0e48 5 (Purified Filter)"],"part_notification_id":[897,898,899,900],"product_part_id":[2,3,4,5],"remind_type":["early     ","early     ","early     ","early     "],"timely_date":["2019-05-14","2019-05-14","2019-05-14","2019-05-14"],"CustID":"787f6e65d8a4b4c8"},"8":{"token":"00c6fde6-07c0-444a-ad6d-763f3c1001ea","part_notification":["\u0e01\u0e23\u0e2d\u0e07\u0e17\u0e35\u0e48 1 (First Filter)"],"part_notification_id":[2586],"product_part_id":[1],"remind_type":["early     "],"timely_date":["2019-05-14"],"CustID":"9ebf43fa53a8d027"}}
2019-05-11 08:00:01 data : {"0":{"token":"b6429038-a075-40a2-a287-893b6e5e052c","part_notification":["\u0e01\u0e23\u0e2d\u0e07\u0e17\u0e35\u0e48 2 (Double Filter)","\u0e01\u0e23\u0e2d\u0e07\u0e17\u0e35\u0e48 3 (Double Filter)","\u0e01\u0e23\u0e2d\u0e07\u0e17\u0e35\u0e48 4 (Extractor)","\u0e01\u0e23\u0e2d\u0e07\u0e17\u0e35\u0e48 5 (Purified Filter)"],"part_notification_id":[877,878,879,880],"product_part_id":[2,3,4,5],"remind_type":["early     ","early     ","early     ","early     "],"timely_date":["2019-05-14","2019-05-14","2019-05-14","2019-05-14"],"CustID":"282a4f649d9c0ef2"},"4":{"token":"ccbc4eeb-7595-4d05-9ce9-f0059b4b11a9","part_notification":["\u0e01\u0e23\u0e2d\u0e07\u0e17\u0e35\u0e48 2 (Double Filter)","\u0e01\u0e23\u0e2d\u0e07\u0e17\u0e35\u0e48 3 (Double Filter)","\u0e01\u0e23\u0e2d\u0e07\u0e17\u0e35\u0e48 4 (Extractor)","\u0e01\u0e23\u0e2d\u0e07\u0e17\u0e35\u0e48 5 (Purified Filter)"],"part_notification_id":[897,898,899,900],"product_part_id":[2,3,4,5],"remind_type":["early     ","early     ","early     ","early     "],"timely_date":["2019-05-14","2019-05-14","2019-05-14","2019-05-14"],"CustID":"787f6e65d8a4b4c8"},"8":{"token":"00c6fde6-07c0-444a-ad6d-763f3c1001ea","part_notification":["\u0e01\u0e23\u0e2d\u0e07\u0e17\u0e35\u0e48 1 (First Filter)"],"part_notification_id":[2586],"product_part_id":[1],"remind_type":["early     "],"timely_date":["2019-05-14"],"CustID":"9ebf43fa53a8d027"}}
2019-05-11 08:00:01 data : {"0":{"token":"b6429038-a075-40a2-a287-893b6e5e052c","part_notification":["\u0e01\u0e23\u0e2d\u0e07\u0e17\u0e35\u0e48 2 (Double Filter)","\u0e01\u0e23\u0e2d\u0e07\u0e17\u0e35\u0e48 3 (Double Filter)","\u0e01\u0e23\u0e2d\u0e07\u0e17\u0e35\u0e48 4 (Extractor)","\u0e01\u0e23\u0e2d\u0e07\u0e17\u0e35\u0e48 5 (Purified Filter)"],"part_notification_id":[877,878,879,880],"product_part_id":[2,3,4,5],"remind_type":["early     ","early     ","early     ","early     "],"timely_date":["2019-05-14","2019-05-14","2019-05-14","2019-05-14"],"CustID":"282a4f649d9c0ef2"},"4":{"token":"ccbc4eeb-7595-4d05-9ce9-f0059b4b11a9","part_notification":["\u0e01\u0e23\u0e2d\u0e07\u0e17\u0e35\u0e48 2 (Double Filter)","\u0e01\u0e23\u0e2d\u0e07\u0e17\u0e35\u0e48 3 (Double Filter)","\u0e01\u0e23\u0e2d\u0e07\u0e17\u0e35\u0e48 4 (Extractor)","\u0e01\u0e23\u0e2d\u0e07\u0e17\u0e35\u0e48 5 (Purified Filter)"],"part_notification_id":[897,898,899,900],"product_part_id":[2,3,4,5],"remind_type":["early     ","early     ","early     ","early     "],"timely_date":["2019-05-14","2019-05-14","2019-05-14","2019-05-14"],"CustID":"787f6e65d8a4b4c8"},"8":{"token":"00c6fde6-07c0-444a-ad6d-763f3c1001ea","part_notification":["\u0e01\u0e23\u0e2d\u0e07\u0e17\u0e35\u0e48 1 (First Filter)"],"part_notification_id":[2586],"product_part_id":[1],"remind_type":["early     "],"timely_date":["2019-05-14"],"CustID":"9ebf43fa53a8d027"}}
