<?xml version="1.0" encoding="iso-8859-1"?>
<!-- Generator: Adobe Illustrator 22.1.0, SVG Export Plug-In . SVG Version: 6.00 Build 0)  -->
<svg version="1.1" id="Layer_1" xmlns="http://www.w3.org/2000/svg" xmlns:xlink="http://www.w3.org/1999/xlink" x="0px" y="0px"
	 viewBox="0 0 300 70" style="enable-background:new 0 0 300 70;" xml:space="preserve">
<g>
	<path style="fill:#FFFFFF;" d="M158.628,33.342c-4.65,0-8.219,4-8.219,9.57c0,6.002,3.029,9.732,8.38,9.732
		c3.039,0,5.355-1.193,6.628-3.611l-2.484-1.158c-0.768,1.374-2.102,2.066-4.034,2.066c-3.299,0-5.461-2.217-5.461-6.056h13.193
		C166.63,37.613,163.602,33.342,158.628,33.342z M153.438,41.236c0.216-2.974,2.162-5.244,5.028-5.244
		c2.812,0,5.083,2.216,5.083,5.244H153.438z"/>
	<path style="fill:#FFFFFF;" d="M145.825,33.77c-0.158,0.046-0.317,0.095-0.479,0.15c-0.067,0.021-0.135,0.046-0.202,0.069
		c-2.549,0.941-5.439,3.231-5.439,8.787v8.194c0,0.686,0.556,1.241,1.242,1.241h1.678v-9.89c0-3.538,2.001-6.105,6.327-6.105v-2.874
		C148.951,33.342,147.541,33.274,145.825,33.77z"/>
	<path style="fill:#FFFFFF;" d="M63.674,27.034h-7.035l-1.309,5.822h7.762c1.989,0,3.105,0.675,3.105,1.841
		c0,1.651-2.425,4.562-4.414,5.629v-5.114h-5.336V52.16h5.336v-5.238c6.063-3.006,9.944-7.809,9.944-12.518v-0.336
		C71.727,29.265,69.058,27.034,63.674,27.034z"/>
	<path style="fill:#FFFFFF;" d="M87.428,43.138c-0.194-0.34-0.436-0.727-0.679-1.066l-3.395-4.562
		c-1.406-2.228-2.279-2.959-2.279-3.832c0-0.533,0.436-0.822,1.357-0.822h5.094l-1.406-5.822h-6.063
		c-3.202,0.34-5.24,2.378-5.24,5.625c0,1.845,0.583,3.496,1.746,5.096l3.687,5.238c0.146,0.146,0.243,0.34,0.389,0.533l0.436,0.731
		c0.436,0.774,0.727,1.26,0.727,1.552c0,0.434-0.436,0.628-1.359,0.628h-5.481l1.406,5.724l7.422,0.051
		c1.941,0,4.317-2.718,4.317-5.775c0-0.727-0.097-1.406-0.243-2.133L87.428,43.138z"/>
	<rect x="93.141" y="27.081" style="fill:#FFFFFF;" width="5.53" height="25.079"/>
	<path style="fill:#FFFFFF;" d="M112.447,35.991c1.938,0,3.248,0.803,3.952,2.355l2.95-0.656c-1-2.749-3.44-4.349-7.119-4.349
		c-5.19,0-8.273,3.947-8.273,9.894c0,5.785,3.137,9.408,8.165,9.408c3.164,0,5.341-1.393,6.627-3.755l-2.525-1.177
		c-0.841,1.451-2.254,2.229-4.102,2.229c-3.245,0-5.136-2.812-5.136-6.704C106.987,38.694,108.878,35.991,112.447,35.991z"/>
	<path style="fill:#FFFFFF;" d="M129.42,33.342c-3.588,0-6.23,1.418-7.068,4.159l2.816,0.566c0.503-1.351,1.834-2.076,4.144-2.076
		c2.649,0,3.892,0.973,3.892,3.081c0,0.697-0.291,1.164-0.802,1.496c-0.396,0.239-0.951,0.424-1.695,0.603
		c-1.154,0.277-2.759,0.543-4.927,0.986c-0.001,0-0.002,0-0.003,0.001c-0.562,0.115-1.083,0.316-1.557,0.581
		c-1.381,0.774-2.36,2.108-2.781,3.552c-0.82,2.813,0.483,6.037,5.077,6.329c0.012,0.001,0.024,0.002,0.037,0.002
		c0.211,0.013,0.426,0.021,0.651,0.021c0.186,0,0.368-0.005,0.547-0.013c8.314-0.272,8.32-6.695,8.32-6.695v-2.405v-5.107
		C136.07,34.856,133.745,33.342,129.42,33.342z M133.023,46.677c-0.557,1.441-1.828,2.798-4.467,3.297
		c-0.014,0.003-0.027,0.006-0.042,0.009c-2.258,0.416-3.593-0.371-4.102-1.486c-0.384-0.842-0.295-1.872,0.225-2.712
		c0.028-0.046,0.06-0.09,0.09-0.134c0.002-0.003,0.004-0.006,0.007-0.009c0.495-0.71,1.311-1.261,2.428-1.403
		c0.004-0.001,0.009-0.001,0.013-0.002c2.236-0.286,3.792-0.709,4.754-1.04c0.428-0.136,0.773-0.276,1.1-0.441
		c0.08-0.039,0.12-0.061,0.12-0.061C133.393,43.459,133.627,45.116,133.023,46.677z"/>
	<path style="fill:#FFFFFF;" d="M52.114,31.774c-0.106-0.013-2.642-0.287-3.643,4.262c-0.555,2.522-3.112,3.472-4.691,3.822
		c-0.196,0.043-0.326-0.195-0.184-0.336c0.209-0.207,0.46-0.462,0.761-0.774c1.508-1.565,0.306-2.98,0.294-2.994
		c-0.035-0.039-0.083-0.063-0.136-0.065c-0.06-0.004-0.104,0.017-0.142,0.052c-0.017,0.016-1.737,1.601-7.381,3.781
		c-5.848,2.258-4.838,7.93-4.827,7.987c0,0,0,0.001,0,0.001c0.653,3.302,3.188,4.579,3.296,4.631c0.027,0.013,0.056,0.02,0.085,0.02
		c0.027,0,0.054-0.006,0.079-0.017c0.052-0.023,0.091-0.069,0.107-0.124c0.411-1.488,2.876-3.942,8.563-6.365
		c7.2-3.068,7.978-13.57,7.986-13.676C52.288,31.876,52.215,31.787,52.114,31.774z"/>
	<path style="fill:#FFFFFF;" d="M31.581,41.445c-0.703-0.735-1.662-1.416-2.978-1.924c-5.644-2.18-7.365-3.765-7.382-3.781
		c-0.038-0.036-0.083-0.056-0.142-0.052c-0.052,0.002-0.101,0.026-0.136,0.065c-0.012,0.014-1.215,1.429,0.294,2.994
		c0.302,0.313,0.553,0.568,0.763,0.775c0.142,0.141,0.012,0.379-0.184,0.336c-1.579-0.349-4.136-1.298-4.692-3.823
		c-1.001-4.549-3.537-4.275-3.643-4.262c-0.101,0.013-0.174,0.102-0.168,0.204c0.002,0.026,0.188,2.675,1.255,5.661
		c1.419,3.972,3.747,6.743,6.731,8.014c5.687,2.423,8.153,4.877,8.563,6.365c0.015,0.055,0.055,0.101,0.107,0.124
		c0.025,0.011,0.052,0.017,0.079,0.017c0.029,0,0.058-0.007,0.085-0.02c0.054-0.026,0.711-0.361,1.438-1.096
		c0.074-0.075,0.074-0.195,0.004-0.273c-0.654-0.737-1.312-1.799-1.602-3.262c0-0.001,0-0.001,0-0.001
		c-0.008-0.043-0.575-3.245,1.61-5.796C31.65,41.634,31.652,41.519,31.581,41.445z"/>
	<path style="fill:#FFFFFF;" d="M38.815,36.333c0.142-0.035,0.199-0.206,0.107-0.32l-0.691-0.848
		c3.047-3.035,16.395-17.356,5.192-24.937c0,0-5.628-3.547-10.72,1.729c-0.075,0.078-0.074,0.202,0.001,0.279l0.197,0.202
		c0.084,0.086,0.223,0.08,0.298-0.014c0.418-0.528,1.918-2.001,5.627-2.001c4.462,0,12.616,7.15-3.455,21.233l-1.026-1.259
		c-0.102-0.126-0.304-0.083-0.347,0.073l-1.995,7.24c-0.041,0.147,0.092,0.283,0.24,0.247L38.815,36.333z"/>
	<path style="fill:#FFFFFF;" d="M24.264,19.359v5.239h1.65v-1.619c1.874-0.929,3.074-2.414,3.074-3.869v-0.104
		c0-1.485-0.825-2.175-2.489-2.175h-2.175l-0.405,1.8h2.399c0.615,0,0.96,0.209,0.96,0.569c0,0.51-0.75,1.41-1.365,1.74v-1.581
		H24.264z"/>
	<path style="fill:#FFFFFF;" d="M35.545,22.828c0-0.225-0.03-0.435-0.075-0.659l-0.135-0.36c-0.06-0.105-0.135-0.225-0.21-0.33
		l-1.049-1.41c-0.435-0.689-0.705-0.914-0.705-1.184c0-0.165,0.135-0.254,0.419-0.254h1.575l-0.435-1.8h-1.874
		c-0.99,0.105-1.62,0.735-1.62,1.739c0,0.57,0.18,1.081,0.54,1.575l1.14,1.619c0.045,0.045,0.075,0.105,0.12,0.165l0.135,0.226
		c0.135,0.239,0.225,0.39,0.225,0.48c0,0.134-0.135,0.194-0.42,0.194h-1.694l0.435,1.769l2.294,0.016
		C34.811,24.614,35.545,23.774,35.545,22.828z"/>
	<rect x="37.843" y="16.846" style="fill:#FFFFFF;" width="1.709" height="7.752"/>
	<path style="fill:#FFFFFF;" d="M31.656,30.469c-2.938-1.119-10.619-4.569-13.403-10.926c-3.119-7.123,4.131-11.965,9.994-6.852
		l-1.217,1.487c-0.099,0.121-0.027,0.303,0.128,0.324l4.746,0.638c0.143,0.019,0.259-0.115,0.218-0.254l-1.386-4.741
		c-0.045-0.154-0.244-0.195-0.346-0.07l-0.951,1.161c-1.915-1.762-5.475-3.852-10.262-1.519
		c-7.233,3.524-7.811,18.638,10.901,26.335c0.111,0.046,0.238-0.016,0.27-0.132l1.431-5.212
		C31.804,30.609,31.752,30.506,31.656,30.469z"/>
	<path style="fill:#FFFFFF;" d="M198.907,35.406c-0.644-0.722-1.457-1.292-2.439-1.71c-0.982-0.418-2.14-0.627-3.472-0.627
		c-1.423,0-2.682,0.26-3.777,0.779c-1.095,0.52-2.027,1.231-2.794,2.134c-0.768,0.904-1.35,1.965-1.744,3.184
		c-0.396,1.219-0.593,2.529-0.593,3.929c0,1.626,0.214,3.032,0.644,4.217c0.428,1.186,0.999,2.168,1.711,2.947
		c0.711,0.779,1.524,1.355,2.439,1.728c0.915,0.372,1.868,0.559,2.862,0.559c0.564,0,1.089-0.051,1.575-0.153
		c0.486-0.102,0.92-0.243,1.304-0.423l-0.474-2.032c-0.339,0.135-0.683,0.237-1.033,0.305c-0.35,0.068-0.762,0.102-1.236,0.102
		c-0.61,0-1.225-0.129-1.846-0.39c-0.621-0.259-1.181-0.677-1.677-1.253c-0.497-0.576-0.903-1.321-1.219-2.236
		c-0.317-0.915-0.474-2.038-0.474-3.37c0-1.174,0.135-2.241,0.406-3.201c0.271-0.959,0.672-1.784,1.203-2.473
		c0.53-0.689,1.197-1.219,1.999-1.592c0.801-0.373,1.733-0.559,2.794-0.559c0.88,0,1.643,0.141,2.286,0.423
		c0.643,0.283,1.18,0.678,1.609,1.186c0.428,0.508,0.745,1.113,0.948,1.812c0.203,0.7,0.305,1.456,0.305,2.269v11.381h2.574V40.995
		c0-1.084-0.153-2.105-0.458-3.065C200.025,36.97,199.55,36.129,198.907,35.406z"/>
	<path style="fill:#FFFFFF;" d="M198.348,57.22c0,0.835-0.124,1.417-0.373,1.744c-0.248,0.327-0.711,0.491-1.388,0.491
		c-0.678,0-1.14-0.164-1.389-0.491c-0.248-0.327-0.372-0.909-0.372-1.744v-2.473h-4.166v2.1h1.761v1.016
		c0,1.107,0.35,1.959,1.05,2.558c0.7,0.598,1.739,0.898,3.117,0.898c1.377,0,2.422-0.3,3.133-0.898
		c0.711-0.599,1.067-1.451,1.067-2.558v-3.116h-2.439V57.22z"/>
	<rect x="212.743" y="33.374" style="fill:#FFFFFF;" width="2.507" height="18.969"/>
	<rect x="206.104" y="33.374" style="fill:#FFFFFF;" width="2.506" height="18.969"/>
	<path style="fill:#FFFFFF;" d="M227.444,33.069c-0.813,0-1.592,0.067-2.337,0.203c-0.745,0.136-1.439,0.317-2.083,0.542
		c-0.643,0.226-1.225,0.474-1.744,0.745c-0.52,0.271-0.96,0.542-1.321,0.813l0.847,1.829c0.813-0.564,1.766-1.039,2.862-1.423
		c1.095-0.384,2.297-0.576,3.607-0.576c1.784,0,3.043,0.435,3.777,1.304c0.733,0.869,1.1,2.095,1.1,3.675v0.61h-4.539
		c-2.823,0-4.923,0.548-6.3,1.643c-1.377,1.095-2.066,2.637-2.066,4.624c0,0.948,0.153,1.773,0.457,2.472
		c0.305,0.7,0.728,1.282,1.27,1.745c0.542,0.463,1.18,0.807,1.914,1.033c0.733,0.226,1.529,0.339,2.388,0.339
		c0.654,0,1.298-0.057,1.931-0.17c0.632-0.113,1.174-0.259,1.626-0.44l-0.44-2.1c-0.384,0.181-0.83,0.322-1.338,0.423
		c-0.508,0.102-1.022,0.153-1.541,0.153c-1.016,0-1.892-0.282-2.625-0.847c-0.734-0.564-1.101-1.445-1.101-2.642
		c0-1.423,0.496-2.45,1.491-3.082c0.993-0.632,2.348-0.948,4.065-0.948h4.81v9.349h2.574V40.148c0-2.19-0.621-3.918-1.863-5.182
		S229.815,33.069,227.444,33.069z"/>
	<path style="fill:#FFFFFF;" d="M253.61,35.169c-0.667-0.654-1.491-1.168-2.473-1.541c-0.983-0.373-2.106-0.559-3.37-0.559
		c-1.265,0-2.383,0.186-3.353,0.559c-0.972,0.372-1.79,0.887-2.456,1.541c-0.666,0.655-1.168,1.423-1.507,2.304
		c-0.339,0.88-0.508,1.829-0.508,2.845v12.025h2.574v-4.742c0.316-1.061,0.818-1.868,1.507-2.422c0.689-0.553,1.518-0.83,2.489-0.83
		h2.337V42.08h-2.337c-0.994,0-1.829,0.243-2.506,0.728c-0.678,0.486-1.174,1.079-1.49,1.779v-4.302c0-1.49,0.434-2.698,1.304-3.624
		c0.869-0.926,2.185-1.389,3.946-1.389s3.082,0.463,3.963,1.389c0.881,0.926,1.321,2.134,1.321,3.624v12.059h2.575V40.318
		c0-1.016-0.169-1.965-0.508-2.845C254.779,36.592,254.276,35.825,253.61,35.169z"/>
	<path style="fill:#FFFFFF;" d="M253.05,54.782h-1.931v2.133h1.254c0.497,0,0.745,0.249,0.745,0.746v3.285h2.507v-3.455
		c0-0.971-0.208-1.665-0.627-2.083C254.581,54.99,253.931,54.782,253.05,54.782z"/>
	<path style="fill:#FFFFFF;" d="M284.112,33.374v13.007c-0.249,0.565-0.565,1.089-0.948,1.575c-0.384,0.486-0.825,0.914-1.321,1.287
		c-0.497,0.373-1.028,0.667-1.592,0.881c-0.564,0.215-1.163,0.322-1.795,0.322c-1.129,0-1.959-0.367-2.489-1.101
		c-0.531-0.733-0.796-1.722-0.796-2.964v-5.996c0-1.061-0.148-2.037-0.441-2.93c-0.294-0.891-0.745-1.665-1.355-2.32
		c-0.61-0.654-1.366-1.163-2.269-1.524c-0.903-0.361-1.964-0.542-3.184-0.542c-1.016,0-1.965,0.158-2.845,0.474
		c-0.881,0.316-1.671,0.734-2.371,1.253c-0.7,0.52-1.287,1.118-1.761,1.795c-0.474,0.678-0.813,1.367-1.016,2.067l2.845,2.405
		c-0.61,0.294-1.078,0.745-1.406,1.355c-0.328,0.61-0.491,1.276-0.491,1.999v5.047c0,0.858,0.248,1.553,0.746,2.083
		c0.496,0.531,1.185,0.796,2.066,0.796h2.473v-2.134h-1.829c-0.587,0-0.88-0.316-0.88-0.948v-5.216c0-1.445,0.643-2.461,1.931-3.049
		l-2.744-2.506c0.406-0.948,1.089-1.722,2.049-2.32c0.96-0.598,2.038-0.898,3.235-0.898c1.558,0,2.727,0.435,3.506,1.304
		c0.779,0.869,1.168,2.139,1.168,3.81v6.029c0,1.92,0.468,3.438,1.406,4.556c0.937,1.118,2.377,1.677,4.319,1.677
		c1.309,0,2.433-0.288,3.37-0.864c0.937-0.576,1.733-1.372,2.388-2.388l0.203,2.947h2.405V33.374H284.112z"/>
</g>
</svg>
