2018-10-26 08:00:03 post value : {"status":true,"agentcode":"5840029","totals":1,"created":"2018-10-26 08:00:03","fields":"{\"app_id\":\"d1a9a83b-41de-4691-a034-31a11f351d00\",\"include_player_ids\":[\"f54f1c6f-52d9-4549-b312-5a913c0c07a8\"],\"data\":{\"jobstatus\":\"REMIND\"},\"contents\":{\"en\":\"\\u0e41\\u0e08\\u0e49\\u0e07\\u0e40\\u0e15\\u0e37\\u0e2d\\u0e19\\u0e16\\u0e36\\u0e07\\u0e01\\u0e33\\u0e2b\\u0e19\\u0e14\\u0e25\\u0e49\\u0e32\\u0e07\\u0e41\\u0e2d\\u0e23\\u0e4c\\u0e43\\u0e2b\\u0e49\\u0e25\\u0e39\\u0e01\\u0e04\\u0e49\\u0e32\\u0e17\\u0e35\\u0e48\\u0e44\\u0e1b\\u0e15\\u0e34\\u0e14\\u0e15\\u0e31\\u0e49\\u0e07\\u0e40\\u0e21\\u0e37\\u0e48\\u0e2d\\u0e27\\u0e31\\u0e19\\u0e17\\u0e35\\u0e48\\u0e27\\u0e31\\u0e19\\u0e17\\u0e35\\u0e48 26\\\/04\\\/2018 \\r\\n\\u0e17\\u0e31\\u0e49\\u0e07\\u0e2b\\u0e21\\u0e14 1 \\u0e23\\u0e32\\u0e22\\u0e01\\u0e32\\u0e23\\u0e14\\u0e31\\u0e07\\u0e19\\u0e35\\u0e49 \\r\\n1. \\u0e2a\\u0e21\\u0e1a\\u0e39\\u0e23\\u0e13\\u0e4c \\u0e40\\u0e08\\u0e35\\u0e22\\u0e21\\u0e40\\u0e08\\u0e23\\u0e34\\u0e0d \\\/ \\u0e42\\u0e17\\u0e23:0819403807 \\r\\n\"}}"}
2018-10-26 08:00:03 post value : {"status":true,"agentcode":"5610255","totals":1,"created":"2018-10-26 08:00:03","fields":"{\"app_id\":\"d1a9a83b-41de-4691-a034-31a11f351d00\",\"include_player_ids\":[\"8bb18c6a-000e-4653-b1aa-a1c034fb0f72\"],\"data\":{\"jobstatus\":\"REMIND\"},\"contents\":{\"en\":\"\\u0e41\\u0e08\\u0e49\\u0e07\\u0e40\\u0e15\\u0e37\\u0e2d\\u0e19\\u0e16\\u0e36\\u0e07\\u0e01\\u0e33\\u0e2b\\u0e19\\u0e14\\u0e25\\u0e49\\u0e32\\u0e07\\u0e41\\u0e2d\\u0e23\\u0e4c\\u0e43\\u0e2b\\u0e49\\u0e25\\u0e39\\u0e01\\u0e04\\u0e49\\u0e32\\u0e17\\u0e35\\u0e48\\u0e44\\u0e1b\\u0e15\\u0e34\\u0e14\\u0e15\\u0e31\\u0e49\\u0e07\\u0e40\\u0e21\\u0e37\\u0e48\\u0e2d\\u0e27\\u0e31\\u0e19\\u0e17\\u0e35\\u0e48\\u0e27\\u0e31\\u0e19\\u0e17\\u0e35\\u0e48 26\\\/04\\\/2018 \\r\\n\\u0e17\\u0e31\\u0e49\\u0e07\\u0e2b\\u0e21\\u0e14 1 \\u0e23\\u0e32\\u0e22\\u0e01\\u0e32\\u0e23\\u0e14\\u0e31\\u0e07\\u0e19\\u0e35\\u0e49 \\r\\n1. \\u0e08\\u0e31\\u0e19\\u0e17\\u0e23\\u0e4c\\u0e40\\u0e17\\u0e35\\u0e22\\u0e21 \\u0e17\\u0e32\\u0e21\\u0e32\\u0e01\\u0e32\\u0e27\\u0e32 \\\/ \\u0e42\\u0e17\\u0e23:0845256688 \\r\\n\"}}"}
2018-10-26 08:00:03 post value : {"status":true,"agentcode":"5660165","totals":4,"created":"2018-10-26 08:00:03","fields":"{\"app_id\":\"d1a9a83b-41de-4691-a034-31a11f351d00\",\"include_player_ids\":[\"f3693558-a88a-4dcc-8b4c-a3fc26025fa2\"],\"data\":{\"jobstatus\":\"REMIND\"},\"contents\":{\"en\":\"\\u0e41\\u0e08\\u0e49\\u0e07\\u0e40\\u0e15\\u0e37\\u0e2d\\u0e19\\u0e16\\u0e36\\u0e07\\u0e01\\u0e33\\u0e2b\\u0e19\\u0e14\\u0e25\\u0e49\\u0e32\\u0e07\\u0e41\\u0e2d\\u0e23\\u0e4c\\u0e43\\u0e2b\\u0e49\\u0e25\\u0e39\\u0e01\\u0e04\\u0e49\\u0e32\\u0e17\\u0e35\\u0e48\\u0e44\\u0e1b\\u0e15\\u0e34\\u0e14\\u0e15\\u0e31\\u0e49\\u0e07\\u0e40\\u0e21\\u0e37\\u0e48\\u0e2d\\u0e27\\u0e31\\u0e19\\u0e17\\u0e35\\u0e48\\u0e27\\u0e31\\u0e19\\u0e17\\u0e35\\u0e48 26\\\/04\\\/2018 \\r\\n\\u0e17\\u0e31\\u0e49\\u0e07\\u0e2b\\u0e21\\u0e14 4 \\u0e23\\u0e32\\u0e22\\u0e01\\u0e32\\u0e23\\u0e14\\u0e31\\u0e07\\u0e19\\u0e35\\u0e49 \\r\\n1. Benjamat Tesjaroen \\\/ \\u0e42\\u0e17\\u0e23:0937256208 \\r\\n2. Benjamat Tesjaroen \\\/ \\u0e42\\u0e17\\u0e23:0937256208 \\r\\n3. Benjamat Tesjaroen \\\/ \\u0e42\\u0e17\\u0e23:0937256208 \\r\\n4. Benjamat Tesjaroen \\\/ \\u0e42\\u0e17\\u0e23:0937256208 \\r\\n\"}}"}
