2018-04-16 08:00:02 post value : {"status":true,"agentcode":"5820609","totals":1,"created":"2018-04-16 08:00:02","fields":"{\"app_id\":\"d1a9a83b-41de-4691-a034-31a11f351d00\",\"include_player_ids\":[\"c3c6f700-d2e1-440f-a699-8c763cba7ff6\"],\"data\":{\"jobstatus\":\"REMIND\"},\"contents\":{\"en\":\"\\u0e41\\u0e08\\u0e49\\u0e07\\u0e40\\u0e15\\u0e37\\u0e2d\\u0e19\\u0e16\\u0e36\\u0e07\\u0e01\\u0e33\\u0e2b\\u0e19\\u0e14\\u0e25\\u0e49\\u0e32\\u0e07\\u0e41\\u0e2d\\u0e23\\u0e4c\\u0e43\\u0e2b\\u0e49\\u0e25\\u0e39\\u0e01\\u0e04\\u0e49\\u0e32\\u0e17\\u0e35\\u0e48\\u0e44\\u0e1b\\u0e15\\u0e34\\u0e14\\u0e15\\u0e31\\u0e49\\u0e07\\u0e40\\u0e21\\u0e37\\u0e48\\u0e2d\\u0e27\\u0e31\\u0e19\\u0e17\\u0e35\\u0e48\\u0e27\\u0e31\\u0e19\\u0e17\\u0e35\\u0e48 16\\\/10\\\/2017 \\r\\n\\u0e17\\u0e31\\u0e49\\u0e07\\u0e2b\\u0e21\\u0e14 1 \\u0e23\\u0e32\\u0e22\\u0e01\\u0e32\\u0e23\\u0e14\\u0e31\\u0e07\\u0e19\\u0e35\\u0e49 \\r\\n1. Jeed Jard \\\/ \\u0e42\\u0e17\\u0e23:0885999142 \\r\\n\"}}"}
2018-04-16 08:00:02 post value : {"status":true,"agentcode":"5820717","totals":3,"created":"2018-04-16 08:00:02","fields":"{\"app_id\":\"d1a9a83b-41de-4691-a034-31a11f351d00\",\"include_player_ids\":[\"96cbdc49-a747-44c4-92d2-c32987467ab4\"],\"data\":{\"jobstatus\":\"REMIND\"},\"contents\":{\"en\":\"\\u0e41\\u0e08\\u0e49\\u0e07\\u0e40\\u0e15\\u0e37\\u0e2d\\u0e19\\u0e16\\u0e36\\u0e07\\u0e01\\u0e33\\u0e2b\\u0e19\\u0e14\\u0e25\\u0e49\\u0e32\\u0e07\\u0e41\\u0e2d\\u0e23\\u0e4c\\u0e43\\u0e2b\\u0e49\\u0e25\\u0e39\\u0e01\\u0e04\\u0e49\\u0e32\\u0e17\\u0e35\\u0e48\\u0e44\\u0e1b\\u0e15\\u0e34\\u0e14\\u0e15\\u0e31\\u0e49\\u0e07\\u0e40\\u0e21\\u0e37\\u0e48\\u0e2d\\u0e27\\u0e31\\u0e19\\u0e17\\u0e35\\u0e48\\u0e27\\u0e31\\u0e19\\u0e17\\u0e35\\u0e48 16\\\/10\\\/2017 \\r\\n\\u0e17\\u0e31\\u0e49\\u0e07\\u0e2b\\u0e21\\u0e14 3 \\u0e23\\u0e32\\u0e22\\u0e01\\u0e32\\u0e23\\u0e14\\u0e31\\u0e07\\u0e19\\u0e35\\u0e49 \\r\\n1. Thitimon Sodok \\\/ \\u0e42\\u0e17\\u0e23:0818795044 \\r\\n2. \\u0e2a\\u0e38\\u0e27\\u0e34\\u0e21\\u0e25 \\u0e2b\\u0e49\\u0e2d\\u0e07\\u0e41\\u0e0b\\u0e07 \\\/ \\u0e42\\u0e17\\u0e23:0898941477 \\r\\n3. \\u0e2a\\u0e38\\u0e27\\u0e34\\u0e21\\u0e25 \\u0e2b\\u0e49\\u0e2d\\u0e07\\u0e41\\u0e0b\\u0e07 \\\/ \\u0e42\\u0e17\\u0e23: \\r\\n\"}}"}
2018-04-16 08:00:02 post value : {"status":true,"agentcode":"5830415","totals":1,"created":"2018-04-16 08:00:02","fields":"{\"app_id\":\"d1a9a83b-41de-4691-a034-31a11f351d00\",\"include_player_ids\":[\"8d0477e4-3e1c-453d-b86b-47f2d223f93a\"],\"data\":{\"jobstatus\":\"REMIND\"},\"contents\":{\"en\":\"\\u0e41\\u0e08\\u0e49\\u0e07\\u0e40\\u0e15\\u0e37\\u0e2d\\u0e19\\u0e16\\u0e36\\u0e07\\u0e01\\u0e33\\u0e2b\\u0e19\\u0e14\\u0e25\\u0e49\\u0e32\\u0e07\\u0e41\\u0e2d\\u0e23\\u0e4c\\u0e43\\u0e2b\\u0e49\\u0e25\\u0e39\\u0e01\\u0e04\\u0e49\\u0e32\\u0e17\\u0e35\\u0e48\\u0e44\\u0e1b\\u0e15\\u0e34\\u0e14\\u0e15\\u0e31\\u0e49\\u0e07\\u0e40\\u0e21\\u0e37\\u0e48\\u0e2d\\u0e27\\u0e31\\u0e19\\u0e17\\u0e35\\u0e48\\u0e27\\u0e31\\u0e19\\u0e17\\u0e35\\u0e48 16\\\/10\\\/2017 \\r\\n\\u0e17\\u0e31\\u0e49\\u0e07\\u0e2b\\u0e21\\u0e14 1 \\u0e23\\u0e32\\u0e22\\u0e01\\u0e32\\u0e23\\u0e14\\u0e31\\u0e07\\u0e19\\u0e35\\u0e49 \\r\\n1. Lek Tanakorn \\\/ \\u0e42\\u0e17\\u0e23:0816894313 \\r\\n\"}}"}
