2018-03-07 08:00:05 post value : {"status":true,"agentcode":"5840003","totals":1,"created":"2018-03-07 08:00:05","fields":"{\"app_id\":\"d1a9a83b-41de-4691-a034-31a11f351d00\",\"include_player_ids\":[\"2e6f6567-2201-46fd-98f7-fb35f2a7505c\"],\"data\":{\"jobstatus\":\"REMIND\"},\"contents\":{\"en\":\"\\u0e41\\u0e08\\u0e49\\u0e07\\u0e40\\u0e15\\u0e37\\u0e2d\\u0e19\\u0e16\\u0e36\\u0e07\\u0e01\\u0e33\\u0e2b\\u0e19\\u0e14\\u0e25\\u0e49\\u0e32\\u0e07\\u0e41\\u0e2d\\u0e23\\u0e4c\\u0e43\\u0e2b\\u0e49\\u0e25\\u0e39\\u0e01\\u0e04\\u0e49\\u0e32\\u0e17\\u0e35\\u0e48\\u0e44\\u0e1b\\u0e15\\u0e34\\u0e14\\u0e15\\u0e31\\u0e49\\u0e07\\u0e40\\u0e21\\u0e37\\u0e48\\u0e2d\\u0e27\\u0e31\\u0e19\\u0e17\\u0e35\\u0e48\\u0e27\\u0e31\\u0e19\\u0e17\\u0e35\\u0e48 07\\\/09\\\/2017 \\r\\n\\u0e17\\u0e31\\u0e49\\u0e07\\u0e2b\\u0e21\\u0e14 1 \\u0e23\\u0e32\\u0e22\\u0e01\\u0e32\\u0e23\\u0e14\\u0e31\\u0e07\\u0e19\\u0e35\\u0e49 \\r\\n1. \\u0e1e\\u0e07\\u0e28\\u0e4c\\u0e28\\u0e31\\u0e01\\u0e14\\u0e34\\u0e4c \\u0e40\\u0e08\\u0e23\\u0e34\\u0e0d\\u0e27\\u0e31\\u0e12\\u0e19\\u0e27\\u0e34\\u0e0d\\u0e0d\\u0e39 \\\/ \\u0e42\\u0e17\\u0e23:0876065694 \\r\\n\"}}"}
2018-03-07 08:00:05 post value : {"status":false,"agentcode":"5890006","totals":1,"created":"2018-03-07 08:00:05","fields":"{\"app_id\":\"d1a9a83b-41de-4691-a034-31a11f351d00\",\"include_player_ids\":[\"\"],\"data\":{\"jobstatus\":\"REMIND\"},\"contents\":{\"en\":\"\\u0e41\\u0e08\\u0e49\\u0e07\\u0e40\\u0e15\\u0e37\\u0e2d\\u0e19\\u0e16\\u0e36\\u0e07\\u0e01\\u0e33\\u0e2b\\u0e19\\u0e14\\u0e25\\u0e49\\u0e32\\u0e07\\u0e41\\u0e2d\\u0e23\\u0e4c\\u0e43\\u0e2b\\u0e49\\u0e25\\u0e39\\u0e01\\u0e04\\u0e49\\u0e32\\u0e17\\u0e35\\u0e48\\u0e44\\u0e1b\\u0e15\\u0e34\\u0e14\\u0e15\\u0e31\\u0e49\\u0e07\\u0e40\\u0e21\\u0e37\\u0e48\\u0e2d\\u0e27\\u0e31\\u0e19\\u0e17\\u0e35\\u0e48\\u0e27\\u0e31\\u0e19\\u0e17\\u0e35\\u0e48 07\\\/09\\\/2017 \\r\\n\\u0e17\\u0e31\\u0e49\\u0e07\\u0e2b\\u0e21\\u0e14 1 \\u0e23\\u0e32\\u0e22\\u0e01\\u0e32\\u0e23\\u0e14\\u0e31\\u0e07\\u0e19\\u0e35\\u0e49 \\r\\n1. \\u0e1a\\u0e2d\\u0e22 \\u0e2d\\u0e38\\u0e14\\u0e23 \\\/ \\u0e42\\u0e17\\u0e23:0926819895 \\r\\n\"}}"}
2018-03-07 08:00:05 post value : {"status":true,"agentcode":"5890081G","totals":1,"created":"2018-03-07 08:00:05","fields":"{\"app_id\":\"d1a9a83b-41de-4691-a034-31a11f351d00\",\"include_player_ids\":[\"e483c13b-c90f-437d-bd36-0cb90a64306f\"],\"data\":{\"jobstatus\":\"REMIND\"},\"contents\":{\"en\":\"\\u0e41\\u0e08\\u0e49\\u0e07\\u0e40\\u0e15\\u0e37\\u0e2d\\u0e19\\u0e16\\u0e36\\u0e07\\u0e01\\u0e33\\u0e2b\\u0e19\\u0e14\\u0e25\\u0e49\\u0e32\\u0e07\\u0e41\\u0e2d\\u0e23\\u0e4c\\u0e43\\u0e2b\\u0e49\\u0e25\\u0e39\\u0e01\\u0e04\\u0e49\\u0e32\\u0e17\\u0e35\\u0e48\\u0e44\\u0e1b\\u0e15\\u0e34\\u0e14\\u0e15\\u0e31\\u0e49\\u0e07\\u0e40\\u0e21\\u0e37\\u0e48\\u0e2d\\u0e27\\u0e31\\u0e19\\u0e17\\u0e35\\u0e48\\u0e27\\u0e31\\u0e19\\u0e17\\u0e35\\u0e48 07\\\/09\\\/2017 \\r\\n\\u0e17\\u0e31\\u0e49\\u0e07\\u0e2b\\u0e21\\u0e14 1 \\u0e23\\u0e32\\u0e22\\u0e01\\u0e32\\u0e23\\u0e14\\u0e31\\u0e07\\u0e19\\u0e35\\u0e49 \\r\\n1. Ekachai Fungladda \\\/ \\u0e42\\u0e17\\u0e23:0816198023 \\r\\n\"}}"}
