2021-01-04 16:08:25 query string : <pre>SELECT *
FROM "agent"
WHERE "status" = 'O'
AND "agent"."AgentType" NOT IN('AD', 'GN', '')
AND
	"agent"."AgentName" NOT LIKE  '%TEST%'
AND ("FixIt01" = 'T' or "FixIt02" = 'T' or "FixIt03" = 'T' or
	"FixIt04" = 'T' or "FixIt05" = 'T')
ORDER BY "agent"."BranchCode" ASC, "agent"."AgentCode" ASC

	OFFSET 0 ROWS FETCH NEXT 20 ROWS ONLY</pre>
